<svg 
            xmlns:xlink="http://www.w3.org/1999/xlink" viewBox="0 0 800 800" xmlns="http://www.w3.org/2000/svg">
<rect fill="#140103" height="800" stroke="none" width="800" x="0" y="0"/>
<path d="M405,382 L422,400 L393,405 L389,393 z" fill="none" stroke="none" stroke-width="0"/>
<linearGradient id="gradient_face0" x1="0" x2="1.01" y1="0" y2="1.01">
<stop offset="0%" stop-color="#FFFFCCFF"/>
<stop offset="100%" stop-color="#FFFFCCFF"/>
</linearGradient>
<path d="M406.60266,390.97894 L409.66672,394.22324 Q411.96475,396.65643,407.2907,397.4623 L401.05872,398.5368 Q396.38467,399.34265,395.94928,398.0364 L395.3687,396.29477 Q394.9333,394.9885,397.7447,393.05566 L401.49323,390.47855 Q404.30463,388.54572,406.60266,390.97894 z" fill="url(#gradient_face0)" stroke="none" stroke-width="0"/>
<path d="M422,400 L424,402 L407,436 L391,426 L393,405 z" fill="none" stroke="none" stroke-width="0"/>
<linearGradient id="gradient_face1" x1="0" x2="1.01" y1="0" y2="1.01">
<stop offset="0%" stop-color="#FFF0A8FF"/>
<stop offset="100%" stop-color="#FFEDA0FF"/>
</linearGradient>
<path d="M419.58237,404.6534 L418.63028,403.70132 Q417.9162,402.98727,414.03745,410.74478 L408.86575,421.08813 Q404.987,428.84564,402.37204,427.21127 L398.8854,425.03214 Q396.27045,423.3978,396.6739,419.16187 L397.21176,413.51398 Q397.6152,409.27805,404.41956,408.1049 L413.49207,406.54065 Q420.29642,405.3675,419.58237,404.6534 z" fill="url(#gradient_face1)" stroke="none" stroke-width="0"/>
<path d="M368,391 L389,393 L393,405 L391,426 L353,420 z" fill="none" stroke="none" stroke-width="0"/>
<linearGradient id="gradient_face2" x1="0" x2="1.01" y1="0" y2="1.01">
<stop offset="0%" stop-color="#FEE186FF"/>
<stop offset="100%" stop-color="#FED977FF"/>
</linearGradient>
<path d="M375.20807,396.7091 L380.9668,397.25757 Q385.28583,397.66888,386.07678,400.04172 L387.13135,403.20547 Q387.9223,405.57828,387.50363,409.97433 L386.9454,415.83572 Q386.52673,420.23175,378.75613,419.00482 L368.39536,417.3689 Q360.6248,416.14197,363.70407,410.18872 L367.80975,402.25104 Q370.88904,396.29776,375.20807,396.7091 z" fill="url(#gradient_face2)" stroke="none" stroke-width="0"/>
<path d="M362,354 L369,348 L404,361 L405,382 L389,393 L368,391 z" fill="none" stroke="none" stroke-width="0"/>
<linearGradient id="gradient_face3" x1="0" x2="1.01" y1="0" y2="1.01">
<stop offset="0%" stop-color="#FEC965FF"/>
<stop offset="100%" stop-color="#FEB44EFF"/>
</linearGradient>
<path d="M368.17496,355.29257 L369.22858,354.38947 Q370.01877,353.71216,378.76196,356.95963 L390.41956,361.2896 Q399.16278,364.53708,399.37592,369.01306 L399.6601,374.98102 Q399.87323,379.457,396.21075,381.97498 L391.3274,385.33224 Q387.66492,387.85022,383.0607,387.4117 L376.92172,386.82706 Q372.3175,386.38858,370.83768,377.26297 L368.8646,365.0955 Q367.38477,355.96988,368.17496,355.29257 z" fill="url(#gradient_face3)" stroke="none" stroke-width="0"/>
<path d="M440,345 L455,356 L444,398 L424,402 L422,400 L405,382 L404,361 z" fill="none" stroke="none" stroke-width="0"/>
<linearGradient id="gradient_face4" x1="0" x2="1.01" y1="0" y2="1.01">
<stop offset="0%" stop-color="#FDAA48FF"/>
<stop offset="100%" stop-color="#FD903DFF"/>
</linearGradient>
<path d="M442.35742,352.92914 L446.32568,355.83917 Q449.30185,358.02173,446.49777,368.7282 L442.759,383.0035 Q439.95493,393.71,435.66147,394.5687 L429.93683,395.71362 Q425.64337,396.5723,425.62616,396.5551 L425.60324,396.53217 Q425.58603,396.51495,420.8821,391.53433 L414.6102,384.8935 Q409.90628,379.91287,409.68152,375.19287 L409.38184,368.89954 Q409.15707,364.17957,418.22433,360.14966 L430.314,354.7765 Q439.38123,350.74658,442.35742,352.92914 z" fill="url(#gradient_face4)" stroke="none" stroke-width="0"/>
<path d="M424,402 L444,398 L470,429 L458,454 L411,447 L407,436 z" fill="none" stroke="none" stroke-width="0"/>
<linearGradient id="gradient_face5" x1="0" x2="1.01" y1="0" y2="1.01">
<stop offset="0%" stop-color="#FD8D3CFF"/>
<stop offset="100%" stop-color="#FC542BFF"/>
</linearGradient>
<path d="M431.78714,405.5416 L437.66528,404.36597 Q442.0739,403.48425,448.6809,411.36182 L457.49026,421.86526 Q464.09726,429.74286,461.39462,435.37335 L457.79108,442.8807 Q455.08844,448.5112,442.96634,446.7058 L426.80356,444.29858 Q414.68146,442.49316,414.0072,440.63895 L413.1082,438.16666 Q412.43393,436.31247,416.9173,427.3457 L422.89514,415.39005 Q427.3785,406.4233,431.78714,405.5416 z" fill="url(#gradient_face5)" stroke="none" stroke-width="0"/>
<path d="M352,421 L353,420 L391,426 L407,436 L411,447 L386,482 L351,474 z" fill="none" stroke="none" stroke-width="0"/>
<linearGradient id="gradient_face6" x1="0" x2="1.01" y1="0" y2="1.01">
<stop offset="0%" stop-color="#FC5A2DFF"/>
<stop offset="100%" stop-color="#E6201DFF"/>
</linearGradient>
<path d="M356.2933,423.77777 L355.40292,424.66815 Q354.73514,425.3359,365.07877,426.96912 L378.87027,429.14673 Q389.2139,430.77994,393.31662,433.34412 L398.78687,436.76303 Q402.8896,439.32724,403.6432,441.39966 L404.648,444.16293 Q405.40164,446.23538,398.9413,455.27985 L390.32755,467.3391 Q383.86722,476.38354,375.5298,474.47787 L364.4132,471.93692 Q356.07578,470.03122,356.34137,455.95486 L356.6955,437.18637 Q356.9611,423.11,356.2933,423.77777 z" fill="url(#gradient_face6)" stroke="none" stroke-width="0"/>
<path d="M310,360 L362,354 L368,391 L353,420 L352,421 L309,404 z" fill="none" stroke="none" stroke-width="0"/>
<linearGradient id="gradient_face7" x1="0" x2="1.01" y1="0" y2="1.01">
<stop offset="0%" stop-color="#ED2E21FF"/>
<stop offset="100%" stop-color="#C20424FF"/>
</linearGradient>
<path d="M327.7785,362.9818 L344.95016,361.00046 Q357.82892,359.51447,359.32028,368.7111 L361.30875,380.9733 Q362.80008,390.16995,358.63474,398.223 L353.0809,408.96036 Q348.91556,417.01337,349.47656,416.45236 L350.22458,415.70435 Q350.7856,415.1433,339.7733,410.7896 L325.09018,404.98468 Q314.07785,400.63095,314.32443,389.782 L314.6532,375.31677 Q314.89975,364.4678,327.7785,362.9818 z" fill="url(#gradient_face7)" stroke="none" stroke-width="0"/>
<path d="M376,304 L427,295 L440,345 L404,361 L369,348 z" fill="none" stroke="none" stroke-width="0"/>
<linearGradient id="gradient_face8" x1="0" x2="1.01" y1="0" y2="1.01">
<stop offset="0%" stop-color="#D30F1FFF"/>
<stop offset="100%" stop-color="#8A0026FF"/>
</linearGradient>
<path d="M393.2614,306.03113 L410.4392,302.99976 Q423.32257,300.72623,426.5539,313.1544 L430.86234,329.72528 Q434.09366,342.15344,425.0149,346.18848 L412.90985,351.56848 Q403.83105,355.6035,395.0562,352.34427 L383.35645,347.99863 Q374.5816,344.7394,376.32053,333.809 L378.63913,319.23508 Q380.37805,308.30466,393.2614,306.03113 z" fill="url(#gradient_face8)" stroke="none" stroke-width="0"/>
<path d="M455,356 L496,353 L518,409 L470,429 L444,398 z" fill="none" stroke="none" stroke-width="0"/>
<linearGradient id="gradient_face9" x1="0" x2="1.01" y1="0" y2="1.01">
<stop offset="0%" stop-color="#FFFFCCFF"/>
<stop offset="100%" stop-color="#FFFFCCFF"/>
</linearGradient>
<path d="M469.05945,359.98462 L482.56412,358.9965 Q492.6926,358.25537,498.35132,372.6594 L505.89627,391.86475 Q511.555,406.26874,499.5293,411.27945 L483.49503,417.96042 Q471.4693,422.97113,464.87598,415.10986 L456.0849,404.62817 Q449.49158,396.76694,452.3234,385.95456 L456.09915,371.5381 Q458.93094,360.72574,469.05945,359.98462 z" fill="url(#gradient_face9)" stroke="none" stroke-width="0"/>
<path d="M411,447 L458,454 L469,491 L414,527 L386,482 z" fill="none" stroke="none" stroke-width="0"/>
<linearGradient id="gradient_face10" x1="0" x2="1.01" y1="0" y2="1.01">
<stop offset="0%" stop-color="#FFF0A8FF"/>
<stop offset="100%" stop-color="#FFEDA0FF"/>
</linearGradient>
<path d="M425.5374,454.2203 L441.86722,456.6524 Q454.11456,458.47647,456.82407,467.59024 L460.43674,479.74194 Q463.1462,488.8557,448.86508,498.20337 L429.82355,510.66693 Q415.54242,520.0146,408.48206,508.66757 L399.06824,493.53827 Q392.0079,482.19125,398.39255,473.25275 L406.90543,461.33475 Q413.29007,452.39624,425.5374,454.2203 z" fill="url(#gradient_face10)" stroke="none" stroke-width="0"/>
<path d="M268,439 L309,404 L352,421 L351,474 L320,491 z" fill="none" stroke="none" stroke-width="0"/>
<linearGradient id="gradient_face11" x1="0" x2="1.01" y1="0" y2="1.01">
<stop offset="0%" stop-color="#FEE186FF"/>
<stop offset="100%" stop-color="#FED977FF"/>
</linearGradient>
<path d="M285.74045,430.42978 L299.5795,418.61597 Q309.95877,409.7556,321.05176,414.14124 L335.84244,419.9887 Q346.93546,424.3743,346.67148,438.36472 L346.31952,457.0186 Q346.05554,471.009,338.50406,475.15015 L328.4354,480.67166 Q320.88388,484.8128,307.22708,471.156 L289.018,452.94693 Q275.36118,439.29013,285.74045,430.42978 z" fill="url(#gradient_face11)" stroke="none" stroke-width="0"/>
<path d="M333,268 L376,304 L369,348 L362,354 L310,360 L288,335 z" fill="none" stroke="none" stroke-width="0"/>
<linearGradient id="gradient_face12" x1="0" x2="1.01" y1="0" y2="1.01">
<stop offset="0%" stop-color="#FEC965FF"/>
<stop offset="100%" stop-color="#FEB44EFF"/>
</linearGradient>
<path d="M345.02133,284.58533 L359.64725,296.8303 Q370.6167,306.014,368.73694,317.8297 L366.2306,333.58395 Q364.35083,345.39963,363.0178,346.54224 L361.24042,348.06567 Q359.90738,349.20828,345.54282,350.86572 L326.39005,353.07565 Q312.02548,354.73312,306.70752,348.68997 L299.61688,340.63245 Q294.29892,334.58932,306.2248,316.833 L322.12598,293.1579 Q334.05188,275.4016,345.02133,284.58533 z" fill="url(#gradient_face12)" stroke="none" stroke-width="0"/>
<path d="M427,295 L445,271 L526,304 L496,353 L455,356 L440,345 z" fill="none" stroke="none" stroke-width="0"/>
<linearGradient id="gradient_face13" x1="0" x2="1.01" y1="0" y2="1.01">
<stop offset="0%" stop-color="#FDAA48FF"/>
<stop offset="100%" stop-color="#FD903DFF"/>
</linearGradient>
<path d="M436.71735,290.37686 L442.41354,282.78195 Q446.68567,277.0858,468.2786,285.8829 L497.06918,297.6124 Q518.6621,306.40952,510.98618,318.94684 L500.75165,335.66327 Q493.0757,348.2006,482.09454,349.00412 L467.45294,350.07544 Q456.47177,350.87894,452.8477,348.22128 L448.01553,344.6777 Q444.39145,342.02005,440.8076,328.23593 L436.02908,309.85715 Q432.44522,296.07303,436.71735,290.37686 z" fill="url(#gradient_face13)" stroke="none" stroke-width="0"/>
<path d="M518,409 L542,420 L525,513 L469,491 L458,454 L470,429 z" fill="none" stroke="none" stroke-width="0"/>
<linearGradient id="gradient_face14" x1="0" x2="1.01" y1="0" y2="1.01">
<stop offset="0%" stop-color="#FD8D3CFF"/>
<stop offset="100%" stop-color="#FC542BFF"/>
</linearGradient>
<path d="M523.44794,416.99713 L530.83905,420.38474 Q536.3824,422.9254,531.8198,447.88525 L525.73645,481.16504 Q521.1739,506.12488,506.75107,500.45877 L487.52063,492.90396 Q473.0978,487.23785,470.1712,477.39383 L466.26907,464.26843 Q463.34247,454.4244,466.44455,447.96173 L470.58063,439.34485 Q473.6827,432.8822,486.94928,427.35446 L504.63803,419.98416 Q517.9046,414.45642,523.44794,416.99713 z" fill="url(#gradient_face14)" stroke="none" stroke-width="0"/>
<path d="M320,491 L351,474 L386,482 L414,527 L408,551 L306,552 z" fill="none" stroke="none" stroke-width="0"/>
<linearGradient id="gradient_face15" x1="0" x2="1.01" y1="0" y2="1.01">
<stop offset="0%" stop-color="#FC5A2DFF"/>
<stop offset="100%" stop-color="#E6201DFF"/>
</linearGradient>
<path d="M332.58145,489.80298 L343.52814,483.79996 Q351.73816,479.29767,361.07327,481.43143 L373.52008,484.2764 Q382.8552,486.41013,390.58926,498.8399 L400.90137,515.4129 Q408.63544,527.8427,407.27078,533.30133 L405.45123,540.57947 Q404.08658,546.03815,376.54813,546.3081 L339.8302,546.6681 Q312.29175,546.93805,315.91565,531.14825 L320.74753,510.0951 Q324.3714,494.30524,332.58145,489.80298 z" fill="url(#gradient_face15)" stroke="none" stroke-width="0"/>
<path d="M223,332 L288,335 L310,360 L309,404 L268,439 L247,438 z" fill="none" stroke="none" stroke-width="0"/>
<linearGradient id="gradient_face16" x1="0" x2="1.01" y1="0" y2="1.01">
<stop offset="0%" stop-color="#ED2E21FF"/>
<stop offset="100%" stop-color="#C20424FF"/>
</linearGradient>
<path d="M246.22282,338.07715 L268.75198,339.11694 Q285.64886,339.89682,291.44128,346.4791 L299.16452,355.2555 Q304.95694,361.8378,304.6855,373.78137 L304.32358,389.70615 Q304.05212,401.64972,292.71442,411.32825 L277.5975,424.23294 Q266.2598,433.91147,261.69287,433.694 L255.60365,433.40402 Q251.03673,433.18655,244.52348,404.41977 L235.83917,366.06406 Q229.32594,337.2973,246.22282,338.07715 z" fill="url(#gradient_face16)" stroke="none" stroke-width="0"/>
<path d="M436,204 L445,271 L427,295 L376,304 L333,268 L330,250 z" fill="none" stroke="none" stroke-width="0"/>
<linearGradient id="gradient_face17" x1="0" x2="1.01" y1="0" y2="1.01">
<stop offset="0%" stop-color="#D30F1FFF"/>
<stop offset="100%" stop-color="#8A0026FF"/>
</linearGradient>
<path d="M434.279,228.74448 L437.41788,252.1118 Q439.77203,269.63727,435.09607,275.87192 L428.86142,284.18478 Q424.18542,290.41943,410.15707,292.89502 L391.45258,296.1958 Q377.42422,298.67142,365.48532,288.67606 L349.5668,275.3489 Q337.6279,265.35355,337.01178,261.65695 L336.1903,256.72812 Q335.57422,253.03151,364.4794,240.48776 L403.01962,223.76274 Q431.9248,211.219,434.279,228.74448 z" fill="url(#gradient_face17)" stroke="none" stroke-width="0"/>
<path d="M526,304 L539,299 L609,397 L606,400 L542,420 L518,409 L496,353 z" fill="none" stroke="none" stroke-width="0"/>
<linearGradient id="gradient_face18" x1="0" x2="1.01" y1="0" y2="1.01">
<stop offset="0%" stop-color="#FFFFCCFF"/>
<stop offset="100%" stop-color="#FFFFCCFF"/>
</linearGradient>
<path d="M531.71936,307.15732 L534.8406,305.95685 Q537.1815,305.0565,556.7679,332.4774 L582.88306,369.0386 Q602.4694,396.4595,602.7289,396.2 L603.0749,395.85403 Q603.33435,395.59454,585.0359,401.31284 L560.63794,408.9372 Q542.3395,414.65546,536.2126,411.84726 L528.04333,408.10303 Q521.91644,405.29486,515.8106,389.75287 L507.6696,369.03018 Q501.56378,353.4882,509.90817,339.85904 L521.034,321.68683 Q529.37836,308.0577,531.71936,307.15732 z" fill="url(#gradient_face18)" stroke="none" stroke-width="0"/>
<path d="M469,491 L525,513 L531,522 L445,614 L438,609 L408,551 L414,527 z" fill="none" stroke="none" stroke-width="0"/>
<linearGradient id="gradient_face19" x1="0" x2="1.01" y1="0" y2="1.01">
<stop offset="0%" stop-color="#FFF0A8FF"/>
<stop offset="100%" stop-color="#FFEDA0FF"/>
</linearGradient>
<path d="M485.21674,502.74286 L506.07034,510.93536 Q521.7106,517.0797,522.59033,518.39935 L523.7633,520.1589 Q524.64307,521.4785,500.5522,547.2502 L468.43097,581.6124 Q444.34006,607.3841,443.60422,606.85846 L442.62308,606.15765 Q441.8872,605.6321,433.3137,589.0566 L421.8823,566.95593 Q413.30878,550.38043,414.82895,544.29974 L416.85583,536.1922 Q418.37598,530.1116,433.73615,520.0576 L454.21637,506.6524 Q469.5765,496.59848,485.21674,502.74286 z" fill="url(#gradient_face19)" stroke="none" stroke-width="0"/>
<path d="M247,438 L268,439 L320,491 L306,552 L301,557 L190,489 L195,478 z" fill="none" stroke="none" stroke-width="0"/>
<linearGradient id="gradient_face20" x1="0" x2="1.01" y1="0" y2="1.01">
<stop offset="0%" stop-color="#FEE186FF"/>
<stop offset="100%" stop-color="#FED977FF"/>
</linearGradient>
<path d="M253.76558,443.32785 L260.66028,443.65616 Q265.83133,443.9024,280.43423,458.5053 L299.90475,477.97583 Q314.50766,492.57874,310.58984,509.64935 L305.36603,532.41016 Q301.4482,549.4807,301.0891,549.83984 L300.61035,550.3186 Q300.25125,550.6777,269.09012,531.58795 L227.54193,506.135 Q196.3808,487.04532,197.17741,485.29272 L198.23958,482.95596 Q199.03621,481.2034,213.9037,469.76685 L233.72704,454.51813 Q248.59453,443.0816,253.76558,443.32785 z" fill="url(#gradient_face20)" stroke="none" stroke-width="0"/>
<path d="M267,203 L283,206 L330,250 L333,268 L288,335 L223,332 L221,330 z" fill="none" stroke="none" stroke-width="0"/>
<linearGradient id="gradient_face21" x1="0" x2="1.01" y1="0" y2="1.01">
<stop offset="0%" stop-color="#FEC965FF"/>
<stop offset="100%" stop-color="#FEB44EFF"/>
</linearGradient>
<path d="M273.37195,209.28188 L277.52884,210.0613 Q280.6465,210.64586,294.0565,223.19987 L311.9365,239.93858 Q325.34647,252.49261,326.06494,256.80338 L327.0229,262.5511 Q327.74133,266.86185,315.04456,285.76596 L298.1155,310.97144 Q285.4187,329.87555,267.3428,329.04126 L243.24161,327.9289 Q225.1657,327.09464,225.6512,327.58014 L226.29854,328.22748 Q226.78404,328.71298,239.82512,292.70828 L257.21323,244.70201 Q270.25427,208.69731,273.37195,209.28188 z" fill="url(#gradient_face21)" stroke="none" stroke-width="0"/>
<path d="M575,225 L574,245 L539,299 L526,304 L445,271 L436,204 z" fill="none" stroke="none" stroke-width="0"/>
<linearGradient id="gradient_face22" x1="0" x2="1.01" y1="0" y2="1.01">
<stop offset="0%" stop-color="#FDAA48FF"/>
<stop offset="100%" stop-color="#FD903DFF"/>
</linearGradient>
<path d="M569.56824,233.51016 L569.28546,239.16617 Q569.07336,243.40819,559.0578,258.86075 L545.70374,279.46414 Q535.6882,294.9167,532.7976,296.02844 L528.94354,297.5108 Q526.053,298.62256,503.108,289.2746 L472.5147,276.81067 Q449.56976,267.4627,447.25165,250.20575 L444.16086,227.19644 Q441.84274,209.93945,480.22403,215.73807 L531.39905,223.46954 Q569.78033,229.26816,569.56824,233.51016 z" fill="url(#gradient_face22)" stroke="none" stroke-width="0"/>
<path d="M542,420 L606,400 L614,544 L589,547 L531,522 L525,513 z" fill="none" stroke="none" stroke-width="0"/>
<linearGradient id="gradient_face23" x1="0" x2="1.01" y1="0" y2="1.01">
<stop offset="0%" stop-color="#FD8D3CFF"/>
<stop offset="100%" stop-color="#FC542BFF"/>
</linearGradient>
<path d="M562.87177,418.71603 L584.86725,411.84244 Q601.36383,406.68726,603.5789,446.55942 L606.5324,499.7223 Q608.74756,539.5944,603.04584,540.2786 L595.4436,541.1909 Q589.74194,541.8751,573.12103,534.71094 L550.95984,525.1587 Q534.3389,517.9945,533.1219,516.16895 L531.4992,513.7349 Q530.2822,511.90942,535.1101,485.49796 L541.5473,450.28265 Q546.3752,423.87122,562.87177,418.71603 z" fill="url(#gradient_face23)" stroke="none" stroke-width="0"/>
<path d="M301,557 L306,552 L408,551 L438,609 L295,646 L287,619 z" fill="none" stroke="none" stroke-width="0"/>
<linearGradient id="gradient_face24" x1="0" x2="1.01" y1="0" y2="1.01">
<stop offset="0%" stop-color="#FC5A2DFF"/>
<stop offset="100%" stop-color="#E6201DFF"/>
</linearGradient>
<path d="M306.3184,558.7527 L307.33148,557.73956 Q308.09134,556.97974,337.15567,556.69476 L375.9081,556.3149 Q404.97244,556.0299,412.68445,570.9398 L422.96713,590.81964 Q430.67914,605.72955,391.00208,615.99567 L338.0993,629.6838 Q298.42224,639.9499,296.54486,633.6138 L294.04172,625.16565 Q292.16437,618.8296,296.18262,601.0345 L301.54028,577.3076 Q305.55853,559.5125,306.3184,558.7527 z" fill="url(#gradient_face24)" stroke="none" stroke-width="0"/>
<path d="M128,342 L158,328 L221,330 L223,332 L247,438 L195,478 z" fill="none" stroke="none" stroke-width="0"/>
<linearGradient id="gradient_face25" x1="0" x2="1.01" y1="0" y2="1.01">
<stop offset="0%" stop-color="#ED2E21FF"/>
<stop offset="100%" stop-color="#C20424FF"/>
</linearGradient>
<path d="M142.02951,340.97055 L151.7461,336.43613 Q159.03354,333.03534,176.98257,333.60513 L200.9146,334.3649 Q218.86363,334.9347,218.7373,334.80838 L218.5689,334.63995 Q218.44257,334.51364,225.33504,364.95538 L234.525,405.54437 Q241.41747,435.98608,228.02875,446.28513 L210.17712,460.01712 Q196.78839,470.31616,178.1745,432.5327 L153.35597,382.1548 Q134.74207,344.37134,142.02951,340.97055 z" fill="url(#gradient_face25)" stroke="none" stroke-width="0"/>
<path d="M406,112 L427,142 L436,204 L330,250 L283,206 z" fill="none" stroke="none" stroke-width="0"/>
<linearGradient id="gradient_face26" x1="0" x2="1.01" y1="0" y2="1.01">
<stop offset="0%" stop-color="#D30F1FFF"/>
<stop offset="100%" stop-color="#8A0026FF"/>
</linearGradient>
<path d="M410.09232,126.565125 L417.02386,136.46735 Q422.22253,143.89401,424.70657,161.00635 L428.01865,183.82278 Q430.5027,200.93512,400.6581,213.88654 L360.86536,231.15509 Q331.02078,244.1065,318.9332,232.79047 L302.8164,217.70241 Q290.72882,206.38637,324.97827,180.21199 L370.6442,145.31282 Q404.89365,119.13845,410.09232,126.565125 z" fill="url(#gradient_face26)" stroke="none" stroke-width="0"/>
<path d="M539,299 L574,245 L694,349 L665,379 L609,397 z" fill="none" stroke="none" stroke-width="0"/>
<linearGradient id="gradient_face27" x1="0" x2="1.01" y1="0" y2="1.01">
<stop offset="0%" stop-color="#FFFFCCFF"/>
<stop offset="100%" stop-color="#FFFFCCFF"/>
</linearGradient>
<path d="M554.05365,284.96732 L566.06256,266.43924 Q575.0693,252.5432,608.5692,281.57648 L653.2358,320.2875 Q686.7357,349.32077,679.39795,356.9116 L669.6142,367.03268 Q662.2764,374.6235,646.8774,379.57318 L626.34534,386.1728 Q610.9463,391.12247,591.17645,363.44473 L564.8167,326.5411 Q545.04694,298.86337,554.05365,284.96732 z" fill="url(#gradient_face27)" stroke="none" stroke-width="0"/>
<path d="M531,522 L589,547 L509,688 L472,663 L445,614 z" fill="none" stroke="none" stroke-width="0"/>
<linearGradient id="gradient_face28" x1="0" x2="1.01" y1="0" y2="1.01">
<stop offset="0%" stop-color="#FFF0A8FF"/>
<stop offset="100%" stop-color="#FFEDA0FF"/>
</linearGradient>
<path d="M547.1452,534.4038 L567.00433,542.9638 Q581.89874,549.3838,559.5249,588.8177 L529.6932,641.3962 Q507.31934,680.8301,497.86282,674.44055 L485.25418,665.92114 Q475.79767,659.5317,468.39737,646.10144 L458.53027,628.19446 Q451.12994,614.7643,475.4662,588.73016 L507.91455,554.01794 Q532.2508,527.9838,547.1452,534.4038 z" fill="url(#gradient_face28)" stroke="none" stroke-width="0"/>
<path d="M149,522 L190,489 L301,557 L287,619 L129,567 z" fill="none" stroke="none" stroke-width="0"/>
<linearGradient id="gradient_face29" x1="0" x2="1.01" y1="0" y2="1.01">
<stop offset="0%" stop-color="#FEE186FF"/>
<stop offset="100%" stop-color="#FED977FF"/>
</linearGradient>
<path d="M164.27176,516.12646 L179.19724,504.11328 Q190.39136,495.1034,221.87411,514.39014 L263.8511,540.1058 Q295.33386,559.3925,291.73422,575.33374 L286.93472,596.58875 Q283.33508,612.52997,239.07886,597.96466 L180.07054,578.5442 Q135.81432,563.9789,140.99332,552.3261 L147.89864,536.7891 Q153.07764,525.1364,164.27176,516.12646 z" fill="url(#gradient_face29)" stroke="none" stroke-width="0"/>
<path d="M176,166 L186,160 L230,171 L267,203 L221,330 L158,328 z" fill="none" stroke="none" stroke-width="0"/>
<linearGradient id="gradient_face30" x1="0" x2="1.01" y1="0" y2="1.01">
<stop offset="0%" stop-color="#FEC965FF"/>
<stop offset="100%" stop-color="#FEB44EFF"/>
</linearGradient>
<path d="M182.52612,167.91527 L184.96637,166.45113 Q186.79655,165.35303,199.04684,168.41559 L215.38057,172.49902 Q227.63086,175.5616,237.67982,184.2526 L251.07843,195.84058 Q261.12738,204.53156,248.04935,240.63832 L230.61195,288.78067 Q217.53392,324.88745,201.34383,324.37347 L179.75705,323.68817 Q163.56697,323.17422,168.70566,276.92596 L175.55725,215.26163 Q180.69595,169.01338,182.52612,167.91527 z" fill="url(#gradient_face30)" stroke="none" stroke-width="0"/>
<path d="M585,129 L601,145 L598,186 L575,225 L436,204 L427,142 z" fill="none" stroke="none" stroke-width="0"/>
<linearGradient id="gradient_face31" x1="0" x2="1.01" y1="0" y2="1.01">
<stop offset="0%" stop-color="#FDAA48FF"/>
<stop offset="100%" stop-color="#FD903DFF"/>
</linearGradient>
<path d="M586.9253,137.99637 L592.023,143.0941 Q595.8463,146.9174,595.02203,158.1826 L593.92303,173.20285 Q593.09875,184.46805,586.8916,194.99315 L578.6155,209.02661 Q572.4084,219.55171,532.8104,213.56929 L480.01315,205.59273 Q440.4152,199.6103,438.10437,183.69128 L435.02325,162.46591 Q432.71243,146.54689,477.8293,142.83473 L537.9851,137.88521 Q583.102,134.17307,586.9253,137.99637 z" fill="url(#gradient_face31)" stroke="none" stroke-width="0"/>
<path d="M609,397 L665,379 L708,526 L689,554 L689,555 L653,558 L614,544 L606,400 z" fill="none" stroke="none" stroke-width="0"/>
<linearGradient id="gradient_face32" x1="0" x2="1.01" y1="0" y2="1.01">
<stop offset="0%" stop-color="#FD8D3CFF"/>
<stop offset="100%" stop-color="#FC542BFF"/>
</linearGradient>
<path d="M626.6693,396.5725 L646.65393,390.1489 Q661.64246,385.33115,673.91156,427.27448 L690.27045,483.1989 Q702.53955,525.1423,696.9777,533.3387 L689.5619,544.2673 Q684,552.46375,684,551.8444 L684,551.0187 Q684,550.39935,674.90015,551.15765 L662.76697,552.16876 Q653.6671,552.92706,643.20953,549.1731 L629.26605,544.1677 Q618.8085,540.4137,616.5008,498.87604 L613.42395,443.49246 Q611.11633,401.95477,611.28564,401.7854 L611.5115,401.5596 Q611.6808,401.39026,626.6693,396.5725 z" fill="url(#gradient_face32)" stroke="none" stroke-width="0"/>
<path d="M438,609 L445,614 L472,663 L339,733 L304,717 L296,708 L289,684 L295,646 z" fill="none" stroke="none" stroke-width="0"/>
<linearGradient id="gradient_face33" x1="0" x2="1.01" y1="0" y2="1.01">
<stop offset="0%" stop-color="#FC5A2DFF"/>
<stop offset="100%" stop-color="#E6201DFF"/>
</linearGradient>
<path d="M438.24585,615.3201 L439.91632,616.5133 Q441.1692,617.4082,448.36676,630.4705 L457.96353,647.8869 Q465.16113,660.94916,427.26627,680.89386 L376.73975,707.48676 Q338.84488,727.4314,329.30252,723.0692 L316.5794,717.2529 Q307.03705,712.8907,305.07138,710.6793 L302.4505,707.73083 Q300.48483,705.5195,298.5734,698.96594 L296.0248,690.2279 Q294.11337,683.6744,295.70755,673.5778 L297.83316,660.1157 Q299.42734,650.0191,340.69702,639.34094 L395.7233,625.1034 Q436.99298,614.42523,438.24585,615.3201 z" fill="url(#gradient_face33)" stroke="none" stroke-width="0"/>
<path d="M94,343 L128,342 L195,478 L190,489 L149,522 L57,409 L66,367 L81,349 z" fill="none" stroke="none" stroke-width="0"/>
<linearGradient id="gradient_face34" x1="0" x2="1.01" y1="0" y2="1.01">
<stop offset="0%" stop-color="#ED2E21FF"/>
<stop offset="100%" stop-color="#C20424FF"/>
</linearGradient>
<path d="M104.098015,347.70517 L116.0048,347.35495 Q124.93489,347.09232,144.295,386.39044 L170.10847,438.78793 Q189.46858,478.0861,188.40991,480.41516 L186.99834,483.5206 Q185.93967,485.84967,175.07924,494.591 L160.59866,506.2461 Q149.73824,514.9874,123.5342,482.80203 L88.595505,439.8882 Q62.391476,407.70282,64.86321,396.16803 L68.15887,380.7883 Q70.63061,369.2535,74.677185,364.39764 L80.07261,357.92313 Q84.11918,353.06723,87.43381,351.5374 L91.8533,349.49765 Q95.16792,347.9678,104.098015,347.70517 z" fill="url(#gradient_face34)" stroke="none" stroke-width="0"/>
<path d="M367,62 L398,80 L400,83 L406,112 L283,206 L267,203 L230,171 L320,61 z" fill="none" stroke="none" stroke-width="0"/>
<linearGradient id="gradient_face35" x1="0" x2="1.01" y1="0" y2="1.01">
<stop offset="0%" stop-color="#D30F1FFF"/>
<stop offset="100%" stop-color="#8A0026FF"/>
</linearGradient>
<path d="M374.26843,72.00214 L385.82037,78.709724 Q394.48438,83.74042,394.72925,84.107735 L395.05573,84.59749 Q395.30063,84.964806,396.85052,92.456024 L398.91708,102.44433 Q400.46698,109.93555,364.8468,137.15747 L317.3532,173.45338 Q281.73303,200.67531,277.98785,199.97308 L272.99426,199.03679 Q269.24908,198.33456,259.55954,189.95442 L246.64015,178.7809 Q236.9506,170.40076,262.5638,139.09572 L296.71475,97.35569 Q322.32794,66.05066,335.31088,66.3269 L352.6215,66.695206 Q365.60446,66.971436,374.26843,72.00214 z" fill="url(#gradient_face35)" stroke="none" stroke-width="0"/>
<path d="M575,225 L598,186 L720,251 L728,300 L714,341 L694,349 L574,245 z" fill="none" stroke="none" stroke-width="0"/>
<linearGradient id="gradient_face36" x1="0" x2="1.01" y1="0" y2="1.01">
<stop offset="0%" stop-color="#FFFFCCFF"/>
<stop offset="100%" stop-color="#FFFFCCFF"/>
</linearGradient>
<path d="M585.915,216.33481 L593.8919,202.80872 Q599.8746,192.66414,634.55145,211.13953 L680.78735,235.77338 Q715.46423,254.24878,717.684,267.845 L720.64374,285.97333 Q722.8635,299.56955,719.0076,310.86188 L713.8664,325.91833 Q710.01044,337.21066,705.49896,339.01526 L699.4836,341.4214 Q694.9721,343.226,660.2151,313.10327 L613.87244,272.9396 Q579.1154,242.81686,579.3605,237.91562 L579.6872,231.38063 Q579.93225,226.47939,585.915,216.33481 z" fill="url(#gradient_face36)" stroke="none" stroke-width="0"/>
<path d="M614,544 L653,558 L614,687 L564,706 L515,698 L509,688 L589,547 z" fill="none" stroke="none" stroke-width="0"/>
<linearGradient id="gradient_face37" x1="0" x2="1.01" y1="0" y2="1.01">
<stop offset="0%" stop-color="#FFF0A8FF"/>
<stop offset="100%" stop-color="#FFEDA0FF"/>
</linearGradient>
<path d="M623.4476,552.70386 L636.81415,557.5021 Q646.83905,561.10077,635.76495,597.7304 L620.9996,646.5699 Q609.9255,683.19946,595.99176,688.4943 L577.41345,695.5541 Q563.47974,700.8489,549.86414,698.6259 L531.70996,695.662 Q518.09436,693.439,517.10266,691.7862 L515.7804,689.5824 Q514.7887,687.92957,537.9829,647.04974 L568.9085,592.54333 Q592.1027,551.6635,598.4987,550.896 L607.0267,549.8727 Q613.42267,549.10516,623.4476,552.70386 z" fill="url(#gradient_face37)" stroke="none" stroke-width="0"/>
<path d="M129,623 L129,567 L287,619 L295,646 L289,684 L158,672 z" fill="none" stroke="none" stroke-width="0"/>
<linearGradient id="gradient_face38" x1="0" x2="1.01" y1="0" y2="1.01">
<stop offset="0%" stop-color="#FEE186FF"/>
<stop offset="100%" stop-color="#FED977FF"/>
</linearGradient>
<path d="M134,607.3147 L134,588.22595 Q134,573.9094,178.68495,588.61584 L238.2649,608.2244 Q282.94983,622.93085,285.03036,629.95264 L287.80438,639.31494 Q289.8849,646.3367,288.35693,656.01373 L286.31967,668.9165 Q284.79172,678.59357,247.65456,675.1917 L198.13835,670.6559 Q161.00119,667.25397,152.90083,653.5672 L142.10036,635.3181 Q134,621.6313,134,607.3147 z" fill="url(#gradient_face38)" stroke="none" stroke-width="0"/>
<path d="M125,175 L176,166 L158,328 L128,342 L94,343 L81,216 z" fill="none" stroke="none" stroke-width="0"/>
<linearGradient id="gradient_face39" x1="0" x2="1.01" y1="0" y2="1.01">
<stop offset="0%" stop-color="#FEC965FF"/>
<stop offset="100%" stop-color="#FEB44EFF"/>
</linearGradient>
<path d="M140.21622,177.39204 L157.40306,174.35907 Q170.2932,172.08434,165.20744,217.85605 L158.42645,278.88498 Q153.34071,324.65668,145.38483,328.36945 L134.77698,333.31976 Q126.82108,337.0325,118.32492,337.2824 L106.996704,337.61557 Q98.50054,337.86548,94.81852,301.8949 L89.90915,253.93411 Q86.22712,217.96353,98.55681,206.4745 L114.9964,191.1558 Q127.32609,179.66678,140.21622,177.39204 z" fill="url(#gradient_face39)" stroke="none" stroke-width="0"/>
<path d="M518,45 L569,83 L585,129 L427,142 L406,112 L400,83 z" fill="none" stroke="none" stroke-width="0"/>
<linearGradient id="gradient_face40" x1="0" x2="1.01" y1="0" y2="1.01">
<stop offset="0%" stop-color="#FDAA48FF"/>
<stop offset="100%" stop-color="#FD903DFF"/>
</linearGradient>
<path d="M531.3901,61.212246 L550.47107,75.429436 Q564.78174,86.09233,568.7943,97.62847 L574.1444,113.009995 Q578.157,124.546135,533.545,128.21674 L474.06232,133.11089 Q429.45032,136.7815,423.82144,128.74025 L416.31628,118.018585 Q410.6874,109.97733,409.22296,102.899086 L407.27032,93.46143 Q405.80588,86.38319,439.1879,75.63303 L483.6973,61.2995 Q517.07935,50.54935,531.3901,61.212246 z" fill="url(#gradient_face40)" stroke="none" stroke-width="0"/>
<path d="M694,349 L714,341 L749,366 L780,437 L748,506 L708,526 L665,379 z" fill="none" stroke="none" stroke-width="0"/>
<linearGradient id="gradient_face41" x1="0" x2="1.01" y1="0" y2="1.01">
<stop offset="0%" stop-color="#FD8D3CFF"/>
<stop offset="100%" stop-color="#FC542BFF"/>
</linearGradient>
<path d="M701.7912,351.26868 L708.37823,348.63388 Q713.31854,346.65775,722.814,353.44025 L735.47473,362.4836 Q744.9702,369.2661,753.8343,389.56772 L765.6531,416.6365 Q774.51715,436.9381,765.42194,456.54965 L753.295,482.6984 Q744.1998,502.30994,734.2753,507.27216 L721.0427,513.8885 Q711.1182,518.8507,698.9672,477.31116 L682.76587,421.9251 Q670.6148,380.38556,678.48566,372.24335 L688.9801,361.38702 Q696.8509,353.2448,701.7912,351.26868 z" fill="url(#gradient_face41)" stroke="none" stroke-width="0"/>
<path d="M472,663 L509,688 L515,698 L501,734 L438,784 L364,766 L339,733 z" fill="none" stroke="none" stroke-width="0"/>
<linearGradient id="gradient_face42" x1="0" x2="1.01" y1="0" y2="1.01">
<stop offset="0%" stop-color="#FC5A2DFF"/>
<stop offset="100%" stop-color="#E6201DFF"/>
</linearGradient>
<path d="M481.76108,675.6297 L495.20197,684.71136 Q505.28262,691.5226,506.5334,693.60724 L508.2011,696.3868 Q509.4519,698.47144,505.6656,708.20764 L500.61716,721.1893 Q496.83087,730.9255,478.82355,745.21704 L454.8138,764.2724 Q436.8065,778.5639,415.8378,773.4634 L387.87955,766.6627 Q366.9109,761.56226,360.8011,753.4974 L352.65472,742.74414 Q346.54492,734.6792,384.08557,714.92096 L434.13977,688.57666 Q471.68042,668.8184,481.76108,675.6297 z" fill="url(#gradient_face42)" stroke="none" stroke-width="0"/>
<path d="M30,436 L57,409 L149,522 L129,567 L94,563 L26,513 z" fill="none" stroke="none" stroke-width="0"/>
<linearGradient id="gradient_face43" x1="0" x2="1.01" y1="0" y2="1.01">
<stop offset="0%" stop-color="#ED2E21FF"/>
<stop offset="100%" stop-color="#C20424FF"/>
</linearGradient>
<path d="M41.411335,431.65973 L50.101612,422.96945 Q56.61932,416.45175,82.58865,448.34885 L117.21443,490.87836 Q143.18376,522.77545,138.00508,534.4275 L131.10016,549.96356 Q125.92147,561.6156,116.91199,560.58594 L104.89934,559.2131 Q95.889854,558.1834,76.462814,543.89886 L50.560104,524.8527 Q31.133072,510.56815,32.26124,488.85095 L33.76546,459.89465 Q34.893627,438.17743,41.411335,431.65973 z" fill="url(#gradient_face43)" stroke="none" stroke-width="0"/>
<path d="M291,40 L320,61 L230,171 L186,160 L183,135 L214,52 z" fill="none" stroke="none" stroke-width="0"/>
<linearGradient id="gradient_face44" x1="0" x2="1.01" y1="0" y2="1.01">
<stop offset="0%" stop-color="#D30F1FFF"/>
<stop offset="100%" stop-color="#8A0026FF"/>
</linearGradient>
<path d="M296.64615,50.26188 L305.86066,56.934444 Q312.7715,61.93887,287.38132,92.97136 L253.5277,134.348 Q228.13748,165.3805,216.86244,162.56172 L201.82906,158.80339 Q190.55403,155.98462,189.82057,149.87251 L188.84264,141.72304 Q188.10918,135.61093,196.97455,111.874626 L208.79504,80.22621 Q217.66042,56.4899,239.28287,53.120167 L268.11282,48.627186 Q289.7353,45.257454,296.64615,50.26188 z" fill="url(#gradient_face44)" stroke="none" stroke-width="0"/>
<path d="M601,145 L613,140 L709,147 L736,220 L720,251 L598,186 z" fill="none" stroke="none" stroke-width="0"/>
<linearGradient id="gradient_face45" x1="0" x2="1.01" y1="0" y2="1.01">
<stop offset="0%" stop-color="#FFFFCCFF"/>
<stop offset="100%" stop-color="#FFFFCCFF"/>
</linearGradient>
<path d="M608.1807,147.4247 L611.40546,146.08107 Q613.824,145.07335,641.3048,147.07716 L677.946,149.74892 Q705.4268,151.75273,712.96246,172.1268 L723.00995,199.29222 Q730.54553,219.66629,726.746,227.02798 L721.6799,236.84357 Q717.88025,244.20525,683.48346,225.87909 L637.62103,201.4442 Q603.22424,183.11803,603.98566,172.71234 L605.0008,158.83809 Q605.7622,148.4324,608.1807,147.4247 z" fill="url(#gradient_face45)" stroke="none" stroke-width="0"/>
<path d="M653,558 L689,555 L712,656 L645,698 L614,687 z" fill="none" stroke="none" stroke-width="0"/>
<linearGradient id="gradient_face46" x1="0" x2="1.01" y1="0" y2="1.01">
<stop offset="0%" stop-color="#FFF0A8FF"/>
<stop offset="100%" stop-color="#FFEDA0FF"/>
</linearGradient>
<path d="M665.2883,561.9933 L676.6029,561.0504 Q685.0888,560.34326,691.46313,588.33496 L699.9623,625.6573 Q706.3366,653.649,687.7536,665.29803 L662.9762,680.83014 Q644.3931,692.47925,637.125,689.9002 L627.43414,686.4615 Q620.166,683.8825,631.1569,647.5279 L645.8115,599.05505 Q656.8024,562.70044,665.2883,561.9933 z" fill="url(#gradient_face46)" stroke="none" stroke-width="0"/>
<path d="M289,684 L296,708 L208,759 L152,702 L158,672 z" fill="none" stroke="none" stroke-width="0"/>
<linearGradient id="gradient_face47" x1="0" x2="1.01" y1="0" y2="1.01">
<stop offset="0%" stop-color="#FEE186FF"/>
<stop offset="100%" stop-color="#FED977FF"/>
</linearGradient>
<path d="M286.6382,693.7596 L288.61804,700.5476 Q290.10294,705.6386,265.72662,719.7658 L233.22487,738.60205 Q208.84856,752.72925,193.42062,737.0258 L172.85005,716.0879 Q157.42212,700.38446,158.80183,693.4859 L160.64145,684.28784 Q162.02116,677.3893,198.96082,680.7731 L248.21368,685.2848 Q285.15332,688.6686,286.6382,693.7596 z" fill="url(#gradient_face47)" stroke="none" stroke-width="0"/>
<path d="M50,213 L81,216 L94,343 L81,349 L7,281 z" fill="none" stroke="none" stroke-width="0"/>
<linearGradient id="gradient_face48" x1="0" x2="1.01" y1="0" y2="1.01">
<stop offset="0%" stop-color="#FEC965FF"/>
<stop offset="100%" stop-color="#FEB44EFF"/>
</linearGradient>
<path d="M59.739796,218.96591 L69.28445,219.8896 Q76.44293,220.58235,80.10876,256.39465 L84.99653,304.14438 Q88.66235,339.95667,86.6426,340.88885 L83.94959,342.1318 Q81.92984,343.064,61.388126,324.18784 L33.999176,299.0196 Q13.457462,280.14343,25.194614,261.58234 L40.844154,236.83424 Q52.581306,218.27316,59.739796,218.96591 z" fill="url(#gradient_face48)" stroke="none" stroke-width="0"/>
<path d="M436,0 L473,0 L517,14 L518,45 L400,83 L398,80 z" fill="none" stroke="none" stroke-width="0"/>
<linearGradient id="gradient_face49" x1="0" x2="1.01" y1="0" y2="1.01">
<stop offset="0%" stop-color="#FDAA48FF"/>
<stop offset="100%" stop-color="#FD903DFF"/>
</linearGradient>
<path d="M449.0794,5 L462.30472,5 Q472.22372,5,484.19156,8.80795 L500.14868,13.885218 Q512.1165,17.693169,512.3459,24.803892 L512.65173,34.284855 Q512.8811,41.39558,479.63605,52.101624 L435.30927,66.37635 Q402.06418,77.08239,402.5647,77.83316 L403.23203,78.83418 Q403.73254,79.584946,414.3609,57.20946 L428.53204,27.375483 Q439.1604,5,449.0794,5 z" fill="url(#gradient_face49)" stroke="none" stroke-width="0"/>
<path d="M800,361 L800,439 L780,437 L749,366 z" fill="none" stroke="none" stroke-width="0"/>
<linearGradient id="gradient_face50" x1="0" x2="1.01" y1="0" y2="1.01">
<stop offset="0%" stop-color="#140103FF"/>
<stop offset="100%" stop-color="#140103FF"/>
</linearGradient>
<path d="M795,386.60245 L795,413.38678 Q795,433.47507,791.52325,433.12738 L786.8875,432.66382 Q783.41077,432.31613,775.28815,413.71274 L764.458,388.9082 Q756.3354,370.3048,767.93475,369.16763 L783.40063,367.65137 Q795,366.51416,795,386.60245 z" fill="url(#gradient_face50)" stroke="none" stroke-width="0"/>
<path d="M800,439 L800,521 L748,506 L780,437 z" fill="none" stroke="none" stroke-width="0"/>
<linearGradient id="gradient_face51" x1="0" x2="1.01" y1="0" y2="1.01">
<stop offset="0%" stop-color="#140103FF"/>
<stop offset="100%" stop-color="#140103FF"/>
</linearGradient>
<path d="M795,464.7736 L795,493.10516 Q795,514.3538,782.99695,510.89142 L766.99286,506.27484 Q754.9898,502.81244,763.4049,484.6674 L774.62506,460.474 Q783.04016,442.32895,786.6281,442.68774 L791.41205,443.16614 Q795,443.52493,795,464.7736 z" fill="url(#gradient_face51)" stroke="none" stroke-width="0"/>
<path d="M800,521 L800,614 L689,554 L708,526 L748,506 z" fill="none" stroke="none" stroke-width="0"/>
<linearGradient id="gradient_face52" x1="0" x2="1.01" y1="0" y2="1.01">
<stop offset="0%" stop-color="#140103FF"/>
<stop offset="100%" stop-color="#140103FF"/>
</linearGradient>
<path d="M795,549.01715 L795,581.358 Q795,605.6136,765.3728,589.5989 L725.8699,568.246 Q696.2427,552.23126,700.79114,545.5283 L706.8557,536.59106 Q711.4041,529.8881,722.52985,524.32526 L737.3642,516.9081 Q748.4899,511.34518,762.44293,515.3701 L781.047,520.73663 Q795,524.76154,795,549.01715 z" fill="url(#gradient_face52)" stroke="none" stroke-width="0"/>
<path d="M800,614 L800,728 L712,656 L689,555 L689,554 z" fill="none" stroke="none" stroke-width="0"/>
<linearGradient id="gradient_face53" x1="0" x2="1.01" y1="0" y2="1.01">
<stop offset="0%" stop-color="#140103FF"/>
<stop offset="100%" stop-color="#140103FF"/>
</linearGradient>
<path d="M795,647.12134 L795,687.3085 Q795,717.4488,771.44824,698.1792 L740.04596,672.4864 Q716.4942,653.2168,709.7459,623.5831 L700.7482,584.07153 Q694,554.43787,694,556.82245 L694,560.00183 Q694,562.3864,724.3,578.7648 L764.7,600.60266 Q795,616.981,795,647.12134 z" fill="url(#gradient_face53)" stroke="none" stroke-width="0"/>
<path d="M800,800 L728,800 L645,698 L712,656 L800,728 z" fill="none" stroke="none" stroke-width="0"/>
<linearGradient id="gradient_face54" x1="0" x2="1.01" y1="0" y2="1.01">
<stop offset="0%" stop-color="#140103FF"/>
<stop offset="100%" stop-color="#140103FF"/>
</linearGradient>
<path d="M775.6133,795 L749.76434,795 Q730.37756,795,706.9989,766.2696 L675.82733,727.96234 Q652.44867,699.2319,670.198,688.10547 L693.8638,673.2702 Q711.6131,662.14374,736.62915,682.61145 L769.98395,709.9017 Q795,730.3694,795,749.7586 L795,775.61084 Q795,795,775.6133,795 z" fill="url(#gradient_face54)" stroke="none" stroke-width="0"/>
<path d="M728,800 L614,800 L564,706 L614,687 L645,698 z" fill="none" stroke="none" stroke-width="0"/>
<linearGradient id="gradient_face55" x1="0" x2="1.01" y1="0" y2="1.01">
<stop offset="0%" stop-color="#140103FF"/>
<stop offset="100%" stop-color="#140103FF"/>
</linearGradient>
<path d="M687.34076,795 L647.1482,795 Q617.0038,795,603.22595,769.0978 L584.8556,734.56146 Q571.0778,708.65924,583.97217,703.7594 L601.1647,697.22626 Q614.059,692.3264,622.4433,695.30145 L633.6224,699.26825 Q642.00665,702.2433,664.6502,730.0703 L694.8416,767.173 Q717.48517,795,687.34076,795 z" fill="url(#gradient_face55)" stroke="none" stroke-width="0"/>
<path d="M614,800 L521,800 L501,734 L515,698 L564,706 z" fill="none" stroke="none" stroke-width="0"/>
<linearGradient id="gradient_face56" x1="0" x2="1.01" y1="0" y2="1.01">
<stop offset="0%" stop-color="#140103FF"/>
<stop offset="100%" stop-color="#140103FF"/>
</linearGradient>
<path d="M581.3868,795 L548.9997,795 Q524.70935,795,519.1824,776.7608 L511.813,752.4419 Q506.28595,734.2027,509.85776,725.01807 L514.6201,712.772 Q518.19196,703.58734,530.9591,705.67175 L547.982,708.451 Q560.74915,710.53546,574.22754,735.8748 L592.1987,769.66064 Q605.67706,795,581.3868,795 z" fill="url(#gradient_face56)" stroke="none" stroke-width="0"/>
<path d="M521,800 L439,800 L438,784 L501,734 z" fill="none" stroke="none" stroke-width="0"/>
<linearGradient id="gradient_face57" x1="0" x2="1.01" y1="0" y2="1.01">
<stop offset="0%" stop-color="#140103FF"/>
<stop offset="100%" stop-color="#140103FF"/>
</linearGradient>
<path d="M493.0914,795 L464.86618,795 Q443.69727,795,443.534,792.38806 L443.31635,788.9055 Q443.1531,786.2936,459.7115,773.152 L481.7893,755.6299 Q498.3477,742.48834,503.1215,758.2418 L509.48654,779.2465 Q514.2603,795,493.0914,795 z" fill="url(#gradient_face57)" stroke="none" stroke-width="0"/>
<path d="M439,800 L361,800 L364,766 L438,784 z" fill="none" stroke="none" stroke-width="0"/>
<linearGradient id="gradient_face58" x1="0" x2="1.01" y1="0" y2="1.01">
<stop offset="0%" stop-color="#140103FF"/>
<stop offset="100%" stop-color="#140103FF"/>
</linearGradient>
<path d="M413.5126,795 L386.62573,795 Q366.4606,795,367.06326,788.16986 L367.8668,779.06305 Q368.46945,772.233,387.90045,776.9594 L413.80847,783.26135 Q433.23947,787.98785,433.37097,790.0915 L433.54626,792.89636 Q433.67773,795,413.5126,795 z" fill="url(#gradient_face58)" stroke="none" stroke-width="0"/>
<path d="M361,800 L279,800 L304,717 L339,733 L364,766 z" fill="none" stroke="none" stroke-width="0"/>
<linearGradient id="gradient_face59" x1="0" x2="1.01" y1="0" y2="1.01">
<stop offset="0%" stop-color="#140103FF"/>
<stop offset="100%" stop-color="#140103FF"/>
</linearGradient>
<path d="M335.2136,795 L306.93607,795 Q285.7279,795,292.14984,773.67914 L300.71243,745.2514 Q307.13437,723.93054,315.72665,727.85846 L327.18304,733.09564 Q335.77536,737.02356,342.6977,746.1611 L351.9275,758.34436 Q358.84982,767.4819,358.1214,775.7373 L357.15018,786.74457 Q356.42175,795,335.2136,795 z" fill="url(#gradient_face59)" stroke="none" stroke-width="0"/>
<path d="M279,800 L186,800 L208,759 L296,708 L304,717 z" fill="none" stroke="none" stroke-width="0"/>
<linearGradient id="gradient_face60" x1="0" x2="1.01" y1="0" y2="1.01">
<stop offset="0%" stop-color="#140103FF"/>
<stop offset="100%" stop-color="#140103FF"/>
</linearGradient>
<path d="M251.00607,795 L218.63533,795 Q194.35727,795,199.57054,785.28436 L206.52158,772.33014 Q211.73486,762.6145,236.70692,748.142 L270.00302,728.8454 Q294.9751,714.373,296.00455,715.5311 L297.37714,717.0753 Q298.4066,718.2334,291.46985,741.26337 L282.2209,771.97003 Q275.28415,795,251.00607,795 z" fill="url(#gradient_face60)" stroke="none" stroke-width="0"/>
<path d="M186,800 L72,800 L152,702 L208,759 z" fill="none" stroke="none" stroke-width="0"/>
<linearGradient id="gradient_face61" x1="0" x2="1.01" y1="0" y2="1.01">
<stop offset="0%" stop-color="#140103FF"/>
<stop offset="100%" stop-color="#140103FF"/>
</linearGradient>
<path d="M152.86684,795 L112.677826,795 Q82.536064,795,103.47854,769.34546 L131.40182,735.13947 Q152.3443,709.4849,167.19724,724.6031 L187.00116,744.7607 Q201.8541,759.87885,196.20044,770.41516 L188.66225,784.4636 Q183.00859,795,152.86684,795 z" fill="url(#gradient_face61)" stroke="none" stroke-width="0"/>
<path d="M0,800 L0,728 L129,623 L158,672 L152,702 L72,800 z" fill="none" stroke="none" stroke-width="0"/>
<linearGradient id="gradient_face62" x1="0" x2="1.01" y1="0" y2="1.01">
<stop offset="0%" stop-color="#140103FF"/>
<stop offset="100%" stop-color="#140103FF"/>
</linearGradient>
<path d="M5,775.61316 L5,749.76404 Q5,730.3772,41.796177,700.4268 L90.85774,660.493 Q127.65392,630.5426,135.17416,643.2492 L145.20114,660.19135 Q152.72139,672.89795,151.10722,680.9688 L148.95499,691.73 Q147.34082,699.80084,124.02673,728.3606 L92.941284,766.44025 Q69.6272,795,50.23904,795 L24.388159,795 Q5,795,5,775.61316 z" fill="url(#gradient_face62)" stroke="none" stroke-width="0"/>
<path d="M0,728 L0,614 L94,563 L129,567 L129,623 z" fill="none" stroke="none" stroke-width="0"/>
<linearGradient id="gradient_face63" x1="0" x2="1.01" y1="0" y2="1.01">
<stop offset="0%" stop-color="#140103FF"/>
<stop offset="100%" stop-color="#140103FF"/>
</linearGradient>
<path d="M5,687.33105 L5,647.128 Q5,616.97577,31.999598,602.327 L67.99906,582.7954 Q94.99866,568.14667,103.69906,569.141 L115.2996,570.4668 Q124,571.4611,124,586.20966 L124,605.8743 Q124,620.6228,88.3,649.68097 L40.7,688.4252 Q5,717.4833,5,687.33105 z" fill="url(#gradient_face63)" stroke="none" stroke-width="0"/>
<path d="M0,614 L0,521 L26,513 L94,563 z" fill="none" stroke="none" stroke-width="0"/>
<linearGradient id="gradient_face64" x1="0" x2="1.01" y1="0" y2="1.01">
<stop offset="0%" stop-color="#140103FF"/>
<stop offset="100%" stop-color="#140103FF"/>
</linearGradient>
<path d="M5,581.32697 L5,548.9646 Q5,524.6929,11.019606,522.8407 L19.045746,520.3711 Q25.065351,518.5189,42.953236,531.67175 L66.80375,549.2089 Q84.691635,562.36176,60.784145,575.3329 L28.907492,592.6276 Q5,605.59875,5,581.32697 z" fill="url(#gradient_face64)" stroke="none" stroke-width="0"/>
<path d="M0,521 L0,439 L30,436 L26,513 z" fill="none" stroke="none" stroke-width="0"/>
<linearGradient id="gradient_face65" x1="0" x2="1.01" y1="0" y2="1.01">
<stop offset="0%" stop-color="#140103FF"/>
<stop offset="100%" stop-color="#140103FF"/>
</linearGradient>
<path d="M5,493.01862 L5,464.7365 Q5,443.52493,10.911414,442.9338 L18.7933,442.1456 Q24.704714,441.55447,23.64973,461.8629 L22.243086,488.94083 Q21.188103,509.24924,16.33167,510.74353 L9.856431,512.7359 Q5,514.2302,5,493.01862 z" fill="url(#gradient_face65)" stroke="none" stroke-width="0"/>
<path d="M0,439 L0,361 L66,367 L57,409 L30,436 z" fill="none" stroke="none" stroke-width="0"/>
<linearGradient id="gradient_face66" x1="0" x2="1.01" y1="0" y2="1.01">
<stop offset="0%" stop-color="#140103FF"/>
<stop offset="100%" stop-color="#140103FF"/>
</linearGradient>
<path d="M5,413.3751 L5,386.57513 Q5,366.47516,21.478674,367.97324 L43.45024,369.97064 Q59.928913,371.4687,57.67635,381.98065 L54.672935,395.9966 Q52.420372,406.50854,45.01222,413.91672 L35.134678,423.79425 Q27.726522,431.20242,20.908566,431.88422 L11.817957,432.79327 Q5,433.47507,5,413.3751 z" fill="url(#gradient_face66)" stroke="none" stroke-width="0"/>
<path d="M0,361 L0,279 L7,281 L81,349 L66,367 z" fill="none" stroke="none" stroke-width="0"/>
<linearGradient id="gradient_face67" x1="0" x2="1.01" y1="0" y2="1.01">
<stop offset="0%" stop-color="#140103FF"/>
<stop offset="100%" stop-color="#140103FF"/>
</linearGradient>
<path d="M5,335.19235 L5,306.87024 Q5,285.62866,4.84651,285.5848 L4.6418567,285.52634 Q4.4883666,285.48248,25.374664,304.6753 L53.22306,330.26572 Q74.10936,349.45853,71.02826,353.15585 L66.92012,358.0856 Q63.83902,361.78293,46.187313,360.17822 L22.651705,358.03864 Q5,356.43393,5,335.19235 z" fill="url(#gradient_face67)" stroke="none" stroke-width="0"/>
<path d="M0,279 L0,186 L50,213 L7,281 z" fill="none" stroke="none" stroke-width="0"/>
<linearGradient id="gradient_face68" x1="0" x2="1.01" y1="0" y2="1.01">
<stop offset="0%" stop-color="#140103FF"/>
<stop offset="100%" stop-color="#140103FF"/>
</linearGradient>
<path d="M5,250.97467 L5,218.63625 Q5,194.38243,16.37343,200.52408 L31.538002,208.71295 Q42.91143,214.8546,31.47037,232.94745 L16.215618,257.07123 Q4.774555,275.1641,4.842189,275.1834 L4.932367,275.20917 Q5,275.2285,5,250.97467 z" fill="url(#gradient_face68)" stroke="none" stroke-width="0"/>
<path d="M0,186 L0,72 L125,175 L81,216 L50,213 z" fill="none" stroke="none" stroke-width="0"/>
<linearGradient id="gradient_face69" x1="0" x2="1.01" y1="0" y2="1.01">
<stop offset="0%" stop-color="#140103FF"/>
<stop offset="100%" stop-color="#140103FF"/>
</linearGradient>
<path d="M5,152.89192 L5,112.7244 Q5,82.59876,38.72533,110.388435 L83.69244,147.44133 Q117.41776,175.231,105.964264,185.90358 L90.69293,200.13368 Q79.23943,210.80626,70.913704,210.00055 L59.81272,208.92625 Q51.486984,208.12054,37.54089,200.58965 L18.946096,190.54846 Q5,183.01758,5,152.89192 z" fill="url(#gradient_face69)" stroke="none" stroke-width="0"/>
<path d="M0,0 L72,0 L183,135 L186,160 L176,166 L125,175 L0,72 z" fill="none" stroke="none" stroke-width="0"/>
<linearGradient id="gradient_face70" x1="0" x2="1.01" y1="0" y2="1.01">
<stop offset="0%" stop-color="#140103FF"/>
<stop offset="100%" stop-color="#140103FF"/>
</linearGradient>
<path d="M24.3914,5 L50.246597,5 Q69.63799,5,102.20952,44.614014 L145.63821,97.43269 Q178.20973,137.0467,178.94171,143.14647 L179.91766,151.2795 Q180.64964,157.37926,178.72089,158.53651 L176.1492,160.07953 Q174.22044,161.23679,159.87457,163.7684 L140.74673,167.1439 Q126.40085,169.67554,89.98059,139.66524 L41.420254,99.65153 Q5,69.641235,5,50.248863 L5,24.39237 Q5,5,24.3914,5 z" fill="url(#gradient_face70)" stroke="none" stroke-width="0"/>
<path d="M72,0 L186,0 L214,52 L183,135 z" fill="none" stroke="none" stroke-width="0"/>
<linearGradient id="gradient_face71" x1="0" x2="1.01" y1="0" y2="1.01">
<stop offset="0%" stop-color="#140103FF"/>
<stop offset="100%" stop-color="#140103FF"/>
</linearGradient>
<path d="M112.71302,5 L152.88474,5 Q183.01353,5,190.66632,19.212313 L200.87003,38.162064 Q208.52281,52.37438,200.37149,74.19887 L189.50307,103.29819 Q181.35176,125.12267,151.7215,89.08587 L112.214485,41.0368 Q82.58423,5,112.71302,5 z" fill="url(#gradient_face71)" stroke="none" stroke-width="0"/>
<path d="M186,0 L279,0 L291,40 L214,52 z" fill="none" stroke="none" stroke-width="0"/>
<linearGradient id="gradient_face72" x1="0" x2="1.01" y1="0" y2="1.01">
<stop offset="0%" stop-color="#140103FF"/>
<stop offset="100%" stop-color="#140103FF"/>
</linearGradient>
<path d="M218.6437,5 L251.00722,5 Q275.27985,5,278.0647,14.282858 L281.77786,26.660002 Q284.5627,35.94286,264.2115,39.11448 L237.0765,43.343307 Q216.72528,46.514927,210.01901,34.060448 L201.07735,17.454477 Q194.37108,5,218.6437,5 z" fill="url(#gradient_face72)" stroke="none" stroke-width="0"/>
<path d="M279,0 L361,0 L367,62 L320,61 L291,40 z" fill="none" stroke="none" stroke-width="0"/>
<linearGradient id="gradient_face73" x1="0" x2="1.01" y1="0" y2="1.01">
<stop offset="0%" stop-color="#140103FF"/>
<stop offset="100%" stop-color="#140103FF"/>
</linearGradient>
<path d="M306.94226,5 L335.2384,5 Q356.4605,5,357.96674,20.564434 L359.97507,41.317013 Q361.4813,56.88145,349.5372,56.62732 L333.61176,56.28848 Q321.6677,56.03435,313.75827,50.30684 L303.21237,42.67016 Q295.30295,36.942646,292.4281,27.359852 L288.595,14.582794 Q285.72015,5,306.94226,5 z" fill="url(#gradient_face73)" stroke="none" stroke-width="0"/>
<path d="M361,0 L436,0 L398,80 L367,62 z" fill="none" stroke="none" stroke-width="0"/>
<linearGradient id="gradient_face74" x1="0" x2="1.01" y1="0" y2="1.01">
<stop offset="0%" stop-color="#140103FF"/>
<stop offset="100%" stop-color="#140103FF"/>
</linearGradient>
<path d="M384.98193,5 L409.6149,5 Q428.0896,5,418.4069,25.384665 L405.4966,52.56422 Q395.81387,72.94888,388.5886,68.753555 L378.9549,63.159786 Q371.72958,58.96446,370.16287,42.775124 L368.07394,21.189339 Q366.50723,5,384.98193,5 z" fill="url(#gradient_face74)" stroke="none" stroke-width="0"/>
<path d="M473,0 L521,0 L517,14 z" fill="none" stroke="none" stroke-width="0"/>
<linearGradient id="gradient_face75" x1="0" x2="1.01" y1="0" y2="1.01">
<stop offset="0%" stop-color="#140103FF"/>
<stop offset="100%" stop-color="#140103FF"/>
</linearGradient>
<path d="M507.9548,5 L511.6214,5 Q514.37134,5,514.1422,5.8020687 L513.8366,6.8714933 Q513.6075,7.673562,511.0867,6.8714933 L507.72565,5.8020687 Q505.20486,5,507.9548,5 z" fill="url(#gradient_face75)" stroke="none" stroke-width="0"/>
<path d="M521,0 L614,0 L569,83 L518,45 L517,14 z" fill="none" stroke="none" stroke-width="0"/>
<linearGradient id="gradient_face76" x1="0" x2="1.01" y1="0" y2="1.01">
<stop offset="0%" stop-color="#140103FF"/>
<stop offset="100%" stop-color="#140103FF"/>
</linearGradient>
<path d="M549.0205,5 L581.35254,5 Q605.60156,5,594.1281,26.1621 L578.83026,54.378235 Q567.3568,75.54034,554.0257,65.60734 L536.25085,52.36334 Q522.91974,42.43034,522.6506,34.087555 L522.29175,22.963839 Q522.02264,14.621053,522.8473,11.734737 L523.94684,7.886316 Q524.7715,5,549.0205,5 z" fill="url(#gradient_face76)" stroke="none" stroke-width="0"/>
<path d="M614,0 L728,0 L613,140 L601,145 L585,129 L569,83 z" fill="none" stroke="none" stroke-width="0"/>
<linearGradient id="gradient_face77" x1="0" x2="1.01" y1="0" y2="1.01">
<stop offset="0%" stop-color="#140103FF"/>
<stop offset="100%" stop-color="#140103FF"/>
</linearGradient>
<path d="M647.1104,5 L687.28864,5 Q717.42224,5,685.1737,44.259117 L642.1756,96.60461 Q609.92706,135.86372,607.5993,136.83363 L604.4956,138.12685 Q602.1678,139.09674,598.3212,135.25018 L593.1925,130.12144 Q589.34595,126.274895,584.87646,113.425156 L578.9172,96.292175 Q574.4477,83.44244,587.2064,59.909706 L604.218,28.53273 Q616.97675,5,647.1104,5 z" fill="url(#gradient_face77)" stroke="none" stroke-width="0"/>
<path d="M800,0 L800,72 L709,147 L613,140 L728,0 z" fill="none" stroke="none" stroke-width="0"/>
<linearGradient id="gradient_face78" x1="0" x2="1.01" y1="0" y2="1.01">
<stop offset="0%" stop-color="#140103FF"/>
<stop offset="100%" stop-color="#140103FF"/>
</linearGradient>
<path d="M795,24.392466 L795,50.24909 Q795,69.641556,768.7097,91.30936 L733.65607,120.19976 Q707.3658,141.86757,682.0531,140.02185 L648.3029,137.5609 Q622.9903,135.71518,655.2022,96.500626 L698.1515,44.214554 Q730.36346,5,749.7544,5 L775.609,5 Q795,5,795,24.392466 z" fill="url(#gradient_face78)" stroke="none" stroke-width="0"/>
<path d="M800,72 L800,186 L736,220 L709,147 z" fill="none" stroke="none" stroke-width="0"/>
<linearGradient id="gradient_face79" x1="0" x2="1.01" y1="0" y2="1.01">
<stop offset="0%" stop-color="#140103FF"/>
<stop offset="100%" stop-color="#140103FF"/>
</linearGradient>
<path d="M795,112.71848 L795,152.87619 Q795,182.99448,778.11163,191.96643 L755.59375,203.92905 Q738.7054,212.901,731.57043,193.61021 L722.0572,167.88916 Q714.92224,148.59837,738.94556,128.79892 L770.9767,102.39966 Q795,82.600204,795,112.71848 z" fill="url(#gradient_face79)" stroke="none" stroke-width="0"/>
<path d="M800,186 L800,279 L728,300 L720,251 L736,220 z" fill="none" stroke="none" stroke-width="0"/>
<linearGradient id="gradient_face80" x1="0" x2="1.01" y1="0" y2="1.01">
<stop offset="0%" stop-color="#140103FF"/>
<stop offset="100%" stop-color="#140103FF"/>
</linearGradient>
<path d="M795,218.59761 L795,250.97041 Q795,275.25,776.10724,280.76038 L750.91693,288.10754 Q732.02423,293.61792,729.97723,281.08005 L727.2479,264.36288 Q725.20087,251.825,729.5585,243.38217 L735.3686,232.12506 Q739.7262,223.68224,756.30835,214.87297 L778.41785,203.12729 Q795,194.31802,795,218.59761 z" fill="url(#gradient_face80)" stroke="none" stroke-width="0"/>
<path d="M800,279 L800,361 L749,366 L714,341 L728,300 z" fill="none" stroke="none" stroke-width="0"/>
<linearGradient id="gradient_face81" x1="0" x2="1.01" y1="0" y2="1.01">
<stop offset="0%" stop-color="#140103FF"/>
<stop offset="100%" stop-color="#140103FF"/>
</linearGradient>
<path d="M795,306.90652 L795,335.22635 Q795,356.46622,781.61383,357.7786 L763.7656,359.5284 Q750.37946,360.8408,741.24585,354.3168 L729.0678,345.6182 Q719.9342,339.0942,723.5217,328.58783 L728.3052,314.57935 Q731.8927,304.07297,750.8249,298.5511 L776.0678,291.18857 Q795,285.66666,795,306.90652 z" fill="url(#gradient_face81)" stroke="none" stroke-width="0"/>
<circle cx="400" cy="400" fill="none" r="0" stroke="none" stroke-width="0"/>
<circle cx="401" cy="408" fill="none" r="0" stroke="none" stroke-width="0"/>
<circle cx="385" cy="406" fill="none" r="0" stroke="none" stroke-width="0"/>
<circle cx="387" cy="380" fill="none" r="0" stroke="none" stroke-width="0"/>
<circle cx="423" cy="378" fill="none" r="0" stroke="none" stroke-width="0"/>
<circle cx="432" cy="424" fill="none" r="0" stroke="none" stroke-width="0"/>
<circle cx="380" cy="443" fill="none" r="0" stroke="none" stroke-width="0"/>
<circle cx="346" cy="386" fill="none" r="0" stroke="none" stroke-width="0"/>
<circle cx="404" cy="336" fill="none" r="0" stroke="none" stroke-width="0"/>
<circle cx="471" cy="391" fill="none" r="0" stroke="none" stroke-width="0"/>
<circle cx="425" cy="476" fill="none" r="0" stroke="none" stroke-width="0"/>
<circle cx="323" cy="442" fill="none" r="0" stroke="none" stroke-width="0"/>
<circle cx="339" cy="326" fill="none" r="0" stroke="none" stroke-width="0"/>
<circle cx="466" cy="320" fill="none" r="0" stroke="none" stroke-width="0"/>
<circle cx="498" cy="454" fill="none" r="0" stroke="none" stroke-width="0"/>
<circle cx="363" cy="514" fill="none" r="0" stroke="none" stroke-width="0"/>
<circle cx="273" cy="384" fill="none" r="0" stroke="none" stroke-width="0"/>
<circle cx="391" cy="264" fill="none" r="0" stroke="none" stroke-width="0"/>
<circle cx="539" cy="364" fill="none" r="0" stroke="none" stroke-width="0"/>
<circle cx="465" cy="538" fill="none" r="0" stroke="none" stroke-width="0"/>
<circle cx="271" cy="494" fill="none" r="0" stroke="none" stroke-width="0"/>
<circle cx="278" cy="285" fill="none" r="0" stroke="none" stroke-width="0"/>
<circle cx="494" cy="251" fill="none" r="0" stroke="none" stroke-width="0"/>
<circle cx="571" cy="468" fill="none" r="0" stroke="none" stroke-width="0"/>
<circle cx="364" cy="589" fill="none" r="0" stroke="none" stroke-width="0"/>
<circle cx="200" cy="400" fill="none" r="0" stroke="none" stroke-width="0"/>
<circle cx="361" cy="196" fill="none" r="0" stroke="none" stroke-width="0"/>
<circle cx="601" cy="320" fill="none" r="0" stroke="none" stroke-width="0"/>
<circle cx="520" cy="589" fill="none" r="0" stroke="none" stroke-width="0"/>
<circle cx="231" cy="559" fill="none" r="0" stroke="none" stroke-width="0"/>
<circle cx="206" cy="259" fill="none" r="0" stroke="none" stroke-width="0"/>
<circle cx="506" cy="176" fill="none" r="0" stroke="none" stroke-width="0"/>
<circle cx="648" cy="464" fill="none" r="0" stroke="none" stroke-width="0"/>
<circle cx="383" cy="663" fill="none" r="0" stroke="none" stroke-width="0"/>
<circle cx="130" cy="434" fill="none" r="0" stroke="none" stroke-width="0"/>
<circle cx="313" cy="134" fill="none" r="0" stroke="none" stroke-width="0"/>
<circle cx="652" cy="261" fill="none" r="0" stroke="none" stroke-width="0"/>
<circle cx="589" cy="628" fill="none" r="0" stroke="none" stroke-width="0"/>
<circle cx="206" cy="634" fill="none" r="0" stroke="none" stroke-width="0"/>
<circle cx="127" cy="250" fill="none" r="0" stroke="none" stroke-width="0"/>
<circle cx="499" cy="96" fill="none" r="0" stroke="none" stroke-width="0"/>
<circle cx="725" cy="441" fill="none" r="0" stroke="none" stroke-width="0"/>
<circle cx="421" cy="735" fill="none" r="0" stroke="none" stroke-width="0"/>
<circle cx="67" cy="486" fill="none" r="0" stroke="none" stroke-width="0"/>
<circle cx="250" cy="82" fill="none" r="0" stroke="none" stroke-width="0"/>
<circle cx="691" cy="188" fill="none" r="0" stroke="none" stroke-width="0"/>
<circle cx="668" cy="652" fill="none" r="0" stroke="none" stroke-width="0"/>
<circle cx="199" cy="717" fill="none" r="0" stroke="none" stroke-width="0"/>
<circle cx="43" cy="259" fill="none" r="0" stroke="none" stroke-width="0"/>
<circle cx="473" cy="15" fill="none" r="0" stroke="none" stroke-width="0"/>
<circle cx="820" cy="400" fill="none" r="0" stroke="none" stroke-width="0"/>
<circle cx="812" cy="482" fill="none" r="0" stroke="none" stroke-width="0"/>
<circle cx="788" cy="561" fill="none" r="0" stroke="none" stroke-width="0"/>
<circle cx="749" cy="633" fill="none" r="0" stroke="none" stroke-width="0"/>
<circle cx="697" cy="697" fill="none" r="0" stroke="none" stroke-width="0"/>
<circle cx="633" cy="749" fill="none" r="0" stroke="none" stroke-width="0"/>
<circle cx="561" cy="788" fill="none" r="0" stroke="none" stroke-width="0"/>
<circle cx="482" cy="812" fill="none" r="0" stroke="none" stroke-width="0"/>
<circle cx="400" cy="820" fill="none" r="0" stroke="none" stroke-width="0"/>
<circle cx="318" cy="812" fill="none" r="0" stroke="none" stroke-width="0"/>
<circle cx="239" cy="788" fill="none" r="0" stroke="none" stroke-width="0"/>
<circle cx="167" cy="749" fill="none" r="0" stroke="none" stroke-width="0"/>
<circle cx="103" cy="697" fill="none" r="0" stroke="none" stroke-width="0"/>
<circle cx="51" cy="633" fill="none" r="0" stroke="none" stroke-width="0"/>
<circle cx="12" cy="561" fill="none" r="0" stroke="none" stroke-width="0"/>
<circle cx="-12" cy="482" fill="none" r="0" stroke="none" stroke-width="0"/>
<circle cx="-20" cy="400" fill="none" r="0" stroke="none" stroke-width="0"/>
<circle cx="-12" cy="318" fill="none" r="0" stroke="none" stroke-width="0"/>
<circle cx="12" cy="239" fill="none" r="0" stroke="none" stroke-width="0"/>
<circle cx="51" cy="167" fill="none" r="0" stroke="none" stroke-width="0"/>
<circle cx="103" cy="103" fill="none" r="0" stroke="none" stroke-width="0"/>
<circle cx="167" cy="51" fill="none" r="0" stroke="none" stroke-width="0"/>
<circle cx="239" cy="12" fill="none" r="0" stroke="none" stroke-width="0"/>
<circle cx="318" cy="-12" fill="none" r="0" stroke="none" stroke-width="0"/>
<circle cx="400" cy="-20" fill="none" r="0" stroke="none" stroke-width="0"/>
<circle cx="482" cy="-12" fill="none" r="0" stroke="none" stroke-width="0"/>
<circle cx="561" cy="12" fill="none" r="0" stroke="none" stroke-width="0"/>
<circle cx="633" cy="51" fill="none" r="0" stroke="none" stroke-width="0"/>
<circle cx="697" cy="103" fill="none" r="0" stroke="none" stroke-width="0"/>
<circle cx="749" cy="167" fill="none" r="0" stroke="none" stroke-width="0"/>
<circle cx="788" cy="239" fill="none" r="0" stroke="none" stroke-width="0"/>
<circle cx="812" cy="318" fill="none" r="0" stroke="none" stroke-width="0"/>
<circle cx="438" cy="784" fill="none" r="0" stroke="none" stroke-width="0"/>
<circle cx="208" cy="759" fill="none" r="0" stroke="none" stroke-width="0"/>
<circle cx="364" cy="766" fill="none" r="0" stroke="none" stroke-width="0"/>
<circle cx="501" cy="734" fill="none" r="0" stroke="none" stroke-width="0"/>
<circle cx="152" cy="702" fill="none" r="0" stroke="none" stroke-width="0"/>
<circle cx="339" cy="733" fill="none" r="0" stroke="none" stroke-width="0"/>
<circle cx="645" cy="698" fill="none" r="0" stroke="none" stroke-width="0"/>
<circle cx="564" cy="706" fill="none" r="0" stroke="none" stroke-width="0"/>
<circle cx="614" cy="687" fill="none" r="0" stroke="none" stroke-width="0"/>
<circle cx="304" cy="717" fill="none" r="0" stroke="none" stroke-width="0"/>
<circle cx="712" cy="656" fill="none" r="0" stroke="none" stroke-width="0"/>
<circle cx="158" cy="672" fill="none" r="0" stroke="none" stroke-width="0"/>
<circle cx="296" cy="708" fill="none" r="0" stroke="none" stroke-width="0"/>
<circle cx="515" cy="698" fill="none" r="0" stroke="none" stroke-width="0"/>
<circle cx="509" cy="688" fill="none" r="0" stroke="none" stroke-width="0"/>
<circle cx="289" cy="684" fill="none" r="0" stroke="none" stroke-width="0"/>
<circle cx="472" cy="663" fill="none" r="0" stroke="none" stroke-width="0"/>
<circle cx="295" cy="646" fill="none" r="0" stroke="none" stroke-width="0"/>
<circle cx="129" cy="623" fill="none" r="0" stroke="none" stroke-width="0"/>
<circle cx="287" cy="619" fill="none" r="0" stroke="none" stroke-width="0"/>
<circle cx="445" cy="614" fill="none" r="0" stroke="none" stroke-width="0"/>
<circle cx="438" cy="609" fill="none" r="0" stroke="none" stroke-width="0"/>
<circle cx="408" cy="551" fill="none" r="0" stroke="none" stroke-width="0"/>
<circle cx="301" cy="557" fill="none" r="0" stroke="none" stroke-width="0"/>
<circle cx="306" cy="552" fill="none" r="0" stroke="none" stroke-width="0"/>
<circle cx="94" cy="563" fill="none" r="0" stroke="none" stroke-width="0"/>
<circle cx="414" cy="527" fill="none" r="0" stroke="none" stroke-width="0"/>
<circle cx="589" cy="547" fill="none" r="0" stroke="none" stroke-width="0"/>
<circle cx="129" cy="567" fill="none" r="0" stroke="none" stroke-width="0"/>
<circle cx="129" cy="567" fill="none" r="0" stroke="none" stroke-width="0"/>
<circle cx="26" cy="513" fill="none" r="0" stroke="none" stroke-width="0"/>
<circle cx="653" cy="558" fill="none" r="0" stroke="none" stroke-width="0"/>
<circle cx="614" cy="544" fill="none" r="0" stroke="none" stroke-width="0"/>
<circle cx="689" cy="555" fill="none" r="0" stroke="none" stroke-width="0"/>
<circle cx="689" cy="554" fill="none" r="0" stroke="none" stroke-width="0"/>
<circle cx="531" cy="522" fill="none" r="0" stroke="none" stroke-width="0"/>
<circle cx="525" cy="513" fill="none" r="0" stroke="none" stroke-width="0"/>
<circle cx="469" cy="491" fill="none" r="0" stroke="none" stroke-width="0"/>
<circle cx="386" cy="482" fill="none" r="0" stroke="none" stroke-width="0"/>
<circle cx="320" cy="491" fill="none" r="0" stroke="none" stroke-width="0"/>
<circle cx="708" cy="526" fill="none" r="0" stroke="none" stroke-width="0"/>
<circle cx="748" cy="506" fill="none" r="0" stroke="none" stroke-width="0"/>
<circle cx="149" cy="522" fill="none" r="0" stroke="none" stroke-width="0"/>
<circle cx="351" cy="474" fill="none" r="0" stroke="none" stroke-width="0"/>
<circle cx="411" cy="447" fill="none" r="0" stroke="none" stroke-width="0"/>
<circle cx="458" cy="454" fill="none" r="0" stroke="none" stroke-width="0"/>
<circle cx="190" cy="489" fill="none" r="0" stroke="none" stroke-width="0"/>
<circle cx="407" cy="436" fill="none" r="0" stroke="none" stroke-width="0"/>
<circle cx="391" cy="426" fill="none" r="0" stroke="none" stroke-width="0"/>
<circle cx="195" cy="478" fill="none" r="0" stroke="none" stroke-width="0"/>
<circle cx="393" cy="405" fill="none" r="0" stroke="none" stroke-width="0"/>
<circle cx="470" cy="429" fill="none" r="0" stroke="none" stroke-width="0"/>
<circle cx="352" cy="421" fill="none" r="0" stroke="none" stroke-width="0"/>
<circle cx="353" cy="420" fill="none" r="0" stroke="none" stroke-width="0"/>
<circle cx="268" cy="439" fill="none" r="0" stroke="none" stroke-width="0"/>
<circle cx="780" cy="437" fill="none" r="0" stroke="none" stroke-width="0"/>
<circle cx="389" cy="393" fill="none" r="0" stroke="none" stroke-width="0"/>
<circle cx="424" cy="402" fill="none" r="0" stroke="none" stroke-width="0"/>
<circle cx="422" cy="400" fill="none" r="0" stroke="none" stroke-width="0"/>
<circle cx="247" cy="438" fill="none" r="0" stroke="none" stroke-width="0"/>
<circle cx="30" cy="436" fill="none" r="0" stroke="none" stroke-width="0"/>
<circle cx="444" cy="398" fill="none" r="0" stroke="none" stroke-width="0"/>
<circle cx="368" cy="391" fill="none" r="0" stroke="none" stroke-width="0"/>
<circle cx="542" cy="420" fill="none" r="0" stroke="none" stroke-width="0"/>
<circle cx="405" cy="382" fill="none" r="0" stroke="none" stroke-width="0"/>
<circle cx="309" cy="404" fill="none" r="0" stroke="none" stroke-width="0"/>
<circle cx="518" cy="409" fill="none" r="0" stroke="none" stroke-width="0"/>
<circle cx="404" cy="361" fill="none" r="0" stroke="none" stroke-width="0"/>
<circle cx="57" cy="409" fill="none" r="0" stroke="none" stroke-width="0"/>
<circle cx="606" cy="400" fill="none" r="0" stroke="none" stroke-width="0"/>
<circle cx="609" cy="397" fill="none" r="0" stroke="none" stroke-width="0"/>
<circle cx="455" cy="356" fill="none" r="0" stroke="none" stroke-width="0"/>
<circle cx="362" cy="354" fill="none" r="0" stroke="none" stroke-width="0"/>
<circle cx="310" cy="360" fill="none" r="0" stroke="none" stroke-width="0"/>
<circle cx="369" cy="348" fill="none" r="0" stroke="none" stroke-width="0"/>
<circle cx="496" cy="353" fill="none" r="0" stroke="none" stroke-width="0"/>
<circle cx="440" cy="345" fill="none" r="0" stroke="none" stroke-width="0"/>
<circle cx="665" cy="379" fill="none" r="0" stroke="none" stroke-width="0"/>
<circle cx="749" cy="366" fill="none" r="0" stroke="none" stroke-width="0"/>
<circle cx="288" cy="335" fill="none" r="0" stroke="none" stroke-width="0"/>
<circle cx="66" cy="367" fill="none" r="0" stroke="none" stroke-width="0"/>
<circle cx="376" cy="304" fill="none" r="0" stroke="none" stroke-width="0"/>
<circle cx="223" cy="332" fill="none" r="0" stroke="none" stroke-width="0"/>
<circle cx="221" cy="330" fill="none" r="0" stroke="none" stroke-width="0"/>
<circle cx="694" cy="349" fill="none" r="0" stroke="none" stroke-width="0"/>
<circle cx="81" cy="349" fill="none" r="0" stroke="none" stroke-width="0"/>
<circle cx="128" cy="342" fill="none" r="0" stroke="none" stroke-width="0"/>
<circle cx="427" cy="295" fill="none" r="0" stroke="none" stroke-width="0"/>
<circle cx="94" cy="343" fill="none" r="0" stroke="none" stroke-width="0"/>
<circle cx="158" cy="328" fill="none" r="0" stroke="none" stroke-width="0"/>
<circle cx="526" cy="304" fill="none" r="0" stroke="none" stroke-width="0"/>
<circle cx="714" cy="341" fill="none" r="0" stroke="none" stroke-width="0"/>
<circle cx="7" cy="281" fill="none" r="0" stroke="none" stroke-width="0"/>
<circle cx="539" cy="299" fill="none" r="0" stroke="none" stroke-width="0"/>
<circle cx="445" cy="271" fill="none" r="0" stroke="none" stroke-width="0"/>
<circle cx="728" cy="300" fill="none" r="0" stroke="none" stroke-width="0"/>
<circle cx="333" cy="268" fill="none" r="0" stroke="none" stroke-width="0"/>
<circle cx="330" cy="250" fill="none" r="0" stroke="none" stroke-width="0"/>
<circle cx="720" cy="251" fill="none" r="0" stroke="none" stroke-width="0"/>
<circle cx="50" cy="213" fill="none" r="0" stroke="none" stroke-width="0"/>
<circle cx="574" cy="245" fill="none" r="0" stroke="none" stroke-width="0"/>
<circle cx="736" cy="220" fill="none" r="0" stroke="none" stroke-width="0"/>
<circle cx="81" cy="216" fill="none" r="0" stroke="none" stroke-width="0"/>
<circle cx="575" cy="225" fill="none" r="0" stroke="none" stroke-width="0"/>
<circle cx="436" cy="204" fill="none" r="0" stroke="none" stroke-width="0"/>
<circle cx="436" cy="204" fill="none" r="0" stroke="none" stroke-width="0"/>
<circle cx="283" cy="206" fill="none" r="0" stroke="none" stroke-width="0"/>
<circle cx="267" cy="203" fill="none" r="0" stroke="none" stroke-width="0"/>
<circle cx="709" cy="147" fill="none" r="0" stroke="none" stroke-width="0"/>
<circle cx="125" cy="175" fill="none" r="0" stroke="none" stroke-width="0"/>
<circle cx="598" cy="186" fill="none" r="0" stroke="none" stroke-width="0"/>
<circle cx="230" cy="171" fill="none" r="0" stroke="none" stroke-width="0"/>
<circle cx="176" cy="166" fill="none" r="0" stroke="none" stroke-width="0"/>
<circle cx="186" cy="160" fill="none" r="0" stroke="none" stroke-width="0"/>
<circle cx="427" cy="142" fill="none" r="0" stroke="none" stroke-width="0"/>
<circle cx="183" cy="135" fill="none" r="0" stroke="none" stroke-width="0"/>
<circle cx="613" cy="140" fill="none" r="0" stroke="none" stroke-width="0"/>
<circle cx="601" cy="145" fill="none" r="0" stroke="none" stroke-width="0"/>
<circle cx="585" cy="129" fill="none" r="0" stroke="none" stroke-width="0"/>
<circle cx="406" cy="112" fill="none" r="0" stroke="none" stroke-width="0"/>
<circle cx="569" cy="83" fill="none" r="0" stroke="none" stroke-width="0"/>
<circle cx="214" cy="52" fill="none" r="0" stroke="none" stroke-width="0"/>
<circle cx="518" cy="45" fill="none" r="0" stroke="none" stroke-width="0"/>
<circle cx="320" cy="61" fill="none" r="0" stroke="none" stroke-width="0"/>
<circle cx="400" cy="83" fill="none" r="0" stroke="none" stroke-width="0"/>
<circle cx="291" cy="40" fill="none" r="0" stroke="none" stroke-width="0"/>
<circle cx="398" cy="80" fill="none" r="0" stroke="none" stroke-width="0"/>
<circle cx="367" cy="62" fill="none" r="0" stroke="none" stroke-width="0"/>
<circle cx="517" cy="14" fill="none" r="0" stroke="none" stroke-width="0"/>
<circle cx="0" cy="0" fill="none" r="0" stroke="none" stroke-width="0"/>
<circle cx="800" cy="0" fill="none" r="0" stroke="none" stroke-width="0"/>
<circle cx="800" cy="800" fill="none" r="0" stroke="none" stroke-width="0"/>
<circle cx="0" cy="800" fill="none" r="0" stroke="none" stroke-width="0"/>
<circle cx="436" cy="0" fill="none" r="0" stroke="none" stroke-width="0"/>
<circle cx="473" cy="0" fill="none" r="0" stroke="none" stroke-width="0"/>
<circle cx="800" cy="361" fill="none" r="0" stroke="none" stroke-width="0"/>
<circle cx="800" cy="439" fill="none" r="0" stroke="none" stroke-width="0"/>
<circle cx="800" cy="521" fill="none" r="0" stroke="none" stroke-width="0"/>
<circle cx="800" cy="614" fill="none" r="0" stroke="none" stroke-width="0"/>
<circle cx="800" cy="728" fill="none" r="0" stroke="none" stroke-width="0"/>
<circle cx="728" cy="800" fill="none" r="0" stroke="none" stroke-width="0"/>
<circle cx="614" cy="800" fill="none" r="0" stroke="none" stroke-width="0"/>
<circle cx="521" cy="800" fill="none" r="0" stroke="none" stroke-width="0"/>
<circle cx="439" cy="800" fill="none" r="0" stroke="none" stroke-width="0"/>
<circle cx="361" cy="800" fill="none" r="0" stroke="none" stroke-width="0"/>
<circle cx="279" cy="800" fill="none" r="0" stroke="none" stroke-width="0"/>
<circle cx="186" cy="800" fill="none" r="0" stroke="none" stroke-width="0"/>
<circle cx="72" cy="800" fill="none" r="0" stroke="none" stroke-width="0"/>
<circle cx="0" cy="728" fill="none" r="0" stroke="none" stroke-width="0"/>
<circle cx="0" cy="614" fill="none" r="0" stroke="none" stroke-width="0"/>
<circle cx="0" cy="521" fill="none" r="0" stroke="none" stroke-width="0"/>
<circle cx="0" cy="439" fill="none" r="0" stroke="none" stroke-width="0"/>
<circle cx="0" cy="361" fill="none" r="0" stroke="none" stroke-width="0"/>
<circle cx="0" cy="279" fill="none" r="0" stroke="none" stroke-width="0"/>
<circle cx="0" cy="186" fill="none" r="0" stroke="none" stroke-width="0"/>
<circle cx="0" cy="72" fill="none" r="0" stroke="none" stroke-width="0"/>
<circle cx="72" cy="0" fill="none" r="0" stroke="none" stroke-width="0"/>
<circle cx="186" cy="0" fill="none" r="0" stroke="none" stroke-width="0"/>
<circle cx="279" cy="0" fill="none" r="0" stroke="none" stroke-width="0"/>
<circle cx="361" cy="0" fill="none" r="0" stroke="none" stroke-width="0"/>
<circle cx="521" cy="0" fill="none" r="0" stroke="none" stroke-width="0"/>
<circle cx="614" cy="0" fill="none" r="0" stroke="none" stroke-width="0"/>
<circle cx="728" cy="0" fill="none" r="0" stroke="none" stroke-width="0"/>
<circle cx="800" cy="72" fill="none" r="0" stroke="none" stroke-width="0"/>
<circle cx="800" cy="186" fill="none" r="0" stroke="none" stroke-width="0"/>
<circle cx="800" cy="279" fill="none" r="0" stroke="none" stroke-width="0"/>
</svg>