<svg 
            xmlns:xlink="http://www.w3.org/1999/xlink" viewBox="0 0 800 800" xmlns="http://www.w3.org/2000/svg">
<rect fill="#172109" height="800" stroke="none" width="800" x="0" y="0"/>
<path d="M401,369 L423,373 L426,376 L398,409 L392,411 L383,406 L379,394 L384,378 z" fill="none" stroke="none" stroke-width="0"/>
<linearGradient id="gradient_face0" x1="0" x2="1.01" y1="0" y2="1.01">
<stop offset="0%" stop-color="#8DD3C7FF"/>
<stop offset="100%" stop-color="#8DD3C7FF"/>
</linearGradient>
<path d="M407.43707,375.25235 L414.94098,376.6167 Q420.56888,377.63995,420.16028,377.23135 L419.61548,376.68655 Q419.20688,376.27795,411.97247,384.8042 L402.3266,396.17255 Q395.0922,404.6988,394.3162,404.95746 L393.2815,405.30237 Q392.5055,405.56104,390.89236,404.66486 L388.74152,403.46994 Q387.1284,402.57376,386.26605,399.98676 L385.11627,396.53745 Q384.25394,393.95044,385.4253,390.2021 L386.98712,385.20428 Q388.15848,381.45593,392.2537,379.28787 L397.71396,376.39713 Q401.80914,374.2291,407.43707,375.25235 z" fill="url(#gradient_face0)" stroke="none" stroke-width="0"/>
<path d="M426,376 L442,391 L445,423 L444,424 L398,409 z" fill="none" stroke="none" stroke-width="0"/>
<linearGradient id="gradient_face1" x1="0" x2="1.01" y1="0" y2="1.01">
<stop offset="0%" stop-color="#EBF7B6FF"/>
<stop offset="100%" stop-color="#FEFEB3FF"/>
</linearGradient>
<path d="M429.6489,386.2745 L433.963,390.319 Q437.1986,393.35236,437.97977,401.6846 L439.0213,412.79425 Q439.80243,421.1265,440.6518,420.27713 L441.78427,419.14468 Q442.6336,418.29532,431.83295,414.77338 L417.4321,410.07742 Q406.63144,406.55548,412.566,399.5612 L420.47876,390.23544 Q426.4133,383.24112,429.6489,386.2745 z" fill="url(#gradient_face1)" stroke="none" stroke-width="0"/>
<path d="M392,411 L398,409 L444,424 L425,454 L407,457 z" fill="none" stroke="none" stroke-width="0"/>
<linearGradient id="gradient_face2" x1="0" x2="1.01" y1="0" y2="1.01">
<stop offset="0%" stop-color="#D4D2CCFF"/>
<stop offset="100%" stop-color="#BFB9D8FF"/>
</linearGradient>
<path d="M398.21072,414.20023 L398.10013,414.2371 Q398.0172,414.26474,409.51224,418.01312 L424.83896,423.01096 Q436.33398,426.75934,432.02548,433.56223 L426.28082,442.63275 Q421.97232,449.43564,418.5067,450.01324 L413.88593,450.7834 Q410.42032,451.361,406.78232,440.20447 L401.93164,425.3291 Q398.29364,414.17258,398.21072,414.20023 z" fill="url(#gradient_face2)" stroke="none" stroke-width="0"/>
<path d="M383,406 L392,411 L407,457 L383,467 L358,453 z" fill="none" stroke="none" stroke-width="0"/>
<linearGradient id="gradient_face3" x1="0" x2="1.01" y1="0" y2="1.01">
<stop offset="0%" stop-color="#DA9EA8FF"/>
<stop offset="100%" stop-color="#F78174FF"/>
</linearGradient>
<path d="M385.87268,413.31573 L387.00552,413.9451 Q387.85516,414.4171,391.7431,426.34012 L396.927,442.23743 Q400.81494,454.16043,395.5669,456.34714 L388.5695,459.2627 Q383.32144,461.4494,377.73868,458.32303 L370.29495,454.15454 Q364.71216,451.0282,370.80542,439.57285 L378.92978,424.29907 Q385.02307,412.84372,385.87268,413.31573 z" fill="url(#gradient_face3)" stroke="none" stroke-width="0"/>
<path d="M323,410 L379,394 L383,406 L358,453 L337,447 z" fill="none" stroke="none" stroke-width="0"/>
<linearGradient id="gradient_face4" x1="0" x2="1.01" y1="0" y2="1.01">
<stop offset="0%" stop-color="#D68E8FFF"/>
<stop offset="100%" stop-color="#84B1CFFF"/>
</linearGradient>
<path d="M343.45117,409.3569 L361.91934,404.08026 Q375.77048,400.1228,376.31277,401.74976 L377.03586,403.919 Q377.5782,405.54596,370.9502,418.00656 L362.11288,434.6207 Q355.4849,447.08133,351.07578,445.82156 L345.19696,444.1419 Q340.78787,442.88217,337.43152,434.0118 L332.9564,422.1847 Q329.60004,413.31436,343.45117,409.3569 z" fill="url(#gradient_face4)" stroke="none" stroke-width="0"/>
<path d="M312,396 L328,351 L384,378 L379,394 L323,410 z" fill="none" stroke="none" stroke-width="0"/>
<linearGradient id="gradient_face5" x1="0" x2="1.01" y1="0" y2="1.01">
<stop offset="0%" stop-color="#8FB1C4FF"/>
<stop offset="100%" stop-color="#F9B562FF"/>
</linearGradient>
<path d="M321.5977,383.9315 L326.88202,369.06927 Q330.84528,357.92264,344.97366,364.73456 L363.81155,373.8171 Q377.93997,380.62903,377.0677,383.42038 L375.9046,387.14218 Q375.03232,389.93353,359.9795,394.23434 L339.9091,399.96875 Q324.85626,404.26956,322.6897,401.51215 L319.80096,397.83557 Q317.63443,395.07813,321.5977,383.9315 z" fill="url(#gradient_face5)" stroke="none" stroke-width="0"/>
<path d="M327,334 L376,306 L401,369 L384,378 L328,351 z" fill="none" stroke="none" stroke-width="0"/>
<linearGradient id="gradient_face6" x1="0" x2="1.01" y1="0" y2="1.01">
<stop offset="0%" stop-color="#F6B367FF"/>
<stop offset="100%" stop-color="#B6DD6FFF"/>
</linearGradient>
<path d="M344.5648,329.72174 L361.08655,320.28073 Q373.47784,313.19998,379.8443,329.24344 L388.3329,350.6347 Q394.69934,366.67816,391.45792,368.39423 L387.13602,370.6823 Q383.89456,372.39835,368.57184,365.01062 L348.1415,355.16028 Q332.8188,347.77252,332.6252,344.4815 L332.3671,340.09348 Q332.1735,336.80246,344.5648,329.72174 z" fill="url(#gradient_face6)" stroke="none" stroke-width="0"/>
<path d="M376,306 L385,294 L448,305 L423,373 L401,369 z" fill="none" stroke="none" stroke-width="0"/>
<linearGradient id="gradient_face7" x1="0" x2="1.01" y1="0" y2="1.01">
<stop offset="0%" stop-color="#C3D467FF"/>
<stop offset="100%" stop-color="#F9CDE4FF"/>
</linearGradient>
<path d="M383.32452,304.56732 L385.51642,301.64478 Q387.16037,299.45285,403.38446,302.2856 L425.01657,306.06265 Q441.24066,308.89545,434.7958,326.42538 L426.20273,349.7986 Q419.75787,367.32855,415.21774,366.50308 L409.16425,365.40244 Q404.6241,364.57697,397.74106,347.23163 L388.56363,324.10455 Q381.68057,306.75925,383.32452,304.56732 z" fill="url(#gradient_face7)" stroke="none" stroke-width="0"/>
<path d="M448,305 L461,300 L507,355 L442,391 L426,376 L423,373 z" fill="none" stroke="none" stroke-width="0"/>
<linearGradient id="gradient_face8" x1="0" x2="1.01" y1="0" y2="1.01">
<stop offset="0%" stop-color="#DED3B3FF"/>
<stop offset="100%" stop-color="#D7D3D7FF"/>
</linearGradient>
<path d="M454.17493,307.98212 L457.19394,306.82095 Q459.4582,305.95007,471.4042,320.23337 L487.3322,339.27774 Q499.27823,353.561,482.3237,362.95123 L459.71762,375.47153 Q442.76306,384.86172,438.7777,381.12546 L433.4639,376.14374 Q429.47852,372.40747,429.27377,372.2027 L429.00073,371.9297 Q428.796,371.7249,435.73038,352.86334 L444.97626,327.71454 Q451.91068,308.85297,454.17493,307.98212 z" fill="url(#gradient_face8)" stroke="none" stroke-width="0"/>
<path d="M507,355 L520,360 L520,438 L445,423 L442,391 z" fill="none" stroke="none" stroke-width="0"/>
<linearGradient id="gradient_face9" x1="0" x2="1.01" y1="0" y2="1.01">
<stop offset="0%" stop-color="#EDD2DFFF"/>
<stop offset="100%" stop-color="#BD88BDFF"/>
</linearGradient>
<path d="M509.66745,361.38303 L512.7146,362.555 Q515,363.434,515,383.9741 L515,411.36087 Q515,431.90097,495.38922,427.97882 L469.24152,422.74927 Q449.6307,418.82712,448.92654,411.31583 L447.9876,401.30075 Q447.28345,393.78943,465.31302,383.8038 L489.35248,370.48965 Q507.38208,360.50403,509.66745,361.38303 z" fill="url(#gradient_face9)" stroke="none" stroke-width="0"/>
<path d="M444,424 L445,423 L520,438 L527,449 L472,515 L425,454 z" fill="none" stroke="none" stroke-width="0"/>
<linearGradient id="gradient_face10" x1="0" x2="1.01" y1="0" y2="1.01">
<stop offset="0%" stop-color="#D1C2D2FF"/>
<stop offset="100%" stop-color="#D0EBBDFF"/>
</linearGradient>
<path d="M447.54227,427.5288 L447.02863,428.04245 Q446.64337,428.4277,467.72852,432.6447 L495.84204,438.26743 Q516.9272,442.48447,518.09546,444.3203 L519.6532,446.76813 Q520.8215,448.604,506.2209,466.1247 L486.75348,489.4856 Q472.1529,507.00626,459.83582,491.02026 L443.41306,469.70563 Q431.09598,453.71964,436.14545,445.74683 L442.87805,435.1164 Q447.9275,427.14355,447.54227,427.5288 z" fill="url(#gradient_face10)" stroke="none" stroke-width="0"/>
<path d="M407,457 L425,454 L472,515 L470,527 L379,544 L383,467 z" fill="none" stroke="none" stroke-width="0"/>
<linearGradient id="gradient_face11" x1="0" x2="1.01" y1="0" y2="1.01">
<stop offset="0%" stop-color="#BD88BDFF"/>
<stop offset="100%" stop-color="#FFED6FFF"/>
</linearGradient>
<path d="M412.7338,461.11334 L418.52444,460.14822 Q422.86743,459.4244,436.0202,476.495 L453.55722,499.2558 Q466.70996,516.3264,466.38992,518.2467 L465.96317,520.8071 Q465.64313,522.7274,441.24698,527.285 L408.71878,533.36163 Q384.32263,537.9192,385.37482,517.6647 L386.7777,490.6587 Q387.8299,470.4042,393.99817,467.8341 L402.22253,464.4073 Q408.39078,461.83716,412.7338,461.11334 z" fill="url(#gradient_face11)" stroke="none" stroke-width="0"/>
<path d="M337,447 L358,453 L383,467 L379,544 L371,552 L284,502 z" fill="none" stroke="none" stroke-width="0"/>
<linearGradient id="gradient_face12" x1="0" x2="1.01" y1="0" y2="1.01">
<stop offset="0%" stop-color="#8DD3C7FF"/>
<stop offset="100%" stop-color="#8DD3C7FF"/>
</linearGradient>
<path d="M343.78055,454.1374 L350.80066,456.14313 Q356.06573,457.64743,362.59967,461.30643 L371.31158,466.1851 Q377.84552,469.84412,376.72375,491.43765 L375.22812,520.229 Q374.10638,541.8226,372.926,543.0029 L371.35217,544.5767 Q370.1718,545.75714,346.73386,532.28705 L315.48325,514.3269 Q292.04532,500.8568,305.98636,486.38968 L324.5744,467.1002 Q338.51547,452.63306,343.78055,454.1374 z" fill="url(#gradient_face12)" stroke="none" stroke-width="0"/>
<path d="M236,404 L312,396 L323,410 L337,447 L284,502 L272,504 z" fill="none" stroke="none" stroke-width="0"/>
<linearGradient id="gradient_face13" x1="0" x2="1.01" y1="0" y2="1.01">
<stop offset="0%" stop-color="#EBF7B6FF"/>
<stop offset="100%" stop-color="#FEFEB3FF"/>
</linearGradient>
<path d="M262.93744,406.1921 L289.70206,403.3748 Q309.7755,401.26178,312.4213,404.62915 L315.94904,409.119 Q318.59485,412.4864,322.37744,422.4833 L327.42096,435.81253 Q331.20355,445.80945,316.30658,461.2686 L296.44397,481.88074 Q281.54697,497.33987,279.6704,497.65262 L277.16837,498.06964 Q275.2918,498.3824,265.56345,471.35922 L252.59232,435.32828 Q242.86397,408.3051,262.93744,406.1921 z" fill="url(#gradient_face13)" stroke="none" stroke-width="0"/>
<path d="M265,291 L327,334 L328,351 L312,396 L236,404 L226,398 z" fill="none" stroke="none" stroke-width="0"/>
<linearGradient id="gradient_face14" x1="0" x2="1.01" y1="0" y2="1.01">
<stop offset="0%" stop-color="#D4D2CCFF"/>
<stop offset="100%" stop-color="#BFB9D8FF"/>
</linearGradient>
<path d="M283.8798,310.17886 L305.74933,325.34647 Q322.1515,336.72217,322.39075,340.78976 L322.70978,346.21323 Q322.94907,350.28085,318.56757,362.60376 L312.72562,379.0343 Q308.34412,391.3572,286.9826,393.60577 L258.50058,396.60388 Q237.13905,398.85248,235.63054,397.9474 L233.61922,396.74057 Q232.11072,395.83548,242.72078,366.7258 L256.86755,327.91287 Q267.47763,298.8032,283.8798,310.17886 z" fill="url(#gradient_face14)" stroke="none" stroke-width="0"/>
<path d="M261,280 L365,220 L385,294 L376,306 L327,334 L265,291 z" fill="none" stroke="none" stroke-width="0"/>
<linearGradient id="gradient_face15" x1="0" x2="1.01" y1="0" y2="1.01">
<stop offset="0%" stop-color="#DA9EA8FF"/>
<stop offset="100%" stop-color="#F78174FF"/>
</linearGradient>
<path d="M295.55362,265.83765 L333.4481,243.97546 Q361.86893,227.57883,367.16934,247.19037 L374.23657,273.3391 Q379.537,292.95065,377.46216,295.71713 L374.6957,299.40573 Q372.62088,302.17218,359.01193,309.9487 L340.8667,320.3174 Q327.25778,328.09393,309.82715,316.00497 L286.58633,299.88632 Q269.15573,287.79736,268.54883,286.12845 L267.73965,283.9032 Q267.13278,282.23428,295.55362,265.83765 z" fill="url(#gradient_face15)" stroke="none" stroke-width="0"/>
<path d="M365,220 L369,209 L494,231 L461,300 L448,305 L385,294 z" fill="none" stroke="none" stroke-width="0"/>
<linearGradient id="gradient_face16" x1="0" x2="1.01" y1="0" y2="1.01">
<stop offset="0%" stop-color="#D68E8FFF"/>
<stop offset="100%" stop-color="#84B1CFFF"/>
</linearGradient>
<path d="M370.8472,218.55107 L371.6575,216.32275 Q372.26523,214.65154,406.58017,220.69096 L452.3334,228.74353 Q486.64835,234.78296,477.85822,253.16235 L466.138,277.6682 Q457.34787,296.0476,454.39252,297.18427 L450.4521,298.69983 Q447.49673,299.8365,429.94656,296.7722 L406.54636,292.68643 Q388.9962,289.6221,383.36917,268.80215 L375.8665,241.04225 Q370.23947,220.2223,370.8472,218.55107 z" fill="url(#gradient_face16)" stroke="none" stroke-width="0"/>
<path d="M494,231 L503,226 L589,328 L520,360 L507,355 L461,300 z" fill="none" stroke="none" stroke-width="0"/>
<linearGradient id="gradient_face17" x1="0" x2="1.01" y1="0" y2="1.01">
<stop offset="0%" stop-color="#8FB1C4FF"/>
<stop offset="100%" stop-color="#F9B562FF"/>
</linearGradient>
<path d="M499.02487,233.9282 L500.62802,233.03755 Q501.83038,232.36957,525.5686,260.52417 L557.2195,298.06363 Q580.9577,326.21823,562.6158,334.72464 L538.15985,346.0665 Q519.81793,354.5729,516.8738,353.44055 L512.9483,351.93073 Q510.00418,350.79837,497.07214,335.33618 L479.82944,314.7199 Q466.89743,299.2577,476.17496,279.85925 L488.54498,253.99464 Q497.8225,234.59619,499.02487,233.9282 z" fill="url(#gradient_face17)" stroke="none" stroke-width="0"/>
<path d="M589,328 L600,329 L600,470 L527,449 L520,438 L520,360 z" fill="none" stroke="none" stroke-width="0"/>
<linearGradient id="gradient_face18" x1="0" x2="1.01" y1="0" y2="1.01">
<stop offset="0%" stop-color="#F6B367FF"/>
<stop offset="100%" stop-color="#B6DD6FFF"/>
</linearGradient>
<path d="M591.41956,333.24057 L593.4655,333.42657 Q595,333.56607,595,372.5039 L595,424.42102 Q595,463.35886,575.56055,457.7667 L549.6413,450.31046 Q530.20184,444.7183,528.6413,442.26602 L526.56055,438.99628 Q525,436.544,525,414.5386 L525,385.1981 Q525,363.1927,544.4655,354.16522 L570.41956,342.12857 Q589.8851,333.10107,591.41956,333.24057 z" fill="url(#gradient_face18)" stroke="none" stroke-width="0"/>
<path d="M600,470 L608,478 L513,590 L470,527 L472,515 L527,449 z" fill="none" stroke="none" stroke-width="0"/>
<linearGradient id="gradient_face19" x1="0" x2="1.01" y1="0" y2="1.01">
<stop offset="0%" stop-color="#C3D467FF"/>
<stop offset="100%" stop-color="#F9CDE4FF"/>
</linearGradient>
<path d="M598.52625,475.59732 L600.05835,477.1294 Q601.2074,478.27844,574.87445,509.32358 L539.7639,550.71704 Q513.431,581.7622,501.98038,564.98566 L486.71286,542.617 Q475.2622,525.8405,475.6963,523.23615 L476.27502,519.7637 Q476.70908,517.15936,492.32217,498.42365 L513.13965,473.4427 Q528.75275,454.70697,549.3401,460.62936 L576.78986,468.52588 Q597.3772,474.44827,598.52625,475.59732 z" fill="url(#gradient_face19)" stroke="none" stroke-width="0"/>
<path d="M371,552 L379,544 L470,527 L513,590 L514,601 L362,628 z" fill="none" stroke="none" stroke-width="0"/>
<linearGradient id="gradient_face20" x1="0" x2="1.01" y1="0" y2="1.01">
<stop offset="0%" stop-color="#DED3B3FF"/>
<stop offset="100%" stop-color="#D7D3D7FF"/>
</linearGradient>
<path d="M377.46515,552.6059 L379.73676,550.3343 Q381.4405,548.6306,407.32135,543.7957 L441.8292,537.3492 Q467.71008,532.5143,479.8385,550.2838 L496.0097,573.9765 Q508.13812,591.74603,508.27814,593.28625 L508.4648,595.33984 Q508.60486,596.88007,466.35062,604.38574 L410.01166,614.3934 Q367.75742,621.89905,370.15863,601.6222 L373.36023,574.5865 Q375.7614,554.30963,377.46515,552.6059 z" fill="url(#gradient_face20)" stroke="none" stroke-width="0"/>
<path d="M272,504 L284,502 L371,552 L362,628 L356,637 L217,556 z" fill="none" stroke="none" stroke-width="0"/>
<linearGradient id="gradient_face21" x1="0" x2="1.01" y1="0" y2="1.01">
<stop offset="0%" stop-color="#EDD2DFFF"/>
<stop offset="100%" stop-color="#BD88BDFF"/>
</linearGradient>
<path d="M276.94623,508.2446 L280.439,507.66248 Q283.05856,507.22586,307.83496,521.46515 L340.87012,540.45087 Q365.64648,554.6902,363.1052,576.14996 L359.7168,604.76306 Q357.1755,626.22284,356.35806,627.44904 L355.26813,629.0839 Q354.45065,630.3101,315.7023,607.73016 L264.03784,577.62354 Q225.2895,555.0436,240.00064,541.1349 L259.6155,522.5899 Q274.32663,508.68118,276.94623,508.2446 z" fill="url(#gradient_face21)" stroke="none" stroke-width="0"/>
<path d="M150,402 L226,398 L236,404 L272,504 L217,556 L207,559 z" fill="none" stroke="none" stroke-width="0"/>
<linearGradient id="gradient_face22" x1="0" x2="1.01" y1="0" y2="1.01">
<stop offset="0%" stop-color="#D1C2D2FF"/>
<stop offset="100%" stop-color="#D0EBBDFF"/>
</linearGradient>
<path d="M177.32353,405.56885 L204.41714,404.14285 Q224.73737,403.07336,226.88594,404.36252 L229.75069,406.08136 Q231.89925,407.3705,242.18564,435.9438 L255.90082,474.04153 Q266.1872,502.6148,250.65913,517.2959 L229.95505,536.87067 Q214.42697,551.55176,213.12523,551.94226 L211.38956,552.46295 Q210.0878,552.8535,194.16245,508.98895 L172.92865,450.50287 Q157.00331,406.63834,177.32353,405.56885 z" fill="url(#gradient_face22)" stroke="none" stroke-width="0"/>
<path d="M200,235 L261,280 L265,291 L226,398 L150,402 L140,398 z" fill="none" stroke="none" stroke-width="0"/>
<linearGradient id="gradient_face23" x1="0" x2="1.01" y1="0" y2="1.01">
<stop offset="0%" stop-color="#BD88BDFF"/>
<stop offset="100%" stop-color="#FFED6FFF"/>
</linearGradient>
<path d="M218.71912,255.02249 L240.48929,271.08246 Q256.81693,283.12744,257.67554,285.48862 L258.82034,288.63684 Q259.67896,290.99802,248.5057,321.65283 L233.60803,362.5259 Q222.43478,393.18073,200.95505,394.31125 L172.3154,395.81857 Q150.83566,396.9491,149.49657,396.41345 L147.71112,395.69928 Q146.37204,395.16367,163.17787,349.5078 L185.58565,288.63336 Q202.39148,242.97751,218.71912,255.02249 z" fill="url(#gradient_face23)" stroke="none" stroke-width="0"/>
<path d="M351,136 L369,209 L365,220 L261,280 L200,235 L195,226 z" fill="none" stroke="none" stroke-width="0"/>
<linearGradient id="gradient_face24" x1="0" x2="1.01" y1="0" y2="1.01">
<stop offset="0%" stop-color="#8DD3C7FF"/>
<stop offset="100%" stop-color="#8DD3C7FF"/>
</linearGradient>
<path d="M352.55075,163.17433 L358.96823,189.2007 Q363.7813,208.72049,362.92398,211.07816 L361.78088,214.2217 Q360.92355,216.57936,331.0471,233.81578 L291.21182,256.79767 Q261.33536,274.0341,244.08763,261.31036 L221.09065,244.34537 Q203.84293,231.62164,203.21806,230.49687 L202.3849,228.99718 Q201.76003,227.87242,245.55331,202.60706 L303.94437,168.9199 Q347.73767,143.65456,352.55075,163.17433 z" fill="url(#gradient_face24)" stroke="none" stroke-width="0"/>
<path d="M351,136 L353,125 L537,158 L503,226 L494,231 L369,209 z" fill="none" stroke="none" stroke-width="0"/>
<linearGradient id="gradient_face25" x1="0" x2="1.01" y1="0" y2="1.01">
<stop offset="0%" stop-color="#EBF7B6FF"/>
<stop offset="100%" stop-color="#FEFEB3FF"/>
</linearGradient>
<path d="M356.38565,134.32985 L356.75217,132.31395 Q357.02707,130.80202,408.78064,140.08391 L477.78543,152.45978 Q529.539,161.74167,520.4432,179.93329 L508.31543,204.1888 Q499.21964,222.38042,497.39008,223.39684 L494.95068,224.75206 Q493.12112,225.76846,457.1072,219.43002 L409.08868,210.97876 Q373.07477,204.6403,367.98557,184.00075 L361.19995,156.48134 Q356.11075,135.84177,356.38565,134.32985 z" fill="url(#gradient_face25)" stroke="none" stroke-width="0"/>
<path d="M537,158 L545,151 L670,300 L600,329 L589,328 L503,226 z" fill="none" stroke="none" stroke-width="0"/>
<linearGradient id="gradient_face26" x1="0" x2="1.01" y1="0" y2="1.01">
<stop offset="0%" stop-color="#D4D2CCFF"/>
<stop offset="100%" stop-color="#BFB9D8FF"/>
</linearGradient>
<path d="M542.05786,160.2182 L543.4251,159.02187 Q544.45056,158.12462,579.6516,200.0843 L626.5864,256.03055 Q661.7875,297.99023,643.01874,305.76584 L617.99384,316.13333 Q599.2251,323.90894,596.9071,323.6982 L593.81647,323.41724 Q591.4985,323.2065,566.73206,293.8324 L533.7102,254.66692 Q508.94376,225.2928,518.5704,206.0396 L531.4058,180.36865 Q541.0325,161.11545,542.05786,160.2182 z" fill="url(#gradient_face26)" stroke="none" stroke-width="0"/>
<path d="M670,300 L680,300 L680,500 L608,478 L600,470 L600,329 z" fill="none" stroke="none" stroke-width="0"/>
<linearGradient id="gradient_face27" x1="0" x2="1.01" y1="0" y2="1.01">
<stop offset="0%" stop-color="#DA9EA8FF"/>
<stop offset="100%" stop-color="#F78174FF"/>
</linearGradient>
<path d="M672.1963,305 L673.7984,305 Q675,305,675,361.4732 L675,436.7708 Q675,493.24402,655.6961,487.3456 L629.9576,479.48108 Q610.65375,473.58267,608.9576,471.88654 L606.6961,469.62506 Q605,467.92892,605,427.25244 L605,373.01715 Q605,332.34067,624.7984,324.13846 L651.1963,313.2022 Q670.99475,305,672.1963,305 z" fill="url(#gradient_face27)" stroke="none" stroke-width="0"/>
<path d="M680,500 L688,506 L555,665 L514,601 L513,590 L608,478 z" fill="none" stroke="none" stroke-width="0"/>
<linearGradient id="gradient_face28" x1="0" x2="1.01" y1="0" y2="1.01">
<stop offset="0%" stop-color="#D68E8FFF"/>
<stop offset="100%" stop-color="#84B1CFFF"/>
</linearGradient>
<path d="M678.6252,505.2189 L679.85754,506.14316 Q680.7818,506.83633,643.2079,551.7555 L593.10944,611.6477 Q555.5355,656.56683,544.5355,639.3961 L529.8689,616.50183 Q518.8689,599.3312,518.659,597.0224 L518.37915,593.9441 Q518.1693,591.6354,545.624,559.2677 L582.23035,516.1108 Q609.68506,483.74307,630.08984,489.97787 L657.2962,498.29092 Q677.7009,504.52573,678.6252,505.2189 z" fill="url(#gradient_face28)" stroke="none" stroke-width="0"/>
<path d="M356,637 L362,628 L514,601 L555,665 L556,669 L552,676 L354,711 L348,706 z" fill="none" stroke="none" stroke-width="0"/>
<linearGradient id="gradient_face29" x1="0" x2="1.01" y1="0" y2="1.01">
<stop offset="0%" stop-color="#8FB1C4FF"/>
<stop offset="100%" stop-color="#F9B562FF"/>
</linearGradient>
<path d="M362.0725,636.90515 L363.73175,634.41626 Q364.9762,632.5496,408.9602,624.73663 L467.60553,614.3194 Q511.58954,606.5065,523.2171,624.65674 L538.72046,648.8571 Q550.34796,667.0074,550.4422,667.3843 L550.5678,667.8868 Q550.66205,668.2636,550.1099,669.22986 L549.3738,670.5181 Q548.82166,671.4843,490.80017,681.74066 L413.4382,695.4157 Q355.41672,705.67206,354.77515,705.1374 L353.9197,704.42456 Q353.27814,703.8899,355.54312,684.3545 L358.56308,658.3072 Q360.82806,638.7718,362.0725,636.90515 z" fill="url(#gradient_face29)" stroke="none" stroke-width="0"/>
<path d="M207,559 L217,556 L356,637 L348,706 L327,712 L167,620 L160,603 z" fill="none" stroke="none" stroke-width="0"/>
<linearGradient id="gradient_face30" x1="0" x2="1.01" y1="0" y2="1.01">
<stop offset="0%" stop-color="#F6B367FF"/>
<stop offset="100%" stop-color="#B6DD6FFF"/>
</linearGradient>
<path d="M211.59975,562.8402 L214.31866,562.02454 Q216.35783,561.4128,256.64746,584.8909 L310.36694,616.19507 Q350.65656,639.6732,348.4849,658.404 L345.5893,683.37836 Q343.4176,702.1092,338.69016,703.4599 L332.38687,705.2608 Q327.6594,706.6115,280.6535,679.5831 L217.97896,643.5453 Q170.97305,616.51685,169.46265,612.84875 L167.44878,607.9579 Q165.93837,604.2898,179.02504,592.03845 L196.4739,575.7033 Q209.56058,563.45197,211.59975,562.8402 z" fill="url(#gradient_face30)" stroke="none" stroke-width="0"/>
<path d="M88,401 L140,398 L150,402 L207,559 L160,603 L154,602 L132,587 L73,425 z" fill="none" stroke="none" stroke-width="0"/>
<linearGradient id="gradient_face31" x1="0" x2="1.01" y1="0" y2="1.01">
<stop offset="0%" stop-color="#C3D467FF"/>
<stop offset="100%" stop-color="#F9CDE4FF"/>
</linearGradient>
<path d="M105.36165,405.00668 L124.684494,403.8919 Q139.17664,403.05582,141.2429,403.88232 L143.99796,404.98434 Q146.06422,405.81085,162.59721,451.34906 L184.64117,512.06665 Q201.17416,557.60486,188.33766,569.622 L171.22234,585.64484 Q158.38585,597.662,157.64233,597.5381 L156.65099,597.37286 Q155.90747,597.24896,149.97935,593.20703 L142.0752,587.8179 Q136.1471,583.77594,118.862854,536.31757 L95.8172,473.03964 Q78.53297,425.58124,82.233925,419.6597 L87.16855,411.7643 Q90.86951,405.84277,105.36165,405.00668 z" fill="url(#gradient_face31)" stroke="none" stroke-width="0"/>
<path d="M153,198 L157,197 L195,226 L200,235 L140,398 L88,401 L67,367 L121,217 z" fill="none" stroke="none" stroke-width="0"/>
<linearGradient id="gradient_face32" x1="0" x2="1.01" y1="0" y2="1.01">
<stop offset="0%" stop-color="#DED3B3FF"/>
<stop offset="100%" stop-color="#D7D3D7FF"/>
</linearGradient>
<path d="M155.20982,202.60143 L155.59218,202.50584 Q155.87894,202.43414,166.45618,210.50626 L180.55917,221.26906 Q191.13641,229.34116,192.15025,231.16608 L193.50203,233.59929 Q194.51587,235.4242,177.0931,282.75607 L153.86273,345.8652 Q136.43997,393.19708,122.71429,393.98895 L104.413376,395.04477 Q90.68769,395.83664,85.237785,387.01297 L77.971245,375.24808 Q72.52134,366.42444,88.29384,322.6119 L109.323845,264.19525 Q125.09635,220.38272,134.04436,215.06984 L145.97505,207.986 Q154.92307,202.67311,155.20982,202.60143 z" fill="url(#gradient_face32)" stroke="none" stroke-width="0"/>
<path d="M299,73 L301,73 L346,92 L353,125 L351,136 L195,226 L157,197 L172,147 z" fill="none" stroke="none" stroke-width="0"/>
<linearGradient id="gradient_face33" x1="0" x2="1.01" y1="0" y2="1.01">
<stop offset="0%" stop-color="#EDD2DFFF"/>
<stop offset="100%" stop-color="#BD88BDFF"/>
</linearGradient>
<path d="M300.2416,78 L300.09653,78 Q299.9877,78,312.48654,83.27728 L329.15164,90.31366 Q341.65045,95.59094,343.52667,104.43595 L346.0283,116.22931 Q347.9045,125.07432,347.48166,127.4 L346.91785,130.50092 Q346.495,132.8266,301.1623,158.98009 L240.71869,193.8514 Q195.38599,220.00488,185.6051,212.54053 L172.56393,202.58804 Q162.78305,195.12369,166.81477,181.6846 L172.19041,163.76581 Q176.22214,150.32672,213.46063,128.62871 L263.11194,99.69801 Q300.35043,78,300.2416,78 z" fill="url(#gradient_face33)" stroke="none" stroke-width="0"/>
<path d="M367,67 L400,52 L520,74 L553,113 L558,128 L545,151 L537,158 L353,125 L346,92 z" fill="none" stroke="none" stroke-width="0"/>
<linearGradient id="gradient_face34" x1="0" x2="1.01" y1="0" y2="1.01">
<stop offset="0%" stop-color="#D1C2D2FF"/>
<stop offset="100%" stop-color="#D0EBBDFF"/>
</linearGradient>
<path d="M379.2624,66.91848 L391.47882,61.365562 Q400.6411,57.200874,435.6504,63.61924 L482.3294,72.177055 Q517.3387,78.59542,526.7054,89.665184 L539.19434,104.42487 Q548.5611,115.49464,549.759,119.08834 L551.3562,123.87995 Q552.5541,127.473656,549.1078,133.57098 L544.5127,141.70076 Q541.06635,147.7981,539.4014,149.25491 L537.1815,151.19734 Q535.51654,152.65417,482.01956,143.0596 L410.69025,130.26685 Q357.19324,120.67227,355.45447,112.47511 L353.13608,101.54556 Q351.39728,93.3484,357.00812,86.66883 L364.48923,77.76274 Q370.10007,71.083176,379.2624,66.91848 z" fill="url(#gradient_face34)" stroke="none" stroke-width="0"/>
<path d="M545,151 L558,128 L625,126 L631,130 L703,215 L709,235 L694,294 L680,300 L670,300 z" fill="none" stroke="none" stroke-width="0"/>
<linearGradient id="gradient_face35" x1="0" x2="1.01" y1="0" y2="1.01">
<stop offset="0%" stop-color="#BD88BDFF"/>
<stop offset="100%" stop-color="#FFED6FFF"/>
</linearGradient>
<path d="M554.0309,145.18373 L557.99384,138.17227 Q560.9661,132.91368,579.74255,132.3532 L604.7778,131.60588 Q623.5542,131.04538,624.78,131.8626 L626.4144,132.9522 Q627.6402,133.7694,648.9013,158.86932 L677.24945,192.33589 Q698.5106,217.43582,700.1013,222.73814 L702.2222,229.8079 Q703.8129,235.11023,699.5977,251.69006 L693.9774,273.7965 Q689.7622,290.37637,686.52563,291.76346 L682.21027,293.6129 Q678.9737,295,676.98114,295 L674.3244,295 Q672.33185,295,635.9499,251.63269 L587.4406,193.80962 Q551.0586,150.44232,554.0309,145.18373 z" fill="url(#gradient_face35)" stroke="none" stroke-width="0"/>
<path d="M680,300 L694,294 L717,304 L770,364 L770,436 L717,496 L691,507 L688,506 L680,500 z" fill="none" stroke="none" stroke-width="0"/>
<linearGradient id="gradient_face36" x1="0" x2="1.01" y1="0" y2="1.01">
<stop offset="0%" stop-color="#8DD3C7FF"/>
<stop offset="100%" stop-color="#8DD3C7FF"/>
</linearGradient>
<path d="M687.69574,302.14166 L691.29004,300.60126 Q693.9857,299.44595,699.9864,302.05493 L707.98724,305.53357 Q713.98785,308.14252,729.2915,325.4674 L749.69635,348.56723 Q765,365.8921,765,386.35684 L765,413.64316 Q765,434.1079,749.70154,451.42694 L729.3035,474.51898 Q714.00507,491.838,707.04065,494.7845 L697.75476,498.71317 Q690.7903,501.65964,690.6585,501.6157 L690.4827,501.5571 Q690.3509,501.51315,688.7456,500.3092 L686.6053,498.70395 Q685,497.5,685,439.2391 L685,361.5579 Q685,303.29697,687.69574,302.14166 z" fill="url(#gradient_face36)" stroke="none" stroke-width="0"/>
<path d="M688,506 L691,507 L713,567 L696,643 L628,678 L556,669 L555,665 z" fill="none" stroke="none" stroke-width="0"/>
<linearGradient id="gradient_face37" x1="0" x2="1.01" y1="0" y2="1.01">
<stop offset="0%" stop-color="#EBF7B6FF"/>
<stop offset="100%" stop-color="#FEFEB3FF"/>
</linearGradient>
<path d="M688.8953,511.5689 L687.88916,511.23352 Q687.1345,510.98196,693.33417,527.89 L701.6003,550.4341 Q707.7999,567.3421,702.94934,589.027 L696.48193,617.94025 Q691.63135,639.6251,672.2678,649.5917 L646.44977,662.8804 Q627.08624,672.84686,606.9663,670.33185 L580.1397,666.9786 Q560.0198,664.46356,560.15424,665.00134 L560.3335,665.7183 Q560.4679,666.2561,599.22253,619.9254 L650.8953,558.1511 Q689.64996,511.82043,688.8953,511.5689 z" fill="url(#gradient_face37)" stroke="none" stroke-width="0"/>
<path d="M552,676 L551,683 L509,761 L438,782 L367,735 L354,711 z" fill="none" stroke="none" stroke-width="0"/>
<linearGradient id="gradient_face38" x1="0" x2="1.01" y1="0" y2="1.01">
<stop offset="0%" stop-color="#D4D2CCFF"/>
<stop offset="100%" stop-color="#BFB9D8FF"/>
</linearGradient>
<path d="M546.1048,681.91125 L546.1455,681.6263 Q546.176,681.41254,533.9987,704.0275 L517.76227,734.1809 Q505.58493,756.79596,485.55444,762.72046 L458.84714,770.6198 Q438.81665,776.5443,418.4121,763.0371 L391.20605,745.02747 Q370.8015,731.52026,368.07092,726.4791 L364.4301,719.7576 Q361.6995,714.7165,417.01193,704.939 L490.7618,691.90247 Q546.0742,682.125,546.1048,681.91125 z" fill="url(#gradient_face38)" stroke="none" stroke-width="0"/>
<path d="M165,686 L167,620 L327,712 L298,735 L215,747 z" fill="none" stroke="none" stroke-width="0"/>
<linearGradient id="gradient_face39" x1="0" x2="1.01" y1="0" y2="1.01">
<stop offset="0%" stop-color="#DA9EA8FF"/>
<stop offset="100%" stop-color="#F78174FF"/>
</linearGradient>
<path d="M170.56157,667.5441 L171.23772,645.2309 Q171.74484,628.4959,215.65727,653.74554 L274.20718,687.41174 Q318.11963,712.66144,311.46866,717.93634 L302.6007,724.96954 Q295.94974,730.24445,272.28815,733.6654 L240.7394,738.2267 Q217.07782,741.6476,202.97081,724.4371 L184.16145,701.4896 Q170.05444,684.2791,170.56157,667.5441 z" fill="url(#gradient_face39)" stroke="none" stroke-width="0"/>
<path d="M62,433 L73,425 L132,587 L66,579 L20,515 z" fill="none" stroke="none" stroke-width="0"/>
<linearGradient id="gradient_face40" x1="0" x2="1.01" y1="0" y2="1.01">
<stop offset="0%" stop-color="#D68E8FFF"/>
<stop offset="100%" stop-color="#84B1CFFF"/>
</linearGradient>
<path d="M67.30623,435.32343 L69.17305,433.96573 Q70.573166,432.94745,86.755394,477.38 L108.3317,536.6234 Q124.51393,581.056,107.79364,579.0293 L85.49992,576.327 Q68.77963,574.30035,55.898438,556.37866 L38.723515,532.4831 Q25.84232,514.56146,37.861458,491.09552 L53.886974,459.80762 Q65.90611,436.34167,67.30623,435.32343 z" fill="url(#gradient_face40)" stroke="none" stroke-width="0"/>
<path d="M64,220 L121,217 L67,367 L66,367 L14,283 z" fill="none" stroke="none" stroke-width="0"/>
<linearGradient id="gradient_face41" x1="0" x2="1.01" y1="0" y2="1.01">
<stop offset="0%" stop-color="#8FB1C4FF"/>
<stop offset="100%" stop-color="#F9B562FF"/>
</linearGradient>
<path d="M80.68402,224.12881 L99.57654,223.13448 Q113.74593,222.38872,98.667915,264.2721 L78.56389,320.1166 Q63.485867,362,65.07569,362 L67.19546,362 Q68.78528,362,54.179955,338.40677 L34.706184,306.94916 Q20.100857,283.35593,34.02499,265.81152 L52.5905,242.41898 Q66.51463,224.87457,80.68402,224.12881 z" fill="url(#gradient_face41)" stroke="none" stroke-width="0"/>
<path d="M205,36 L299,73 L172,147 L163,112 z" fill="none" stroke="none" stroke-width="0"/>
<linearGradient id="gradient_face42" x1="0" x2="1.01" y1="0" y2="1.01">
<stop offset="0%" stop-color="#F6B367FF"/>
<stop offset="100%" stop-color="#B6DD6FFF"/>
</linearGradient>
<path d="M231.3478,51.744335 L263.47406,64.38978 Q287.56876,73.87386,253.85686,93.51701 L208.90767,119.70788 Q175.19579,139.35103,173.13824,131.3495 L170.39487,120.68079 Q168.33733,112.67926,180.01205,91.55356 L195.57837,63.385956 Q207.2531,42.26025,231.3478,51.744335 z" fill="url(#gradient_face42)" stroke="none" stroke-width="0"/>
<path d="M434,0 L461,0 L514,23 L520,74 L400,52 z" fill="none" stroke="none" stroke-width="0"/>
<linearGradient id="gradient_face43" x1="0" x2="1.01" y1="0" y2="1.01">
<stop offset="0%" stop-color="#C3D467FF"/>
<stop offset="100%" stop-color="#F9CDE4FF"/>
</linearGradient>
<path d="M443.68185,5 L452.9847,5 Q459.96185,5,474.78442,11.432431 L494.54782,20.009007 Q509.3704,26.441437,510.83228,38.86739 L512.78143,55.43532 Q514.2433,67.861275,482.46106,62.034527 L440.0847,54.265526 Q408.30243,48.438778,416.82312,35.407143 L428.18402,18.031633 Q436.7047,5,443.68185,5 z" fill="url(#gradient_face43)" stroke="none" stroke-width="0"/>
<path d="M631,130 L737,124 L703,215 z" fill="none" stroke="none" stroke-width="0"/>
<linearGradient id="gradient_face44" x1="0" x2="1.01" y1="0" y2="1.01">
<stop offset="0%" stop-color="#DED3B3FF"/>
<stop offset="100%" stop-color="#D7D3D7FF"/>
</linearGradient>
<path d="M667.8013,132.92491 L703.13513,130.92488 Q729.63556,129.42487,721.1354,152.1752 L709.8019,182.50899 Q701.30176,205.25934,683.3015,184.00902 L659.30115,155.67526 Q641.30084,134.42494,667.8013,132.92491 z" fill="url(#gradient_face44)" stroke="none" stroke-width="0"/>
<path d="M800,361 L800,439 L770,436 L770,364 z" fill="none" stroke="none" stroke-width="0"/>
<linearGradient id="gradient_face45" x1="0" x2="1.01" y1="0" y2="1.01">
<stop offset="0%" stop-color="#172109FF"/>
<stop offset="100%" stop-color="#172109FF"/>
</linearGradient>
<path d="M795,386.61 L795,413.39 Q795,433.47507,789,432.87506 L781,432.07507 Q775,431.47507,775,412.59003 L775,387.40997 Q775,368.52493,781,367.92493 L789,367.12494 Q795,366.52493,795,386.61 z" fill="url(#gradient_face45)" stroke="none" stroke-width="0"/>
<path d="M800,439 L800,521 L717,496 L770,436 z" fill="none" stroke="none" stroke-width="0"/>
<linearGradient id="gradient_face46" x1="0" x2="1.01" y1="0" y2="1.01">
<stop offset="0%" stop-color="#172109FF"/>
<stop offset="100%" stop-color="#172109FF"/>
</linearGradient>
<path d="M795,464.74908 L795,493.04794 Q795,514.2721,774.2738,508.02927 L746.63885,499.70547 Q725.91266,493.46265,739.75433,477.79288 L758.20984,456.89984 Q772.05145,441.23007,778.93604,441.91855 L788.1154,442.8365 Q795,443.52493,795,464.74908 z" fill="url(#gradient_face46)" stroke="none" stroke-width="0"/>
<path d="M800,521 L800,614 L713,567 L691,507 L717,496 z" fill="none" stroke="none" stroke-width="0"/>
<linearGradient id="gradient_face47" x1="0" x2="1.01" y1="0" y2="1.01">
<stop offset="0%" stop-color="#172109FF"/>
<stop offset="100%" stop-color="#172109FF"/>
</linearGradient>
<path d="M795,548.98584 L795,581.3459 Q795,605.6159,771.61273,592.9814 L740.42975,576.1354 Q717.04254,563.5009,711.1299,547.3755 L703.24634,525.8749 Q697.3336,509.74945,703.3194,507.21704 L711.30035,503.84048 Q717.2861,501.30804,740.6002,508.33038 L771.6858,517.69354 Q795,524.7159,795,548.98584 z" fill="url(#gradient_face47)" stroke="none" stroke-width="0"/>
<path d="M800,614 L800,728 L696,643 L713,567 z" fill="none" stroke="none" stroke-width="0"/>
<linearGradient id="gradient_face48" x1="0" x2="1.01" y1="0" y2="1.01">
<stop offset="0%" stop-color="#172109FF"/>
<stop offset="100%" stop-color="#172109FF"/>
</linearGradient>
<path d="M795,647.1241 L795,687.3137 Q795,717.45593,766.9659,694.5434 L729.587,663.99335 Q701.55286,641.0809,706.0181,621.1185 L711.9718,594.5021 Q716.437,574.53973,740.0059,587.2724 L771.4311,604.2492 Q795,616.9818,795,647.1241 z" fill="url(#gradient_face48)" stroke="none" stroke-width="0"/>
<path d="M800,800 L728,800 L628,678 L696,643 L800,728 z" fill="none" stroke="none" stroke-width="0"/>
<linearGradient id="gradient_face49" x1="0" x2="1.01" y1="0" y2="1.01">
<stop offset="0%" stop-color="#172109FF"/>
<stop offset="100%" stop-color="#172109FF"/>
</linearGradient>
<path d="M775.61,795 L749.75665,795 Q730.36664,795,701.9932,760.3844 L664.1619,714.2302 Q635.7885,679.6146,653.6641,670.414 L677.4982,658.1464 Q695.3738,648.94574,725.26166,673.3733 L765.1121,705.9434 Q795,730.371,795,749.7597 L795,775.6113 Q795,795,775.61,795 z" fill="url(#gradient_face49)" stroke="none" stroke-width="0"/>
<path d="M728,800 L614,800 L551,683 L552,676 L556,669 L628,678 z" fill="none" stroke="none" stroke-width="0"/>
<linearGradient id="gradient_face50" x1="0" x2="1.01" y1="0" y2="1.01">
<stop offset="0%" stop-color="#172109FF"/>
<stop offset="100%" stop-color="#172109FF"/>
</linearGradient>
<path d="M687.3016,795 L647.1215,795 Q616.98645,795,598.74524,761.1235 L574.42365,715.9548 Q556.18243,682.07825,556.37213,680.75037 L556.62506,678.97986 Q556.81476,677.652,557.3766,676.6688 L558.1256,675.358 Q558.68744,674.3748,578.7008,676.8765 L605.3853,680.2121 Q625.3987,682.71375,653.0101,716.3996 L689.82526,761.31415 Q717.4366,795,687.3016,795 z" fill="url(#gradient_face50)" stroke="none" stroke-width="0"/>
<path d="M614,800 L521,800 L509,761 L551,683 z" fill="none" stroke="none" stroke-width="0"/>
<linearGradient id="gradient_face51" x1="0" x2="1.01" y1="0" y2="1.01">
<stop offset="0%" stop-color="#172109FF"/>
<stop offset="100%" stop-color="#172109FF"/>
</linearGradient>
<path d="M581.3481,795 L548.9737,795 Q524.6929,795,521.6032,784.9586 L517.4837,771.5701 Q514.39404,761.5288,525.37585,741.13403 L540.0182,713.94104 Q551,693.5463,567.3887,723.9824 L589.24023,764.5639 Q605.6289,795,581.3481,795 z" fill="url(#gradient_face51)" stroke="none" stroke-width="0"/>
<path d="M521,800 L439,800 L438,782 L509,761 z" fill="none" stroke="none" stroke-width="0"/>
<linearGradient id="gradient_face52" x1="0" x2="1.01" y1="0" y2="1.01">
<stop offset="0%" stop-color="#172109FF"/>
<stop offset="100%" stop-color="#172109FF"/>
</linearGradient>
<path d="M493.0801,795 L464.88,795 Q443.72992,795,443.57446,792.2018 L443.3672,788.4708 Q443.21173,785.6726,461.9509,780.13007 L486.9364,772.74 Q505.67557,767.1974,508.24194,775.5382 L511.66382,786.65924 Q514.2302,795,493.0801,795 z" fill="url(#gradient_face52)" stroke="none" stroke-width="0"/>
<path d="M439,800 L361,800 L367,735 L438,782 z" fill="none" stroke="none" stroke-width="0"/>
<linearGradient id="gradient_face53" x1="0" x2="1.01" y1="0" y2="1.01">
<stop offset="0%" stop-color="#172109FF"/>
<stop offset="100%" stop-color="#172109FF"/>
</linearGradient>
<path d="M413.54498,795 L386.6523,795 Q366.4828,795,367.9011,779.6351 L369.79218,759.14844 Q371.21048,743.7835,389.7914,756.08356 L414.566,772.48364 Q433.14694,784.7837,433.3172,787.8486 L433.54425,791.9351 Q433.7145,795,413.54498,795 z" fill="url(#gradient_face53)" stroke="none" stroke-width="0"/>
<path d="M361,800 L279,800 L298,735 L327,712 L348,706 L354,711 L367,735 z" fill="none" stroke="none" stroke-width="0"/>
<linearGradient id="gradient_face54" x1="0" x2="1.01" y1="0" y2="1.01">
<stop offset="0%" stop-color="#172109FF"/>
<stop offset="100%" stop-color="#172109FF"/>
</linearGradient>
<path d="M335.20944,795 L306.9016,795 Q285.67078,795,290.67545,777.8788 L297.34833,755.0505 Q302.353,737.92926,310.4457,731.5109 L321.236,722.9531 Q329.3287,716.5347,334.5793,715.03455 L341.58014,713.0343 Q346.83075,711.5342,347.79984,712.34174 L349.09198,713.4185 Q350.0611,714.22614,353.60733,720.773 L358.33566,729.50226 Q361.8819,736.04913,360.24942,753.73444 L358.07275,777.31476 Q356.44028,795,335.20944,795 z" fill="url(#gradient_face54)" stroke="none" stroke-width="0"/>
<path d="M279,800 L186,800 L215,747 L298,735 z" fill="none" stroke="none" stroke-width="0"/>
<linearGradient id="gradient_face55" x1="0" x2="1.01" y1="0" y2="1.01">
<stop offset="0%" stop-color="#172109FF"/>
<stop offset="100%" stop-color="#172109FF"/>
</linearGradient>
<path d="M251.00723,795 L218.68047,795 Q194.4354,795,201.561,781.97736 L211.0618,764.61383 Q218.18741,751.5912,240.03688,748.4322 L269.16953,744.2203 Q291.019,741.0613,286.289,757.2429 L279.98233,778.81836 Q275.25232,795,251.00723,795 z" fill="url(#gradient_face55)" stroke="none" stroke-width="0"/>
<path d="M186,800 L72,800 L165,686 L215,747 z" fill="none" stroke="none" stroke-width="0"/>
<linearGradient id="gradient_face56" x1="0" x2="1.01" y1="0" y2="1.01">
<stop offset="0%" stop-color="#172109FF"/>
<stop offset="100%" stop-color="#172109FF"/>
</linearGradient>
<path d="M152.88492,795 L112.68307,795 Q82.531685,795,107.27493,764.66956 L140.26593,724.229 Q165.00919,693.89856,178.20464,709.997 L195.79857,731.4616 Q208.99402,747.56006,201.2067,761.79205 L190.82361,780.768 Q183.0363,795,152.88492,795 z" fill="url(#gradient_face56)" stroke="none" stroke-width="0"/>
<path d="M0,800 L0,728 L154,602 L160,603 L167,620 L165,686 L72,800 z" fill="none" stroke="none" stroke-width="0"/>
<linearGradient id="gradient_face57" x1="0" x2="1.01" y1="0" y2="1.01">
<stop offset="0%" stop-color="#172109FF"/>
<stop offset="100%" stop-color="#172109FF"/>
</linearGradient>
<path d="M5,775.61084 L5,749.7586 Q5,730.3694,50.12382,693.4499 L110.28892,644.22394 Q155.41273,607.30444,155.71951,607.3555 L156.12852,607.4237 Q156.4353,607.47485,158.09569,611.50726 L160.30956,616.8837 Q161.96994,620.91614,161.39507,639.8873 L160.62854,665.18225 Q160.05367,684.15344,132.92543,717.4074 L96.75445,761.74603 Q69.62621,795,50.238346,795 L24.387863,795 Q5,795,5,775.61084 z" fill="url(#gradient_face57)" stroke="none" stroke-width="0"/>
<path d="M0,728 L0,614 L66,579 L132,587 L154,602 z" fill="none" stroke="none" stroke-width="0"/>
<linearGradient id="gradient_face58" x1="0" x2="1.01" y1="0" y2="1.01">
<stop offset="0%" stop-color="#172109FF"/>
<stop offset="100%" stop-color="#172109FF"/>
</linearGradient>
<path d="M5,687.3166 L5,647.14026 Q5,617.00806,23.58685,607.15137 L48.369316,594.00916 Q66.95616,584.15247,85.92615,586.4519 L111.21946,589.51776 Q130.18945,591.81714,134.83023,594.9813 L141.01794,599.2002 Q145.65872,602.3644,103.46111,636.8897 L47.197617,682.92346 Q5,717.4488,5,687.3166 z" fill="url(#gradient_face58)" stroke="none" stroke-width="0"/>
<path d="M0,614 L0,521 L20,515 L66,579 z" fill="none" stroke="none" stroke-width="0"/>
<linearGradient id="gradient_face59" x1="0" x2="1.01" y1="0" y2="1.01">
<stop offset="0%" stop-color="#172109FF"/>
<stop offset="100%" stop-color="#172109FF"/>
</linearGradient>
<path d="M5,581.3983 L5,549.0108 Q5,524.72015,8.906346,523.5483 L14.114808,521.9857 Q18.021154,520.8138,30.193771,537.74963 L46.423927,560.3307 Q58.596546,577.26654,42.517582,585.7933 L21.078964,597.16223 Q5,605.6889,5,581.3983 z" fill="url(#gradient_face59)" stroke="none" stroke-width="0"/>
<path d="M0,521 L0,439 L62,433 L20,515 z" fill="none" stroke="none" stroke-width="0"/>
<linearGradient id="gradient_face60" x1="0" x2="1.01" y1="0" y2="1.01">
<stop offset="0%" stop-color="#172109FF"/>
<stop offset="100%" stop-color="#172109FF"/>
</linearGradient>
<path d="M5,493.05774 L5,464.7616 Q5,443.5395,19.514658,442.13486 L38.86754,440.262 Q53.382195,438.85733,42.323997,460.44714 L27.579735,489.23358 Q16.521538,510.8234,13.065077,511.86032 L8.456461,513.2429 Q5,514.27985,5,493.05774 z" fill="url(#gradient_face60)" stroke="none" stroke-width="0"/>
<path d="M0,439 L0,361 L66,367 L67,367 L88,401 L73,425 L62,433 z" fill="none" stroke="none" stroke-width="0"/>
<linearGradient id="gradient_face61" x1="0" x2="1.01" y1="0" y2="1.01">
<stop offset="0%" stop-color="#172109FF"/>
<stop offset="100%" stop-color="#172109FF"/>
</linearGradient>
<path d="M5,413.38748 L5,386.58044 Q5,366.47516,23.231958,368.13263 L47.541237,370.34256 Q65.77319,372,65.30466,372 L64.67994,372 Q64.2114,372,69.58204,380.6953 L76.74288,392.28906 Q82.11352,400.98438,78.261765,407.1472 L73.12608,415.3643 Q69.27433,421.5271,66.540504,423.51532 L62.895397,426.16632 Q60.161568,428.15454,43.6131,429.756 L21.548471,431.8913 Q5,433.49277,5,413.38748 z" fill="url(#gradient_face61)" stroke="none" stroke-width="0"/>
<path d="M0,361 L0,279 L14,283 L66,367 z" fill="none" stroke="none" stroke-width="0"/>
<linearGradient id="gradient_face62" x1="0" x2="1.01" y1="0" y2="1.01">
<stop offset="0%" stop-color="#172109FF"/>
<stop offset="100%" stop-color="#172109FF"/>
</linearGradient>
<path d="M5,335.19235 L5,306.87024 Q5,285.62866,6.7300105,286.12292 L9.036692,286.78198 Q10.766702,287.27628,24.479332,309.42746 L42.762836,338.96234 Q56.475468,361.11353,41.032825,359.70963 L20.44264,357.8378 Q5,356.43393,5,335.19235 z" fill="url(#gradient_face62)" stroke="none" stroke-width="0"/>
<path d="M0,279 L0,186 L64,220 L14,283 z" fill="none" stroke="none" stroke-width="0"/>
<linearGradient id="gradient_face63" x1="0" x2="1.01" y1="0" y2="1.01">
<stop offset="0%" stop-color="#172109FF"/>
<stop offset="100%" stop-color="#172109FF"/>
</linearGradient>
<path d="M5,250.95535 L5,218.59116 Q5,194.31802,20.404713,202.50177 L40.94433,213.41345 Q56.34904,221.5972,43.092556,238.30037 L25.417248,260.57126 Q12.160766,277.2744,10.012536,276.66064 L7.1482296,275.8423 Q5,275.2285,5,250.95535 z" fill="url(#gradient_face63)" stroke="none" stroke-width="0"/>
<path d="M0,186 L0,72 L153,198 L121,217 L64,220 z" fill="none" stroke="none" stroke-width="0"/>
<linearGradient id="gradient_face64" x1="0" x2="1.01" y1="0" y2="1.01">
<stop offset="0%" stop-color="#172109FF"/>
<stop offset="100%" stop-color="#172109FF"/>
</linearGradient>
<path d="M5,152.8746 L5,112.71478 Q5,82.59492,46.79807,117.01685 L102.52883,162.91278 Q144.3269,197.33472,136.88086,201.7558 L126.952805,207.65059 Q119.50677,212.07167,103.1912,212.93039 L81.43711,214.07533 Q65.12155,214.93405,47.085083,205.35217 L23.036465,192.57635 Q5,182.99448,5,152.8746 z" fill="url(#gradient_face64)" stroke="none" stroke-width="0"/>
<path d="M0,0 L72,0 L163,112 L172,147 L157,197 L153,198 L0,72 z" fill="none" stroke="none" stroke-width="0"/>
<linearGradient id="gradient_face65" x1="0" x2="1.01" y1="0" y2="1.01">
<stop offset="0%" stop-color="#172109FF"/>
<stop offset="100%" stop-color="#172109FF"/>
</linearGradient>
<path d="M24.386044,5 L50.234104,5 Q69.62015,5,96.26306,37.79128 L131.78696,81.512985 Q158.42987,114.30427,160.94415,124.08203 L164.29652,137.11905 Q166.8108,146.8968,162.676,160.67949 L157.16292,179.0564 Q153.02812,192.83908,153.38951,192.74873 L153.87135,192.62828 Q154.23274,192.53793,109.46292,155.66867 L49.769825,106.50964 Q5,69.64038,5,50.248264 L5,24.392113 Q5,5,24.386044,5 z" fill="url(#gradient_face65)" stroke="none" stroke-width="0"/>
<path d="M72,0 L186,0 L205,36 L163,112 z" fill="none" stroke="none" stroke-width="0"/>
<linearGradient id="gradient_face66" x1="0" x2="1.01" y1="0" y2="1.01">
<stop offset="0%" stop-color="#172109FF"/>
<stop offset="100%" stop-color="#172109FF"/>
</linearGradient>
<path d="M112.64897,5 L152.84113,5 Q182.98524,5,187.88492,14.283601 L194.41782,26.661734 Q199.3175,35.945335,188.18462,56.09055 L173.34077,82.950836 Q162.2079,103.096054,138.29698,73.66724 L106.415764,34.428814 Q82.50485,5,112.64897,5 z" fill="url(#gradient_face66)" stroke="none" stroke-width="0"/>
<path d="M186,0 L279,0 L301,73 L299,73 L205,36 z" fill="none" stroke="none" stroke-width="0"/>
<linearGradient id="gradient_face67" x1="0" x2="1.01" y1="0" y2="1.01">
<stop offset="0%" stop-color="#172109FF"/>
<stop offset="100%" stop-color="#172109FF"/>
</linearGradient>
<path d="M218.5902,5 L250.98706,5 Q275.28473,5,280.98062,23.9 L288.57513,49.1 Q294.27103,68,295.9743,68 L298.24533,68 Q299.9486,68,272.531,57.207954 L235.97415,42.81856 Q208.55653,32.02652,204.27733,23.918562 L198.57173,13.107955 Q194.29254,5,218.5902,5 z" fill="url(#gradient_face67)" stroke="none" stroke-width="0"/>
<path d="M279,0 L361,0 L367,67 L346,92 L301,73 z" fill="none" stroke="none" stroke-width="0"/>
<linearGradient id="gradient_face68" x1="0" x2="1.01" y1="0" y2="1.01">
<stop offset="0%" stop-color="#172109FF"/>
<stop offset="100%" stop-color="#172109FF"/>
</linearGradient>
<path d="M306.9386,5 L335.2181,5 Q356.42776,5,358.04977,23.112694 L360.2125,47.26295 Q361.83453,65.37565,356.6477,71.55044 L349.73193,79.7835 Q344.5451,85.9583,332.7144,80.963104 L316.9401,74.30285 Q305.10938,69.307655,299.29526,50.015358 L291.5431,24.292295 Q285.72897,5,306.9386,5 z" fill="url(#gradient_face68)" stroke="none" stroke-width="0"/>
<path d="M361,0 L434,0 L400,52 L367,67 z" fill="none" stroke="none" stroke-width="0"/>
<linearGradient id="gradient_face69" x1="0" x2="1.01" y1="0" y2="1.01">
<stop offset="0%" stop-color="#172109FF"/>
<stop offset="100%" stop-color="#172109FF"/>
</linearGradient>
<path d="M383.9545,5 L407.2701,5 Q424.75684,5,416.31265,17.91465 L405.0537,35.134182 Q396.60953,48.048832,389.03198,51.493168 L378.9286,56.08562 Q371.35104,59.529957,369.88608,43.17097 L367.93274,21.358988 Q366.46777,5,383.9545,5 z" fill="url(#gradient_face69)" stroke="none" stroke-width="0"/>
<path d="M461,0 L521,0 L514,23 z" fill="none" stroke="none" stroke-width="0"/>
<linearGradient id="gradient_face70" x1="0" x2="1.01" y1="0" y2="1.01">
<stop offset="0%" stop-color="#172109FF"/>
<stop offset="100%" stop-color="#172109FF"/>
</linearGradient>
<path d="M493.83267,5 L505.50076,5 Q514.25183,5,513.23083,8.354573 L511.8696,12.827338 Q510.84863,16.181911,503.11853,12.827338 L492.8117,8.354573 Q485.0816,5,493.83267,5 z" fill="url(#gradient_face70)" stroke="none" stroke-width="0"/>
<path d="M521,0 L614,0 L553,113 L520,74 L514,23 z" fill="none" stroke="none" stroke-width="0"/>
<linearGradient id="gradient_face71" x1="0" x2="1.01" y1="0" y2="1.01">
<stop offset="0%" stop-color="#172109FF"/>
<stop offset="100%" stop-color="#172109FF"/>
</linearGradient>
<path d="M548.97894,5 L581.3446,5 Q605.6189,5,589.55786,34.752384 L568.1431,74.42223 Q552.08215,104.17462,543.8944,94.49824 L532.9775,81.5964 Q524.7898,71.92002,523.0792,57.380478 L520.7985,37.994423 Q519.088,23.454884,520.773,17.918419 L523.0197,10.536465 Q524.7047,5,548.97894,5 z" fill="url(#gradient_face71)" stroke="none" stroke-width="0"/>
<path d="M614,0 L728,0 L625,126 L558,128 L553,113 z" fill="none" stroke="none" stroke-width="0"/>
<linearGradient id="gradient_face72" x1="0" x2="1.01" y1="0" y2="1.01">
<stop offset="0%" stop-color="#172109FF"/>
<stop offset="100%" stop-color="#172109FF"/>
</linearGradient>
<path d="M647.12445,5 L687.3132,5 Q717.45465,5,688.9898,39.821075 L651.0367,86.249176 Q622.57184,121.07025,604.27057,121.61656 L579.86884,122.34497 Q561.56757,122.89128,560.62555,120.06529 L559.36957,116.29732 Q558.42755,113.47133,575.99414,80.92993 L599.4163,37.5414 Q616.9829,5,647.12445,5 z" fill="url(#gradient_face72)" stroke="none" stroke-width="0"/>
<path d="M800,0 L800,72 L737,124 L631,130 L625,126 L728,0 z" fill="none" stroke="none" stroke-width="0"/>
<linearGradient id="gradient_face73" x1="0" x2="1.01" y1="0" y2="1.01">
<stop offset="0%" stop-color="#172109FF"/>
<stop offset="100%" stop-color="#172109FF"/>
</linearGradient>
<path d="M795,24.393133 L795,50.25064 Q795,69.643776,777.02435,84.48083 L753.0568,104.26356 Q735.0811,119.10061,704.2721,120.84452 L663.19336,123.16973 Q632.38434,124.913635,632.3769,124.90868 L632.367,124.902084 Q632.35956,124.89713,661.76294,88.92799 L700.96735,40.96914 Q730.3707,5,749.7595,5 L775.6112,5 Q795,5,795,24.393133 z" fill="url(#gradient_face73)" stroke="none" stroke-width="0"/>
<path d="M800,72 L800,186 L709,235 L703,215 L737,124 z" fill="none" stroke="none" stroke-width="0"/>
<linearGradient id="gradient_face74" x1="0" x2="1.01" y1="0" y2="1.01">
<stop offset="0%" stop-color="#172109FF"/>
<stop offset="100%" stop-color="#172109FF"/>
</linearGradient>
<path d="M795,112.73119 L795,152.89253 Q795,183.01353,770.1082,196.41678 L736.91925,214.2878 Q712.02747,227.69104,710.90094,223.93604 L709.399,218.92935 Q708.27246,215.17435,718.1553,188.72324 L731.3324,153.45508 Q741.2152,127.00397,757.35065,113.68584 L778.86456,95.92833 Q795,82.61019,795,112.73119 z" fill="url(#gradient_face74)" stroke="none" stroke-width="0"/>
<path d="M800,186 L800,279 L717,304 L694,294 L709,235 z" fill="none" stroke="none" stroke-width="0"/>
<linearGradient id="gradient_face75" x1="0" x2="1.01" y1="0" y2="1.01">
<stop offset="0%" stop-color="#172109FF"/>
<stop offset="100%" stop-color="#172109FF"/>
</linearGradient>
<path d="M795,218.645 L795,251.01022 Q795,275.28415,771.69385,282.30405 L740.619,291.66397 Q717.31287,298.68387,712.0871,296.4118 L705.11945,293.38242 Q699.89374,291.11035,703.917,275.28552 L709.2813,254.18575 Q713.30457,238.36092,737.81323,225.16397 L770.4914,207.56804 Q795,194.37108,795,218.645 z" fill="url(#gradient_face75)" stroke="none" stroke-width="0"/>
<path d="M800,279 L800,361 L770,364 L717,304 z" fill="none" stroke="none" stroke-width="0"/>
<linearGradient id="gradient_face76" x1="0" x2="1.01" y1="0" y2="1.01">
<stop offset="0%" stop-color="#172109FF"/>
<stop offset="100%" stop-color="#172109FF"/>
</linearGradient>
<path d="M795,306.95206 L795,335.25092 Q795,356.47507,788.1154,357.1635 L778.93604,358.08145 Q772.05145,358.76993,758.20984,343.10016 L739.75433,322.20712 Q725.91266,306.53735,746.63885,300.29453 L774.2738,291.97073 Q795,285.7279,795,306.95206 z" fill="url(#gradient_face76)" stroke="none" stroke-width="0"/>
<circle cx="400" cy="400" fill="none" r="0" stroke="none" stroke-width="0"/>
<circle cx="407" cy="406" fill="none" r="0" stroke="none" stroke-width="0"/>
<circle cx="403" cy="418" fill="none" r="0" stroke="none" stroke-width="0"/>
<circle cx="387" cy="423" fill="none" r="0" stroke="none" stroke-width="0"/>
<circle cx="367" cy="412" fill="none" r="0" stroke="none" stroke-width="0"/>
<circle cx="358" cy="385" fill="none" r="0" stroke="none" stroke-width="0"/>
<circle cx="373" cy="354" fill="none" r="0" stroke="none" stroke-width="0"/>
<circle cx="411" cy="339" fill="none" r="0" stroke="none" stroke-width="0"/>
<circle cx="454" cy="354" fill="none" r="0" stroke="none" stroke-width="0"/>
<circle cx="480" cy="400" fill="none" r="0" stroke="none" stroke-width="0"/>
<circle cx="468" cy="457" fill="none" r="0" stroke="none" stroke-width="0"/>
<circle cx="417" cy="496" fill="none" r="0" stroke="none" stroke-width="0"/>
<circle cx="347" cy="492" fill="none" r="0" stroke="none" stroke-width="0"/>
<circle cx="291" cy="440" fill="none" r="0" stroke="none" stroke-width="0"/>
<circle cx="283" cy="357" fill="none" r="0" stroke="none" stroke-width="0"/>
<circle cx="333" cy="285" fill="none" r="0" stroke="none" stroke-width="0"/>
<circle cx="425" cy="260" fill="none" r="0" stroke="none" stroke-width="0"/>
<circle cx="516" cy="303" fill="none" r="0" stroke="none" stroke-width="0"/>
<circle cx="560" cy="400" fill="none" r="0" stroke="none" stroke-width="0"/>
<circle cx="529" cy="509" fill="none" r="0" stroke="none" stroke-width="0"/>
<circle cx="431" cy="575" fill="none" r="0" stroke="none" stroke-width="0"/>
<circle cx="307" cy="562" fill="none" r="0" stroke="none" stroke-width="0"/>
<circle cx="216" cy="467" fill="none" r="0" stroke="none" stroke-width="0"/>
<circle cx="208" cy="330" fill="none" r="0" stroke="none" stroke-width="0"/>
<circle cx="293" cy="215" fill="none" r="0" stroke="none" stroke-width="0"/>
<circle cx="439" cy="181" fill="none" r="0" stroke="none" stroke-width="0"/>
<circle cx="577" cy="251" fill="none" r="0" stroke="none" stroke-width="0"/>
<circle cx="640" cy="400" fill="none" r="0" stroke="none" stroke-width="0"/>
<circle cx="591" cy="560" fill="none" r="0" stroke="none" stroke-width="0"/>
<circle cx="445" cy="654" fill="none" r="0" stroke="none" stroke-width="0"/>
<circle cx="267" cy="631" fill="none" r="0" stroke="none" stroke-width="0"/>
<circle cx="141" cy="494" fill="none" r="0" stroke="none" stroke-width="0"/>
<circle cx="133" cy="303" fill="none" r="0" stroke="none" stroke-width="0"/>
<circle cx="253" cy="146" fill="none" r="0" stroke="none" stroke-width="0"/>
<circle cx="452" cy="102" fill="none" r="0" stroke="none" stroke-width="0"/>
<circle cx="638" cy="200" fill="none" r="0" stroke="none" stroke-width="0"/>
<circle cx="720" cy="400" fill="none" r="0" stroke="none" stroke-width="0"/>
<circle cx="652" cy="611" fill="none" r="0" stroke="none" stroke-width="0"/>
<circle cx="459" cy="733" fill="none" r="0" stroke="none" stroke-width="0"/>
<circle cx="227" cy="700" fill="none" r="0" stroke="none" stroke-width="0"/>
<circle cx="66" cy="522" fill="none" r="0" stroke="none" stroke-width="0"/>
<circle cx="58" cy="275" fill="none" r="0" stroke="none" stroke-width="0"/>
<circle cx="213" cy="77" fill="none" r="0" stroke="none" stroke-width="0"/>
<circle cx="466" cy="24" fill="none" r="0" stroke="none" stroke-width="0"/>
<circle cx="700" cy="149" fill="none" r="0" stroke="none" stroke-width="0"/>
<circle cx="820" cy="400" fill="none" r="0" stroke="none" stroke-width="0"/>
<circle cx="812" cy="482" fill="none" r="0" stroke="none" stroke-width="0"/>
<circle cx="788" cy="561" fill="none" r="0" stroke="none" stroke-width="0"/>
<circle cx="749" cy="633" fill="none" r="0" stroke="none" stroke-width="0"/>
<circle cx="697" cy="697" fill="none" r="0" stroke="none" stroke-width="0"/>
<circle cx="633" cy="749" fill="none" r="0" stroke="none" stroke-width="0"/>
<circle cx="561" cy="788" fill="none" r="0" stroke="none" stroke-width="0"/>
<circle cx="482" cy="812" fill="none" r="0" stroke="none" stroke-width="0"/>
<circle cx="400" cy="820" fill="none" r="0" stroke="none" stroke-width="0"/>
<circle cx="318" cy="812" fill="none" r="0" stroke="none" stroke-width="0"/>
<circle cx="239" cy="788" fill="none" r="0" stroke="none" stroke-width="0"/>
<circle cx="167" cy="749" fill="none" r="0" stroke="none" stroke-width="0"/>
<circle cx="103" cy="697" fill="none" r="0" stroke="none" stroke-width="0"/>
<circle cx="51" cy="633" fill="none" r="0" stroke="none" stroke-width="0"/>
<circle cx="12" cy="561" fill="none" r="0" stroke="none" stroke-width="0"/>
<circle cx="-12" cy="482" fill="none" r="0" stroke="none" stroke-width="0"/>
<circle cx="-20" cy="400" fill="none" r="0" stroke="none" stroke-width="0"/>
<circle cx="-12" cy="318" fill="none" r="0" stroke="none" stroke-width="0"/>
<circle cx="12" cy="239" fill="none" r="0" stroke="none" stroke-width="0"/>
<circle cx="51" cy="167" fill="none" r="0" stroke="none" stroke-width="0"/>
<circle cx="103" cy="103" fill="none" r="0" stroke="none" stroke-width="0"/>
<circle cx="167" cy="51" fill="none" r="0" stroke="none" stroke-width="0"/>
<circle cx="239" cy="12" fill="none" r="0" stroke="none" stroke-width="0"/>
<circle cx="318" cy="-12" fill="none" r="0" stroke="none" stroke-width="0"/>
<circle cx="400" cy="-20" fill="none" r="0" stroke="none" stroke-width="0"/>
<circle cx="482" cy="-12" fill="none" r="0" stroke="none" stroke-width="0"/>
<circle cx="561" cy="12" fill="none" r="0" stroke="none" stroke-width="0"/>
<circle cx="633" cy="51" fill="none" r="0" stroke="none" stroke-width="0"/>
<circle cx="697" cy="103" fill="none" r="0" stroke="none" stroke-width="0"/>
<circle cx="749" cy="167" fill="none" r="0" stroke="none" stroke-width="0"/>
<circle cx="788" cy="239" fill="none" r="0" stroke="none" stroke-width="0"/>
<circle cx="812" cy="318" fill="none" r="0" stroke="none" stroke-width="0"/>
<circle cx="438" cy="782" fill="none" r="0" stroke="none" stroke-width="0"/>
<circle cx="509" cy="761" fill="none" r="0" stroke="none" stroke-width="0"/>
<circle cx="215" cy="747" fill="none" r="0" stroke="none" stroke-width="0"/>
<circle cx="298" cy="735" fill="none" r="0" stroke="none" stroke-width="0"/>
<circle cx="367" cy="735" fill="none" r="0" stroke="none" stroke-width="0"/>
<circle cx="165" cy="686" fill="none" r="0" stroke="none" stroke-width="0"/>
<circle cx="327" cy="712" fill="none" r="0" stroke="none" stroke-width="0"/>
<circle cx="628" cy="678" fill="none" r="0" stroke="none" stroke-width="0"/>
<circle cx="354" cy="711" fill="none" r="0" stroke="none" stroke-width="0"/>
<circle cx="348" cy="706" fill="none" r="0" stroke="none" stroke-width="0"/>
<circle cx="696" cy="643" fill="none" r="0" stroke="none" stroke-width="0"/>
<circle cx="551" cy="683" fill="none" r="0" stroke="none" stroke-width="0"/>
<circle cx="552" cy="676" fill="none" r="0" stroke="none" stroke-width="0"/>
<circle cx="556" cy="669" fill="none" r="0" stroke="none" stroke-width="0"/>
<circle cx="555" cy="665" fill="none" r="0" stroke="none" stroke-width="0"/>
<circle cx="356" cy="637" fill="none" r="0" stroke="none" stroke-width="0"/>
<circle cx="362" cy="628" fill="none" r="0" stroke="none" stroke-width="0"/>
<circle cx="66" cy="579" fill="none" r="0" stroke="none" stroke-width="0"/>
<circle cx="167" cy="620" fill="none" r="0" stroke="none" stroke-width="0"/>
<circle cx="514" cy="601" fill="none" r="0" stroke="none" stroke-width="0"/>
<circle cx="513" cy="590" fill="none" r="0" stroke="none" stroke-width="0"/>
<circle cx="132" cy="587" fill="none" r="0" stroke="none" stroke-width="0"/>
<circle cx="154" cy="602" fill="none" r="0" stroke="none" stroke-width="0"/>
<circle cx="160" cy="603" fill="none" r="0" stroke="none" stroke-width="0"/>
<circle cx="713" cy="567" fill="none" r="0" stroke="none" stroke-width="0"/>
<circle cx="371" cy="552" fill="none" r="0" stroke="none" stroke-width="0"/>
<circle cx="379" cy="544" fill="none" r="0" stroke="none" stroke-width="0"/>
<circle cx="20" cy="515" fill="none" r="0" stroke="none" stroke-width="0"/>
<circle cx="217" cy="556" fill="none" r="0" stroke="none" stroke-width="0"/>
<circle cx="207" cy="559" fill="none" r="0" stroke="none" stroke-width="0"/>
<circle cx="470" cy="527" fill="none" r="0" stroke="none" stroke-width="0"/>
<circle cx="472" cy="515" fill="none" r="0" stroke="none" stroke-width="0"/>
<circle cx="284" cy="502" fill="none" r="0" stroke="none" stroke-width="0"/>
<circle cx="272" cy="504" fill="none" r="0" stroke="none" stroke-width="0"/>
<circle cx="383" cy="467" fill="none" r="0" stroke="none" stroke-width="0"/>
<circle cx="407" cy="457" fill="none" r="0" stroke="none" stroke-width="0"/>
<circle cx="425" cy="454" fill="none" r="0" stroke="none" stroke-width="0"/>
<circle cx="358" cy="453" fill="none" r="0" stroke="none" stroke-width="0"/>
<circle cx="337" cy="447" fill="none" r="0" stroke="none" stroke-width="0"/>
<circle cx="717" cy="496" fill="none" r="0" stroke="none" stroke-width="0"/>
<circle cx="398" cy="409" fill="none" r="0" stroke="none" stroke-width="0"/>
<circle cx="392" cy="411" fill="none" r="0" stroke="none" stroke-width="0"/>
<circle cx="691" cy="507" fill="none" r="0" stroke="none" stroke-width="0"/>
<circle cx="688" cy="506" fill="none" r="0" stroke="none" stroke-width="0"/>
<circle cx="608" cy="478" fill="none" r="0" stroke="none" stroke-width="0"/>
<circle cx="680" cy="500" fill="none" r="0" stroke="none" stroke-width="0"/>
<circle cx="527" cy="449" fill="none" r="0" stroke="none" stroke-width="0"/>
<circle cx="600" cy="470" fill="none" r="0" stroke="none" stroke-width="0"/>
<circle cx="383" cy="406" fill="none" r="0" stroke="none" stroke-width="0"/>
<circle cx="520" cy="438" fill="none" r="0" stroke="none" stroke-width="0"/>
<circle cx="444" cy="424" fill="none" r="0" stroke="none" stroke-width="0"/>
<circle cx="445" cy="423" fill="none" r="0" stroke="none" stroke-width="0"/>
<circle cx="770" cy="436" fill="none" r="0" stroke="none" stroke-width="0"/>
<circle cx="379" cy="394" fill="none" r="0" stroke="none" stroke-width="0"/>
<circle cx="323" cy="410" fill="none" r="0" stroke="none" stroke-width="0"/>
<circle cx="442" cy="391" fill="none" r="0" stroke="none" stroke-width="0"/>
<circle cx="384" cy="378" fill="none" r="0" stroke="none" stroke-width="0"/>
<circle cx="312" cy="396" fill="none" r="0" stroke="none" stroke-width="0"/>
<circle cx="62" cy="433" fill="none" r="0" stroke="none" stroke-width="0"/>
<circle cx="426" cy="376" fill="none" r="0" stroke="none" stroke-width="0"/>
<circle cx="236" cy="404" fill="none" r="0" stroke="none" stroke-width="0"/>
<circle cx="401" cy="369" fill="none" r="0" stroke="none" stroke-width="0"/>
<circle cx="423" cy="373" fill="none" r="0" stroke="none" stroke-width="0"/>
<circle cx="73" cy="425" fill="none" r="0" stroke="none" stroke-width="0"/>
<circle cx="226" cy="398" fill="none" r="0" stroke="none" stroke-width="0"/>
<circle cx="150" cy="402" fill="none" r="0" stroke="none" stroke-width="0"/>
<circle cx="328" cy="351" fill="none" r="0" stroke="none" stroke-width="0"/>
<circle cx="520" cy="360" fill="none" r="0" stroke="none" stroke-width="0"/>
<circle cx="140" cy="398" fill="none" r="0" stroke="none" stroke-width="0"/>
<circle cx="507" cy="355" fill="none" r="0" stroke="none" stroke-width="0"/>
<circle cx="770" cy="364" fill="none" r="0" stroke="none" stroke-width="0"/>
<circle cx="88" cy="401" fill="none" r="0" stroke="none" stroke-width="0"/>
<circle cx="327" cy="334" fill="none" r="0" stroke="none" stroke-width="0"/>
<circle cx="66" cy="367" fill="none" r="0" stroke="none" stroke-width="0"/>
<circle cx="67" cy="367" fill="none" r="0" stroke="none" stroke-width="0"/>
<circle cx="376" cy="306" fill="none" r="0" stroke="none" stroke-width="0"/>
<circle cx="448" cy="305" fill="none" r="0" stroke="none" stroke-width="0"/>
<circle cx="589" cy="328" fill="none" r="0" stroke="none" stroke-width="0"/>
<circle cx="600" cy="329" fill="none" r="0" stroke="none" stroke-width="0"/>
<circle cx="461" cy="300" fill="none" r="0" stroke="none" stroke-width="0"/>
<circle cx="385" cy="294" fill="none" r="0" stroke="none" stroke-width="0"/>
<circle cx="14" cy="283" fill="none" r="0" stroke="none" stroke-width="0"/>
<circle cx="265" cy="291" fill="none" r="0" stroke="none" stroke-width="0"/>
<circle cx="717" cy="304" fill="none" r="0" stroke="none" stroke-width="0"/>
<circle cx="261" cy="280" fill="none" r="0" stroke="none" stroke-width="0"/>
<circle cx="670" cy="300" fill="none" r="0" stroke="none" stroke-width="0"/>
<circle cx="680" cy="300" fill="none" r="0" stroke="none" stroke-width="0"/>
<circle cx="694" cy="294" fill="none" r="0" stroke="none" stroke-width="0"/>
<circle cx="64" cy="220" fill="none" r="0" stroke="none" stroke-width="0"/>
<circle cx="494" cy="231" fill="none" r="0" stroke="none" stroke-width="0"/>
<circle cx="709" cy="235" fill="none" r="0" stroke="none" stroke-width="0"/>
<circle cx="703" cy="215" fill="none" r="0" stroke="none" stroke-width="0"/>
<circle cx="365" cy="220" fill="none" r="0" stroke="none" stroke-width="0"/>
<circle cx="503" cy="226" fill="none" r="0" stroke="none" stroke-width="0"/>
<circle cx="200" cy="235" fill="none" r="0" stroke="none" stroke-width="0"/>
<circle cx="369" cy="209" fill="none" r="0" stroke="none" stroke-width="0"/>
<circle cx="121" cy="217" fill="none" r="0" stroke="none" stroke-width="0"/>
<circle cx="195" cy="226" fill="none" r="0" stroke="none" stroke-width="0"/>
<circle cx="153" cy="198" fill="none" r="0" stroke="none" stroke-width="0"/>
<circle cx="157" cy="197" fill="none" r="0" stroke="none" stroke-width="0"/>
<circle cx="737" cy="124" fill="none" r="0" stroke="none" stroke-width="0"/>
<circle cx="172" cy="147" fill="none" r="0" stroke="none" stroke-width="0"/>
<circle cx="631" cy="130" fill="none" r="0" stroke="none" stroke-width="0"/>
<circle cx="537" cy="158" fill="none" r="0" stroke="none" stroke-width="0"/>
<circle cx="163" cy="112" fill="none" r="0" stroke="none" stroke-width="0"/>
<circle cx="625" cy="126" fill="none" r="0" stroke="none" stroke-width="0"/>
<circle cx="545" cy="151" fill="none" r="0" stroke="none" stroke-width="0"/>
<circle cx="351" cy="136" fill="none" r="0" stroke="none" stroke-width="0"/>
<circle cx="353" cy="125" fill="none" r="0" stroke="none" stroke-width="0"/>
<circle cx="558" cy="128" fill="none" r="0" stroke="none" stroke-width="0"/>
<circle cx="553" cy="113" fill="none" r="0" stroke="none" stroke-width="0"/>
<circle cx="520" cy="74" fill="none" r="0" stroke="none" stroke-width="0"/>
<circle cx="205" cy="36" fill="none" r="0" stroke="none" stroke-width="0"/>
<circle cx="299" cy="73" fill="none" r="0" stroke="none" stroke-width="0"/>
<circle cx="301" cy="73" fill="none" r="0" stroke="none" stroke-width="0"/>
<circle cx="346" cy="92" fill="none" r="0" stroke="none" stroke-width="0"/>
<circle cx="400" cy="52" fill="none" r="0" stroke="none" stroke-width="0"/>
<circle cx="514" cy="23" fill="none" r="0" stroke="none" stroke-width="0"/>
<circle cx="367" cy="67" fill="none" r="0" stroke="none" stroke-width="0"/>
<circle cx="0" cy="0" fill="none" r="0" stroke="none" stroke-width="0"/>
<circle cx="800" cy="0" fill="none" r="0" stroke="none" stroke-width="0"/>
<circle cx="800" cy="800" fill="none" r="0" stroke="none" stroke-width="0"/>
<circle cx="0" cy="800" fill="none" r="0" stroke="none" stroke-width="0"/>
<circle cx="434" cy="0" fill="none" r="0" stroke="none" stroke-width="0"/>
<circle cx="461" cy="0" fill="none" r="0" stroke="none" stroke-width="0"/>
<circle cx="800" cy="361" fill="none" r="0" stroke="none" stroke-width="0"/>
<circle cx="800" cy="439" fill="none" r="0" stroke="none" stroke-width="0"/>
<circle cx="800" cy="521" fill="none" r="0" stroke="none" stroke-width="0"/>
<circle cx="800" cy="614" fill="none" r="0" stroke="none" stroke-width="0"/>
<circle cx="800" cy="728" fill="none" r="0" stroke="none" stroke-width="0"/>
<circle cx="728" cy="800" fill="none" r="0" stroke="none" stroke-width="0"/>
<circle cx="614" cy="800" fill="none" r="0" stroke="none" stroke-width="0"/>
<circle cx="521" cy="800" fill="none" r="0" stroke="none" stroke-width="0"/>
<circle cx="439" cy="800" fill="none" r="0" stroke="none" stroke-width="0"/>
<circle cx="361" cy="800" fill="none" r="0" stroke="none" stroke-width="0"/>
<circle cx="279" cy="800" fill="none" r="0" stroke="none" stroke-width="0"/>
<circle cx="186" cy="800" fill="none" r="0" stroke="none" stroke-width="0"/>
<circle cx="72" cy="800" fill="none" r="0" stroke="none" stroke-width="0"/>
<circle cx="0" cy="728" fill="none" r="0" stroke="none" stroke-width="0"/>
<circle cx="0" cy="614" fill="none" r="0" stroke="none" stroke-width="0"/>
<circle cx="0" cy="521" fill="none" r="0" stroke="none" stroke-width="0"/>
<circle cx="0" cy="439" fill="none" r="0" stroke="none" stroke-width="0"/>
<circle cx="0" cy="361" fill="none" r="0" stroke="none" stroke-width="0"/>
<circle cx="0" cy="279" fill="none" r="0" stroke="none" stroke-width="0"/>
<circle cx="0" cy="186" fill="none" r="0" stroke="none" stroke-width="0"/>
<circle cx="0" cy="72" fill="none" r="0" stroke="none" stroke-width="0"/>
<circle cx="72" cy="0" fill="none" r="0" stroke="none" stroke-width="0"/>
<circle cx="186" cy="0" fill="none" r="0" stroke="none" stroke-width="0"/>
<circle cx="279" cy="0" fill="none" r="0" stroke="none" stroke-width="0"/>
<circle cx="361" cy="0" fill="none" r="0" stroke="none" stroke-width="0"/>
<circle cx="521" cy="0" fill="none" r="0" stroke="none" stroke-width="0"/>
<circle cx="614" cy="0" fill="none" r="0" stroke="none" stroke-width="0"/>
<circle cx="728" cy="0" fill="none" r="0" stroke="none" stroke-width="0"/>
<circle cx="800" cy="72" fill="none" r="0" stroke="none" stroke-width="0"/>
<circle cx="800" cy="186" fill="none" r="0" stroke="none" stroke-width="0"/>
<circle cx="800" cy="279" fill="none" r="0" stroke="none" stroke-width="0"/>
</svg>