<svg 
            xmlns:xlink="http://www.w3.org/1999/xlink" viewBox="0 0 800 800" xmlns="http://www.w3.org/2000/svg">
<rect fill="#070D15" height="800" stroke="none" width="800" x="0" y="0"/>
<path d="M423,350 L429,353 L399,413 L395,416 L388,417 L379,414 L370,406 L366,392 L368,375 L380,360 L399,350 z" fill="none" stroke="none" stroke-width="0"/>
<linearGradient id="gradient_face0" x1="0" x2="1.01" y1="0" y2="1.01">
<stop offset="0%" stop-color="#6F4C9BFF"/>
<stop offset="100%" stop-color="#6F4C9BFF"/>
</linearGradient>
<path d="M421.9613,355.07083 L422.15015,355.16525 Q422.2918,355.23605,414.12097,371.5777 L403.22656,393.36658 Q395.05573,409.7082,394.44644,410.16516 L393.63406,410.77444 Q393.02478,411.2314,391.65576,411.42697 L389.83038,411.68774 Q388.46136,411.88333,386.38937,411.19266 L383.62674,410.2718 Q381.55475,409.58112,379.41083,407.67538 L376.55222,405.13443 Q374.40826,403.2287,373.4106,399.73694 L372.08044,395.08124 Q371.0828,391.58945,371.5975,387.21436 L372.28378,381.3809 Q372.79852,377.00577,375.93466,373.08557 L380.11618,367.85867 Q383.25235,363.93848,388.34726,361.25693 L395.14053,357.68155 Q400.23544,355,406.71072,355 L415.3444,355 Q421.81967,355,421.9613,355.07083 z" fill="url(#gradient_face0)" stroke="none" stroke-width="0"/>
<path d="M429,353 L447,360 L467,383 L469,396 L399,413 z" fill="none" stroke="none" stroke-width="0"/>
<linearGradient id="gradient_face1" x1="0" x2="1.01" y1="0" y2="1.01">
<stop offset="0%" stop-color="#6257A7FF"/>
<stop offset="100%" stop-color="#5F59A9FF"/>
</linearGradient>
<path d="M435.2152,360.7818 L440.2563,362.74222 Q444.0371,364.21255,449.50937,370.50568 L456.80576,378.89648 Q462.27805,385.1896,462.60272,387.30002 L463.0356,390.1139 Q463.3603,392.2243,446.8395,396.23648 L424.81183,401.5861 Q408.29105,405.59827,415.23404,391.71225 L424.4914,373.19754 Q431.43442,359.3115,435.2152,360.7818 z" fill="url(#gradient_face1)" stroke="none" stroke-width="0"/>
<path d="M469,396 L476,416 L467,452 L466,453 L395,416 L399,413 z" fill="none" stroke="none" stroke-width="0"/>
<linearGradient id="gradient_face2" x1="0" x2="1.01" y1="0" y2="1.01">
<stop offset="0%" stop-color="#5763B3FF"/>
<stop offset="100%" stop-color="#5469B9FF"/>
</linearGradient>
<path d="M467.28006,406.22134 L469.28363,411.94583 Q470.78632,416.2392,468.296,426.20056 L464.97552,439.4824 Q462.48517,449.44376,463.25702,448.6719 L464.28616,447.64276 Q465.058,446.8709,446.84637,437.3803 L422.56415,424.72623 Q404.35248,415.23563,403.4002,415.94986 L402.1305,416.90213 Q401.17822,417.61633,420.55795,412.90982 L446.39764,406.6345 Q465.77737,401.92798,467.28006,406.22134 z" fill="url(#gradient_face2)" stroke="none" stroke-width="0"/>
<path d="M388,417 L395,416 L466,453 L442,485 L425,492 z" fill="none" stroke="none" stroke-width="0"/>
<linearGradient id="gradient_face3" x1="0" x2="1.01" y1="0" y2="1.01">
<stop offset="0%" stop-color="#5072BFFF"/>
<stop offset="100%" stop-color="#4D7BC5FF"/>
</linearGradient>
<path d="M395.10974,421.0351 L394.54147,421.11627 Q394.11526,421.17715,413.4205,431.2376 L439.16077,444.65155 Q458.46597,454.71204,452.57367,462.56845 L444.71725,473.04367 Q438.82492,480.9001,435.4025,482.30933 L430.83923,484.18832 Q427.4168,485.59756,417.85254,466.21054 L405.1002,440.3612 Q395.53595,420.9742,395.10974,421.0351 z" fill="url(#gradient_face3)" stroke="none" stroke-width="0"/>
<path d="M379,414 L388,417 L425,492 L400,505 L369,502 z" fill="none" stroke="none" stroke-width="0"/>
<linearGradient id="gradient_face4" x1="0" x2="1.01" y1="0" y2="1.01">
<stop offset="0%" stop-color="#4D80C5FF"/>
<stop offset="100%" stop-color="#4D8CC3FF"/>
</linearGradient>
<path d="M383.6218,420.81107 L384.08887,420.96677 Q384.4392,421.08353,394.61252,441.70514 L408.17697,469.20062 Q418.3503,489.82224,412.54742,492.83975 L404.81024,496.86307 Q399.00735,499.88058,391.66776,499.1703 L381.88165,498.22327 Q374.54208,497.51297,377.1609,474.46738 L380.65265,443.7399 Q383.27145,420.69427,383.6218,420.81107 z" fill="url(#gradient_face4)" stroke="none" stroke-width="0"/>
<path d="M370,406 L379,414 L369,502 L349,503 L313,480 z" fill="none" stroke="none" stroke-width="0"/>
<linearGradient id="gradient_face5" x1="0" x2="1.01" y1="0" y2="1.01">
<stop offset="0%" stop-color="#4D8DC2FF"/>
<stop offset="100%" stop-color="#4F98B9FF"/>
</linearGradient>
<path d="M371.60303,414.1147 L372.8236,415.19965 Q373.73904,416.01337,370.97067,440.37482 L367.27954,472.85675 Q364.5112,497.2182,360.26157,497.43066 L354.5954,497.714 Q350.34576,497.92645,341.32986,492.1663 L329.30865,484.48608 Q320.29272,478.72592,335.4112,459.09842 L355.56915,432.92847 Q370.6876,413.30096,371.60303,414.1147 z" fill="url(#gradient_face5)" stroke="none" stroke-width="0"/>
<path d="M366,392 L370,406 L313,480 L301,475 L273,430 z" fill="none" stroke="none" stroke-width="0"/>
<linearGradient id="gradient_face6" x1="0" x2="1.01" y1="0" y2="1.01">
<stop offset="0%" stop-color="#4F97BAFF"/>
<stop offset="100%" stop-color="#55A0AFFF"/>
</linearGradient>
<path d="M363.25757,400.6018 L363.9671,403.08514 Q364.49927,404.94766,348.5637,425.63596 L327.31625,453.22034 Q311.38068,473.90863,309.28647,473.03604 L306.4942,471.8726 Q304.4,471,297.1924,459.41638 L287.5823,443.97156 Q280.37473,432.38797,305.07993,422.29337 L338.02023,408.8339 Q362.72543,398.7393,363.25757,400.6018 z" fill="url(#gradient_face6)" stroke="none" stroke-width="0"/>
<path d="M268,424 L263,362 L368,375 L366,392 L273,430 z" fill="none" stroke="none" stroke-width="0"/>
<linearGradient id="gradient_face7" x1="0" x2="1.01" y1="0" y2="1.01">
<stop offset="0%" stop-color="#549EB2FF"/>
<stop offset="100%" stop-color="#5BA7A4FF"/>
</linearGradient>
<path d="M271.5426,405.72705 L269.79095,384.00662 Q268.47723,367.7163,296.67014,371.20685 L334.26068,375.86093 Q362.45358,379.35147,362.13116,382.0921 L361.70123,385.7463 Q361.3788,388.48694,335.31445,399.1369 L300.56192,413.33685 Q274.49756,423.98682,274.0052,423.39597 L273.3487,422.6082 Q272.85635,422.01736,271.5426,405.72705 z" fill="url(#gradient_face7)" stroke="none" stroke-width="0"/>
<path d="M287,295 L289,294 L380,360 L368,375 L263,362 L262,360 z" fill="none" stroke="none" stroke-width="0"/>
<linearGradient id="gradient_face8" x1="0" x2="1.01" y1="0" y2="1.01">
<stop offset="0%" stop-color="#58A4A9FF"/>
<stop offset="100%" stop-color="#64AD97FF"/>
</linearGradient>
<path d="M290.2358,298.97226 L289.25613,299.4621 Q288.52136,299.82947,313.81125,318.1716 L347.5311,342.62775 Q372.82098,360.96985,370.72705,363.58728 L367.93515,367.07715 Q365.84125,369.69455,335.97098,365.99634 L296.14398,361.06537 Q266.27374,357.36716,266.62915,358.07794 L267.10303,359.0257 Q267.4584,359.7365,274.51205,341.397 L283.91693,316.94437 Q290.97058,298.6049,290.2358,298.97226 z" fill="url(#gradient_face8)" stroke="none" stroke-width="0"/>
<path d="M343,246 L349,246 L399,350 L380,360 L289,294 z" fill="none" stroke="none" stroke-width="0"/>
<linearGradient id="gradient_face9" x1="0" x2="1.01" y1="0" y2="1.01">
<stop offset="0%" stop-color="#5EA9A0FF"/>
<stop offset="100%" stop-color="#70B486FF"/>
</linearGradient>
<path d="M345.1875,251 L345.56952,251 Q345.85602,251,359.8206,280.0463 L378.44,318.77472 Q392.40457,347.82104,388.8094,349.71326 L384.01578,352.2362 Q380.42056,354.12842,355.38568,335.97122 L322.00583,311.7617 Q296.97095,293.6045,311.34995,280.82315 L330.52197,263.78134 Q344.901,251,345.1875,251 z" fill="url(#gradient_face9)" stroke="none" stroke-width="0"/>
<path d="M420,226 L428,230 L423,350 L399,350 L349,246 z" fill="none" stroke="none" stroke-width="0"/>
<linearGradient id="gradient_face10" x1="0" x2="1.01" y1="0" y2="1.01">
<stop offset="0%" stop-color="#65AE94FF"/>
<stop offset="100%" stop-color="#83B970FF"/>
</linearGradient>
<path d="M420.50665,231.84349 L421.8569,232.51863 Q422.86963,233.02498,421.46994,266.6175 L419.60367,311.4075 Q418.204,345,413.386,345 L406.962,345 Q402.14398,345,388.32648,316.25958 L369.90314,277.93906 Q356.08563,249.19864,375.10812,243.84018 L400.47144,236.69559 Q419.49393,231.33714,420.50665,231.84349 z" fill="url(#gradient_face10)" stroke="none" stroke-width="0"/>
<path d="M428,230 L502,244 L509,255 L447,360 L429,353 L423,350 z" fill="none" stroke="none" stroke-width="0"/>
<linearGradient id="gradient_face11" x1="0" x2="1.01" y1="0" y2="1.01">
<stop offset="0%" stop-color="#70B486FF"/>
<stop offset="100%" stop-color="#9CBD5BFF"/>
</linearGradient>
<path d="M452.6115,239.74492 L479.0871,244.75381 Q498.94376,248.51048,500.20132,250.48668 L501.8781,253.12158 Q503.13568,255.09778,485.65115,284.70865 L462.33847,324.1898 Q444.85397,353.80066,440.70633,352.18768 L435.17615,350.03705 Q431.0285,348.42407,430.15906,347.98938 L428.99982,347.40973 Q428.13037,346.975,429.5177,313.679 L431.3675,269.28427 Q432.75482,235.98825,452.6115,239.74492 z" fill="url(#gradient_face11)" stroke="none" stroke-width="0"/>
<path d="M509,255 L571,302 L572,318 L467,383 L447,360 z" fill="none" stroke="none" stroke-width="0"/>
<linearGradient id="gradient_face12" x1="0" x2="1.01" y1="0" y2="1.01">
<stop offset="0%" stop-color="#7FB874FF"/>
<stop offset="100%" stop-color="#B6BC4BFF"/>
</linearGradient>
<path d="M527.1622,275.04236 L549.4425,291.93228 Q566.1527,304.59973,566.3538,307.8171 L566.62195,312.1069 Q566.823,315.32428,537.1711,333.68024 L497.63516,358.15488 Q467.98322,376.51083,463.52963,371.38922 L457.59155,364.5604 Q453.13797,359.43878,470.33215,330.31964 L493.25772,291.49408 Q510.4519,262.3749,527.1622,275.04236 z" fill="url(#gradient_face12)" stroke="none" stroke-width="0"/>
<path d="M572,318 L608,389 L600,406 L476,416 L469,396 L467,383 z" fill="none" stroke="none" stroke-width="0"/>
<linearGradient id="gradient_face13" x1="0" x2="1.01" y1="0" y2="1.01">
<stop offset="0%" stop-color="#92BC63FF"/>
<stop offset="100%" stop-color="#CCB642FF"/>
</linearGradient>
<path d="M579.7325,344.30646 L592.7056,369.8924 Q602.4355,389.08188,600.7178,392.73206 L598.4275,397.59894 Q596.7097,401.2491,561.53015,404.08618 L514.6241,407.86893 Q479.4445,410.706,477.77267,405.9293 L475.54355,399.5604 Q473.8717,394.78372,473.44366,392.00156 L472.873,388.292 Q472.44495,385.50983,501.71225,367.39197 L540.7353,343.23483 Q570.0026,325.117,579.7325,344.30646 z" fill="url(#gradient_face13)" stroke="none" stroke-width="0"/>
<path d="M476,416 L600,406 L600,488 L583,502 L467,452 z" fill="none" stroke="none" stroke-width="0"/>
<linearGradient id="gradient_face14" x1="0" x2="1.01" y1="0" y2="1.01">
<stop offset="0%" stop-color="#A8BD52FF"/>
<stop offset="100%" stop-color="#DAAC3CFF"/>
</linearGradient>
<path d="M514.486,417.9125 L560.494,414.2022 Q595,411.41946,595,433.68573 L595,463.3741 Q595,485.64038,591.1531,488.8084 L586.02386,493.0325 Q582.17694,496.20053,549.38824,482.06747 L505.66998,463.2234 Q472.8813,449.09033,475.01093,440.5718 L477.85043,429.21378 Q479.98007,420.69525,514.486,417.9125 z" fill="url(#gradient_face14)" stroke="none" stroke-width="0"/>
<path d="M466,453 L467,452 L583,502 L546,578 L521,582 L442,485 z" fill="none" stroke="none" stroke-width="0"/>
<linearGradient id="gradient_face15" x1="0" x2="1.01" y1="0" y2="1.01">
<stop offset="0%" stop-color="#BDBC48FF"/>
<stop offset="100%" stop-color="#E39D39FF"/>
</linearGradient>
<path d="M469.29172,456.77936 L468.6316,457.43948 Q468.1365,457.93457,500.55933,471.9099 L543.78973,490.54373 Q576.2125,504.51907,566.14154,525.20544 L552.71356,552.78723 Q542.6426,573.4736,536.7668,574.4137 L528.9323,575.66724 Q523.0565,576.60736,500.6431,549.0871 L470.75854,512.39343 Q448.34515,484.87314,454.77765,476.29648 L463.3543,464.86093 Q469.7868,456.28427,469.29172,456.77936 z" fill="url(#gradient_face15)" stroke="none" stroke-width="0"/>
<path d="M425,492 L442,485 L521,582 L452,635 L425,626 L400,505 z" fill="none" stroke="none" stroke-width="0"/>
<linearGradient id="gradient_face16" x1="0" x2="1.01" y1="0" y2="1.01">
<stop offset="0%" stop-color="#CEB642FF"/>
<stop offset="100%" stop-color="#E68D35FF"/>
</linearGradient>
<path d="M431.11725,494.88843 L436.46106,492.68802 Q440.4689,491.03775,462.49054,518.07697 L491.85272,554.1293 Q513.8744,581.1685,495.03036,595.64294 L469.905,614.94214 Q451.06097,629.4165,444.5368,627.2418 L435.83792,624.34216 Q429.31375,622.1675,422.21814,587.82465 L412.75732,542.0343 Q405.6617,507.69153,412.096,504.34567 L420.6751,499.88455 Q427.10944,496.5387,431.11725,494.88843 z" fill="url(#gradient_face16)" stroke="none" stroke-width="0"/>
<path d="M349,503 L369,502 L400,505 L425,626 L337,644 L316,621 z" fill="none" stroke="none" stroke-width="0"/>
<linearGradient id="gradient_face17" x1="0" x2="1.01" y1="0" y2="1.01">
<stop offset="0%" stop-color="#D9AD3DFF"/>
<stop offset="100%" stop-color="#E67932FF"/>
</linearGradient>
<path d="M357.65692,507.5734 L364.07205,507.25266 Q368.88342,507.0121,376.97318,507.79495 L387.75952,508.8388 Q395.84927,509.62167,402.8214,543.3668 L412.11758,588.3603 Q419.08972,622.1054,394.9964,627.03357 L362.872,633.6045 Q338.7787,638.53265,333.61368,632.87573 L326.72702,625.3332 Q321.56204,619.67633,330.94708,586.1176 L343.4605,541.3727 Q352.84558,507.81396,357.65692,507.5734 z" fill="url(#gradient_face17)" stroke="none" stroke-width="0"/>
<path d="M301,475 L313,480 L349,503 L316,621 L226,597 L217,565 z" fill="none" stroke="none" stroke-width="0"/>
<linearGradient id="gradient_face18" x1="0" x2="1.01" y1="0" y2="1.01">
<stop offset="0%" stop-color="#E1A13AFF"/>
<stop offset="100%" stop-color="#E3612CFF"/>
</linearGradient>
<path d="M304.80157,482.00064 L308.1578,483.39908 Q310.675,484.4479,320.4287,490.67944 L333.43365,498.9882 Q343.18738,505.21973,333.98572,538.1226 L321.71686,581.9931 Q312.5152,614.896,287.77316,608.2981 L254.78377,599.501 Q230.04173,592.9031,227.80171,584.9386 L224.81503,574.3192 Q222.57501,566.35474,246.48782,540.7339 L278.37158,506.5727 Q302.2844,480.95184,304.80157,482.00064 z" fill="url(#gradient_face18)" stroke="none" stroke-width="0"/>
<path d="M268,424 L273,430 L301,475 L217,565 L145,501 L153,465 z" fill="none" stroke="none" stroke-width="0"/>
<linearGradient id="gradient_face19" x1="0" x2="1.01" y1="0" y2="1.01">
<stop offset="0%" stop-color="#E59437FF"/>
<stop offset="100%" stop-color="#DE4427FF"/>
</linearGradient>
<path d="M267.15604,430.79752 L268.17398,432.01904 Q268.93747,432.9352,276.67548,445.3713 L286.99286,461.95282 Q294.7309,474.38895,271.31396,499.47852 L240.09138,532.9313 Q216.67445,558.0209,196.82767,540.3793 L170.3653,516.8572 Q150.51851,499.21558,152.54742,490.08545 L155.25266,477.91193 Q157.28157,468.7818,190.01488,457.11166 L233.65927,441.55148 Q266.39258,429.88135,267.15604,430.79752 z" fill="url(#gradient_face19)" stroke="none" stroke-width="0"/>
<path d="M116,374 L142,344 L262,360 L263,362 L268,424 L153,465 z" fill="none" stroke="none" stroke-width="0"/>
<linearGradient id="gradient_face20" x1="0" x2="1.01" y1="0" y2="1.01">
<stop offset="0%" stop-color="#E68634FF"/>
<stop offset="100%" stop-color="#D42221FF"/>
</linearGradient>
<path d="M128.4544,367.26392 L137.34462,357.006 Q144.01227,349.31256,178.42242,353.90057 L224.30264,360.01794 Q258.7128,364.60596,258.52722,364.23474 L258.27975,363.7398 Q258.09415,363.36862,259.47824,380.5316 L261.32373,403.41553 Q262.70786,420.5785,230.64421,432.0099 L187.89272,447.2517 Q155.82909,458.6831,145.6164,433.56537 L131.99945,400.0751 Q121.78676,374.95737,128.4544,367.26392 z" fill="url(#gradient_face20)" stroke="none" stroke-width="0"/>
<path d="M149,242 L189,226 L287,295 L262,360 L142,344 z" fill="none" stroke="none" stroke-width="0"/>
<linearGradient id="gradient_face21" x1="0" x2="1.01" y1="0" y2="1.01">
<stop offset="0%" stop-color="#E57531FF"/>
<stop offset="100%" stop-color="#B0211DFF"/>
</linearGradient>
<path d="M164.14294,241.32799 L177.96924,235.79747 Q188.33896,231.64958,216.1174,251.20787 L253.15532,277.28558 Q280.93375,296.84387,274.27853,314.14743 L265.4049,337.2188 Q258.7497,354.52237,225.3176,350.06476 L180.74146,344.12128 Q147.30936,339.66367,149.24852,311.40732 L151.83406,273.7322 Q153.77322,245.47588,164.14294,241.32799 z" fill="url(#gradient_face21)" stroke="none" stroke-width="0"/>
<path d="M242,136 L287,141 L343,246 L289,294 L287,295 L189,226 z" fill="none" stroke="none" stroke-width="0"/>
<linearGradient id="gradient_face22" x1="0" x2="1.01" y1="0" y2="1.01">
<stop offset="0%" stop-color="#E3612CFF"/>
<stop offset="100%" stop-color="#8B2019FF"/>
</linearGradient>
<path d="M256.41446,142.63237 L272.0796,144.37294 Q283.82846,145.67838,299.70053,175.4385 L320.86328,215.11867 Q336.73535,244.8788,321.5665,258.36224 L301.3413,276.34015 Q286.17245,289.8236,286.55148,289.6341 L287.05685,289.3814 Q287.43588,289.1919,259.89935,269.80392 L223.18396,243.9533 Q195.64743,224.56532,210.35287,199.59381 L229.96014,166.29846 Q244.66559,141.32695,256.41446,142.63237 z" fill="url(#gradient_face22)" stroke="none" stroke-width="0"/>
<path d="M378,81 L418,109 L420,226 L349,246 L343,246 L287,141 z" fill="none" stroke="none" stroke-width="0"/>
<linearGradient id="gradient_face23" x1="0" x2="1.01" y1="0" y2="1.01">
<stop offset="0%" stop-color="#DF4A28FF"/>
<stop offset="100%" stop-color="#671C15FF"/>
</linearGradient>
<path d="M388.45444,94.421394 L402.5058,104.25733 Q413.0443,111.634285,413.61148,144.81366 L414.3677,189.05284 Q414.93488,222.23221,394.94717,227.86255 L368.2969,235.36966 Q348.3092,241,347.61646,241 L346.69278,241 Q346,241,330.26666,211.5 L309.28888,172.16667 Q293.55554,142.66667,318.86368,125.979996 L352.60782,103.7311 Q377.91595,87.04443,388.45444,94.421394 z" fill="url(#gradient_face23)" stroke="none" stroke-width="0"/>
<path d="M525,96 L531,99 L554,141 L502,244 L428,230 L420,226 L418,109 z" fill="none" stroke="none" stroke-width="0"/>
<linearGradient id="gradient_face24" x1="0" x2="1.01" y1="0" y2="1.01">
<stop offset="0%" stop-color="#DB2A23FF"/>
<stop offset="100%" stop-color="#521A13FF"/>
</linearGradient>
<path d="M525.08636,101.63334 L526.38873,102.28452 Q527.3655,102.77292,533.6612,114.26942 L542.0555,129.5981 Q548.3512,141.0946,533.61554,170.28253 L513.96796,209.19977 Q499.23233,238.3877,478.34668,234.43636 L450.4991,229.1679 Q429.61343,225.21655,428.21365,224.51665 L426.34726,223.58345 Q424.94745,222.88356,424.3861,190.0445 L423.63763,146.25908 Q423.0763,113.42002,453.38626,109.7375 L493.7996,104.82748 Q524.10956,101.14495,525.08636,101.63334 z" fill="url(#gradient_face24)" stroke="none" stroke-width="0"/>
<path d="M554,141 L649,175 L660,186 L662,192 L662,235 L571,302 L509,255 L502,244 z" fill="none" stroke="none" stroke-width="0"/>
<linearGradient id="gradient_face25" x1="0" x2="1.01" y1="0" y2="1.01">
<stop offset="0%" stop-color="#C4221FFF"/>
<stop offset="100%" stop-color="#521A13FF"/>
</linearGradient>
<path d="M583.4087,156.83578 L619.3227,169.68924 Q646.25824,179.32932,649.0697,182.1408 L652.81836,185.88943 Q655.6298,188.70091,656.0409,189.93405 L656.5889,191.57825 Q657,192.81139,657,204.70966 L657,220.57402 Q657,232.47229,631.2131,251.45825 L596.83057,276.77286 Q571.04364,295.75882,553.5514,282.49857 L530.2284,264.81824 Q512.73615,251.55798,511.23883,249.20503 L509.2424,246.06775 Q507.74506,243.7148,522.36346,214.75906 L541.85474,176.15143 Q556.47314,147.1957,583.4087,156.83578 z" fill="url(#gradient_face25)" stroke="none" stroke-width="0"/>
<path d="M662,235 L729,305 L730,367 L729,370 L608,389 L572,318 L571,302 z" fill="none" stroke="none" stroke-width="0"/>
<linearGradient id="gradient_face26" x1="0" x2="1.01" y1="0" y2="1.01">
<stop offset="0%" stop-color="#6F4C9BFF"/>
<stop offset="100%" stop-color="#6F4C9BFF"/>
</linearGradient>
<path d="M680.20795,261.25436 L705.2504,287.41812 Q724.0323,307.04095,724.31866,324.79703 L724.7005,348.47183 Q724.9869,366.22794,725.05646,366.0193 L725.1492,365.74112 Q725.2187,365.5325,690.89777,370.92172 L645.1365,378.1074 Q610.81555,383.4966,600.6487,363.44525 L587.09283,336.7101 Q576.9259,316.65872,576.6962,312.984 L576.39,308.08438 Q576.16034,304.40964,601.7401,285.57623 L635.8464,260.46497 Q661.42615,241.63155,680.20795,261.25436 z" fill="url(#gradient_face26)" stroke="none" stroke-width="0"/>
<path d="M608,389 L729,370 L747,434 L729,500 L706,523 L600,488 L600,406 z" fill="none" stroke="none" stroke-width="0"/>
<linearGradient id="gradient_face27" x1="0" x2="1.01" y1="0" y2="1.01">
<stop offset="0%" stop-color="#6257A7FF"/>
<stop offset="100%" stop-color="#5F59A9FF"/>
</linearGradient>
<path d="M645.59326,388.1582 L691.1908,380.99826 Q725.389,375.6283,730.3158,393.14597 L736.88495,416.50287 Q741.81177,434.02054,736.6259,453.0354 L729.7114,478.38852 Q724.5256,497.40338,718.56067,503.36826 L710.6075,511.3214 Q704.64264,517.2863,674.7498,507.41605 L634.89276,494.2557 Q605,484.38544,605,461.2051 L605,430.298 Q605,407.11768,606.9185,403.04083 L609.47656,397.605 Q611.3951,393.52817,645.59326,388.1582 z" fill="url(#gradient_face27)" stroke="none" stroke-width="0"/>
<path d="M583,502 L600,488 L706,523 L707,564 L674,625 L620,653 L546,578 z" fill="none" stroke="none" stroke-width="0"/>
<linearGradient id="gradient_face28" x1="0" x2="1.01" y1="0" y2="1.01">
<stop offset="0%" stop-color="#5763B3FF"/>
<stop offset="100%" stop-color="#5469B9FF"/>
</linearGradient>
<path d="M591.2284,501.70096 L596.8409,497.0789 Q601.0503,493.6123,631.0614,503.52164 L671.07623,516.7341 Q701.0874,526.64343,701.35187,537.48785 L701.7045,551.947 Q701.96906,562.79144,692.47845,580.33466 L679.82434,603.72565 Q670.33374,621.26886,655.5248,628.9476 L635.7795,639.18585 Q620.97046,646.8646,600.29266,625.90735 L572.7222,597.96436 Q552.04443,577.00714,562.5368,555.45526 L576.5266,526.7194 Q587.019,505.1675,591.2284,501.70096 z" fill="url(#gradient_face28)" stroke="none" stroke-width="0"/>
<path d="M521,582 L546,578 L620,653 L617,665 L570,718 L501,733 L481,727 L452,635 z" fill="none" stroke="none" stroke-width="0"/>
<linearGradient id="gradient_face29" x1="0" x2="1.01" y1="0" y2="1.01">
<stop offset="0%" stop-color="#5072BFFF"/>
<stop offset="100%" stop-color="#4D7BC5FF"/>
</linearGradient>
<path d="M529.40326,585.71906 L537.8862,584.3618 Q544.2485,583.3438,565.3144,604.6944 L593.40216,633.16174 Q614.468,654.51227,613.8615,656.9383 L613.05286,660.173 Q612.44635,662.599,598.91516,677.8576 L580.8736,698.2024 Q567.34235,713.46094,547.4996,717.7746 L521.04254,723.5261 Q501.1998,727.8398,496.33167,726.37933 L489.84085,724.4321 Q484.97272,722.9717,476.8271,697.1303 L465.96622,662.67523 Q457.8206,636.83386,477.38672,621.8048 L503.47488,601.7661 Q523.041,586.73706,529.40326,585.71906 z" fill="url(#gradient_face29)" stroke="none" stroke-width="0"/>
<path d="M425,626 L452,635 L481,727 L435,760 L365,760 L323,729 L337,644 z" fill="none" stroke="none" stroke-width="0"/>
<linearGradient id="gradient_face30" x1="0" x2="1.01" y1="0" y2="1.01">
<stop offset="0%" stop-color="#4D80C5FF"/>
<stop offset="100%" stop-color="#4D8CC3FF"/>
</linearGradient>
<path d="M431.68225,633.49786 L441.00574,636.6057 Q447.99835,638.9366,456.14157,664.7702 L466.99918,699.215 Q475.14236,725.04865,462.61728,734.03406 L445.9171,746.0146 Q433.392,755,413.36804,755 L386.6694,755 Q366.64542,755,355.181,746.53815 L339.89514,735.25574 Q328.43073,726.79395,332.31375,703.2184 L337.49112,671.78436 Q341.37415,648.2088,366.3688,643.09625 L399.69498,636.27954 Q424.68964,631.167,431.68225,633.49786 z" fill="url(#gradient_face30)" stroke="none" stroke-width="0"/>
<path d="M226,597 L316,621 L337,644 L323,729 L297,741 L225,728 L179,669 L178,662 z" fill="none" stroke="none" stroke-width="0"/>
<linearGradient id="gradient_face31" x1="0" x2="1.01" y1="0" y2="1.01">
<stop offset="0%" stop-color="#4D8DC2FF"/>
<stop offset="100%" stop-color="#4F98B9FF"/>
</linearGradient>
<path d="M253.58893,609.5318 L287.7071,618.62994 Q313.2957,625.45355,318.8087,631.49164 L326.15933,639.54236 Q331.67233,645.5804,327.71985,669.57764 L322.44986,701.57404 Q318.49738,725.5713,311.84912,728.6397 L302.98477,732.73096 Q296.33655,735.7994,275.7661,732.08527 L248.3389,727.1331 Q227.76848,723.419,214.56639,706.4859 L196.96361,683.90845 Q183.76152,666.9753,183.60493,665.8792 L183.39615,664.4177 Q183.23956,663.32166,196.66779,645.1376 L214.57208,620.8922 Q228.00032,602.7081,253.58893,609.5318 z" fill="url(#gradient_face31)" stroke="none" stroke-width="0"/>
<path d="M86,531 L145,501 L217,565 L226,597 L178,662 L110,638 L77,573 z" fill="none" stroke="none" stroke-width="0"/>
<linearGradient id="gradient_face32" x1="0" x2="1.01" y1="0" y2="1.01">
<stop offset="0%" stop-color="#4F97BAFF"/>
<stop offset="100%" stop-color="#55A0AFFF"/>
</linearGradient>
<path d="M106.54091,526.16473 L128.07567,515.21484 Q144.22675,507.00244,164.73372,525.23083 L192.07637,549.5354 Q212.58334,567.76385,214.96562,576.23413 L218.14198,587.5279 Q220.52425,595.99817,207.21962,614.01483 L189.48012,638.0371 Q176.1755,656.0538,157.38846,649.42303 L132.33907,640.5821 Q113.55202,633.95135,104.16445,615.4607 L91.64769,590.80646 Q82.26012,572.3158,84.699036,560.9342 L87.95092,545.7587 Q90.38984,534.37714,106.54091,526.16473 z" fill="url(#gradient_face32)" stroke="none" stroke-width="0"/>
<path d="M56,373 L116,374 L153,465 L145,501 L86,531 L45,508 L21,437 z" fill="none" stroke="none" stroke-width="0"/>
<linearGradient id="gradient_face33" x1="0" x2="1.01" y1="0" y2="1.01">
<stop offset="0%" stop-color="#549EB2FF"/>
<stop offset="100%" stop-color="#5BA7A4FF"/>
</linearGradient>
<path d="M75.03996,378.31802 L96.510155,378.67587 Q112.6128,378.94424,123.16316,404.89243 L137.2303,439.49 Q147.78065,465.43817,145.63571,475.09042 L142.77579,487.9601 Q140.63084,497.61237,124.276306,505.92822 L102.47025,517.01605 Q86.11572,525.3319,75.01748,519.1061 L60.219814,510.80493 Q49.12157,504.5791,42.316715,484.44806 L33.243572,457.6067 Q26.438719,437.47565,36.188297,419.64786 L49.187737,395.87744 Q58.937317,378.04965,75.03996,378.31802 z" fill="url(#gradient_face33)" stroke="none" stroke-width="0"/>
<path d="M110,221 L149,242 L142,344 L116,374 L56,373 L48,365 L27,287 L78,228 z" fill="none" stroke="none" stroke-width="0"/>
<linearGradient id="gradient_face34" x1="0" x2="1.01" y1="0" y2="1.01">
<stop offset="0%" stop-color="#58A4A9FF"/>
<stop offset="100%" stop-color="#64AD97FF"/>
</linearGradient>
<path d="M119.61911,231.85829 L133.43163,239.2958 Q143.79102,244.87393,141.79158,274.0085 L139.12567,312.8546 Q137.12624,341.98917,130.11336,350.08096 L120.76284,360.87003 Q113.749954,368.9618,97.05661,368.6836 L74.79881,368.31262 Q58.105465,368.0344,56.41801,366.34695 L54.168068,364.09702 Q52.480614,362.40955,46.491802,340.16537 L38.506718,310.5065 Q32.517906,288.26233,46.97083,271.5423 L66.241394,249.2489 Q80.69431,232.52885,89.26394,230.65425 L100.6901,228.15477 Q109.25972,226.28017,119.61911,231.85829 z" fill="url(#gradient_face34)" stroke="none" stroke-width="0"/>
<path d="M225,111 L242,136 L189,226 L149,242 L110,221 L101,155 L155,101 z" fill="none" stroke="none" stroke-width="0"/>
<linearGradient id="gradient_face35" x1="0" x2="1.01" y1="0" y2="1.01">
<stop offset="0%" stop-color="#5EA9A0FF"/>
<stop offset="100%" stop-color="#70B486FF"/>
</linearGradient>
<path d="M226.30017,121.8039 L231.89107,130.0258 Q236.08423,136.19223,220.92633,161.93207 L200.71579,196.25185 Q185.55789,221.99168,174.68439,226.34108 L160.18637,232.14029 Q149.31287,236.48969,138.90213,230.88391 L125.02116,223.40953 Q114.61042,217.80376,112.11407,199.49718 L108.7856,175.0884 Q106.289246,156.78181,121.43281,141.63826 L141.6242,121.44685 Q156.76776,106.3033,176.36954,109.10355 L202.50523,112.83723 Q222.107,115.637474,226.30017,121.8039 z" fill="url(#gradient_face35)" stroke="none" stroke-width="0"/>
<path d="M365,49 L376,64 L378,81 L287,141 L242,136 L225,111 L227,75 L283,14 z" fill="none" stroke="none" stroke-width="0"/>
<linearGradient id="gradient_face36" x1="0" x2="1.01" y1="0" y2="1.01">
<stop offset="0%" stop-color="#65AE94FF"/>
<stop offset="100%" stop-color="#83B970FF"/>
</linearGradient>
<path d="M364.60092,56.91083 L368.36514,62.043854 Q371.1883,65.893616,371.63403,69.68231 L372.22833,74.7339 Q372.67407,78.5226,346.59872,95.71513 L311.8316,118.638504 Q285.75626,135.83104,273.4814,134.46716 L257.115,132.64867 Q244.84015,131.2848,240.41396,124.77569 L234.51236,116.09688 Q230.08617,109.58777,230.62823,99.8305 L231.351,86.8208 Q231.89307,77.06353,247.6124,59.94069 L268.5715,37.11023 Q284.29083,19.987383,307.53693,29.909487 L338.53168,43.138958 Q361.77774,53.061066,364.60092,56.91083 z" fill="url(#gradient_face36)" stroke="none" stroke-width="0"/>
<path d="M436,0 L448,0 L511,33 L525,96 L418,109 L378,81 L376,64 z" fill="none" stroke="none" stroke-width="0"/>
<linearGradient id="gradient_face37" x1="0" x2="1.01" y1="0" y2="1.01">
<stop offset="0%" stop-color="#70B486FF"/>
<stop offset="100%" stop-color="#9CBD5BFF"/>
</linearGradient>
<path d="M440.74725,5 L444.1887,5 Q446.76974,5,464.72568,14.405484 L488.6669,26.946129 Q506.62283,36.351612,510.31284,52.956604 L515.23285,75.09659 Q518.92285,91.701584,489.03546,95.332756 L449.18564,100.174324 Q419.29825,103.805504,408.31992,96.12067 L393.68216,85.87423 Q382.70383,78.1894,382.2639,74.44981 L381.67728,69.46369 Q381.2373,65.7241,398.31598,47.50687 L421.0875,23.21723 Q438.16617,5,440.74725,5 z" fill="url(#gradient_face37)" stroke="none" stroke-width="0"/>
<path d="M531,99 L581,60 L663,80 L649,175 L554,141 z" fill="none" stroke="none" stroke-width="0"/>
<linearGradient id="gradient_face38" x1="0" x2="1.01" y1="0" y2="1.01">
<stop offset="0%" stop-color="#7FB874FF"/>
<stop offset="100%" stop-color="#B6BC4BFF"/>
</linearGradient>
<path d="M550.84937,89.85864 L568.74493,75.90006 Q582.1667,65.43113,604.73346,70.93522 L634.82245,78.274 Q657.3892,83.77809,653.6552,109.11585 L648.6766,142.89954 Q644.9426,168.2373,618.7018,158.84584 L583.714,146.32391 Q557.47314,136.93245,551.45953,125.95099 L543.4413,111.309044 Q537.4276,100.327576,550.84937,89.85864 z" fill="url(#gradient_face38)" stroke="none" stroke-width="0"/>
<path d="M662,235 L662,192 L782,196 L741,296 L729,305 z" fill="none" stroke="none" stroke-width="0"/>
<linearGradient id="gradient_face39" x1="0" x2="1.01" y1="0" y2="1.01">
<stop offset="0%" stop-color="#92BC63FF"/>
<stop offset="100%" stop-color="#CCB642FF"/>
</linearGradient>
<path d="M667,222.24577 L667,207.91644 Q667,197.16945,699.29364,198.2459 L742.3518,199.68117 Q774.64545,200.75763,763.32086,228.37854 L748.22144,265.20645 Q736.89685,292.82736,734.6918,294.48117 L731.7517,296.68622 Q729.54663,298.34003,710.78265,278.73584 L685.764,252.59694 Q667,232.99277,667,222.24577 z" fill="url(#gradient_face39)" stroke="none" stroke-width="0"/>
<path d="M800,361 L800,439 L747,434 L729,370 L730,367 z" fill="none" stroke="none" stroke-width="0"/>
<linearGradient id="gradient_face40" x1="0" x2="1.01" y1="0" y2="1.01">
<stop offset="0%" stop-color="#070D15FF"/>
<stop offset="100%" stop-color="#070D15FF"/>
</linearGradient>
<path d="M795,386.56467 L795,413.38834 Q795,433.5061,781.7654,432.25754 L764.1192,430.5928 Q750.8846,429.34427,745.8879,411.5783 L739.22565,387.89038 Q734.229,370.12442,734.07135,370.59738 L733.86115,371.22797 Q733.7035,371.7009,752.09247,370.1247 L776.611,368.0231 Q795,366.4469,795,386.56467 z" fill="url(#gradient_face40)" stroke="none" stroke-width="0"/>
<path d="M800,439 L800,521 L729,500 L747,434 z" fill="none" stroke="none" stroke-width="0"/>
<linearGradient id="gradient_face41" x1="0" x2="1.01" y1="0" y2="1.01">
<stop offset="0%" stop-color="#070D15FF"/>
<stop offset="100%" stop-color="#070D15FF"/>
</linearGradient>
<path d="M795,464.77747 L795,493.08005 Q795,514.307,777.0335,508.99298 L753.0781,501.9076 Q735.11163,496.59354,739.79333,479.42734 L746.0356,456.5391 Q750.7173,439.3729,764.0021,440.62616 L781.7152,442.2972 Q795,443.5505,795,464.77747 z" fill="url(#gradient_face41)" stroke="none" stroke-width="0"/>
<path d="M800,521 L800,614 L707,564 L706,523 L729,500 z" fill="none" stroke="none" stroke-width="0"/>
<linearGradient id="gradient_face42" x1="0" x2="1.01" y1="0" y2="1.01">
<stop offset="0%" stop-color="#070D15FF"/>
<stop offset="100%" stop-color="#070D15FF"/>
</linearGradient>
<path d="M795,549.0052 L795,581.36505 Q795,605.635,770.0783,592.23627 L736.84937,574.3712 Q711.9277,560.9725,711.66455,550.1868 L711.31384,535.80597 Q711.0508,525.0203,716.8655,519.2056 L724.6184,511.4527 Q730.4331,505.638,749.80316,511.36716 L775.62994,519.00604 Q795,524.7352,795,549.0052 z" fill="url(#gradient_face42)" stroke="none" stroke-width="0"/>
<path d="M800,614 L800,728 L674,625 L707,564 z" fill="none" stroke="none" stroke-width="0"/>
<linearGradient id="gradient_face43" x1="0" x2="1.01" y1="0" y2="1.01">
<stop offset="0%" stop-color="#070D15FF"/>
<stop offset="100%" stop-color="#070D15FF"/>
</linearGradient>
<path d="M795,647.1285 L795,687.3149 Q795,717.45465,760.6092,689.34155 L714.7548,651.8574 Q680.3641,623.7443,688.9623,607.85065 L700.4266,586.6591 Q709.0248,570.76544,734.8174,584.6324 L769.20746,603.1217 Q795,616.98865,795,647.1285 z" fill="url(#gradient_face43)" stroke="none" stroke-width="0"/>
<path d="M800,800 L728,800 L617,665 L620,653 L674,625 L800,728 z" fill="none" stroke="none" stroke-width="0"/>
<linearGradient id="gradient_face44" x1="0" x2="1.01" y1="0" y2="1.01">
<stop offset="0%" stop-color="#070D15FF"/>
<stop offset="100%" stop-color="#070D15FF"/>
</linearGradient>
<path d="M775.6086,795 L749.7534,795 Q730.362,795,697.9918,755.63086 L654.8316,703.13873 Q622.4615,663.76965,623.01416,661.5589 L623.75104,658.6113 Q624.3037,656.40063,639.02716,648.76624 L658.6584,638.5871 Q673.38184,630.9527,709.8673,660.77814 L758.5145,700.5453 Q795,730.3707,795,749.7595 L795,775.6112 Q795,795,775.6086,795 z" fill="url(#gradient_face44)" stroke="none" stroke-width="0"/>
<path d="M728,800 L614,800 L570,718 L617,665 z" fill="none" stroke="none" stroke-width="0"/>
<linearGradient id="gradient_face45" x1="0" x2="1.01" y1="0" y2="1.01">
<stop offset="0%" stop-color="#070D15FF"/>
<stop offset="100%" stop-color="#070D15FF"/>
</linearGradient>
<path d="M687.28845,795 L647.1187,795 Q616.9914,795,604.7103,772.11255 L588.3356,741.59595 Q576.0545,718.7085,588.29504,704.90533 L604.6158,686.5011 Q616.8563,672.69794,647.0242,709.38855 L687.2479,758.3094 Q717.4158,795,687.28845,795 z" fill="url(#gradient_face45)" stroke="none" stroke-width="0"/>
<path d="M614,800 L521,800 L501,733 L570,718 z" fill="none" stroke="none" stroke-width="0"/>
<linearGradient id="gradient_face46" x1="0" x2="1.01" y1="0" y2="1.01">
<stop offset="0%" stop-color="#070D15FF"/>
<stop offset="100%" stop-color="#070D15FF"/>
</linearGradient>
<path d="M581.36755,795 L549.0007,795 Q524.72546,795,519.5081,777.5219 L512.5517,754.21783 Q507.33435,736.73975,525.3472,732.8239 L549.3643,727.6028 Q567.3772,723.68695,578.8569,745.0809 L594.1631,773.6061 Q605.64276,795,581.36755,795 z" fill="url(#gradient_face46)" stroke="none" stroke-width="0"/>
<path d="M521,800 L439,800 L435,760 L481,727 L501,733 z" fill="none" stroke="none" stroke-width="0"/>
<linearGradient id="gradient_face47" x1="0" x2="1.01" y1="0" y2="1.01">
<stop offset="0%" stop-color="#070D15FF"/>
<stop offset="100%" stop-color="#070D15FF"/>
</linearGradient>
<path d="M493.0601,795 L464.7543,795 Q443.52493,795,442.5463,785.21344 L441.2414,772.1647 Q440.26276,762.3781,452.75916,753.41327 L469.42105,741.4602 Q481.91745,732.49536,486.43628,733.851 L492.46143,735.65857 Q496.98026,737.0142,502.17303,754.41 L509.09668,777.60425 Q514.2894,795,493.0601,795 z" fill="url(#gradient_face47)" stroke="none" stroke-width="0"/>
<path d="M439,800 L361,800 L365,760 L435,760 z" fill="none" stroke="none" stroke-width="0"/>
<linearGradient id="gradient_face48" x1="0" x2="1.01" y1="0" y2="1.01">
<stop offset="0%" stop-color="#070D15FF"/>
<stop offset="100%" stop-color="#070D15FF"/>
</linearGradient>
<path d="M413.39,795 L386.61,795 Q366.52493,795,367.42493,786 L368.62494,774 Q369.52493,765,387.80997,765 L412.19003,765 Q430.47507,765,431.37506,774 L432.57507,786 Q433.47507,795,413.39,795 z" fill="url(#gradient_face48)" stroke="none" stroke-width="0"/>
<path d="M361,800 L279,800 L297,741 L323,729 L365,760 z" fill="none" stroke="none" stroke-width="0"/>
<linearGradient id="gradient_face49" x1="0" x2="1.01" y1="0" y2="1.01">
<stop offset="0%" stop-color="#070D15FF"/>
<stop offset="100%" stop-color="#070D15FF"/>
</linearGradient>
<path d="M335.25842,795 L306.96957,795 Q285.75293,795,290.3657,779.8804 L296.51605,759.7209 Q301.12885,744.60126,307.5132,741.6546 L316.02576,737.72577 Q322.41016,734.7791,333.60962,743.04535 L348.54224,754.0671 Q359.74173,762.3334,358.76172,772.13336 L357.45505,785.2 Q356.47507,795,335.25842,795 z" fill="url(#gradient_face49)" stroke="none" stroke-width="0"/>
<path d="M279,800 L186,800 L225,728 L297,741 z" fill="none" stroke="none" stroke-width="0"/>
<linearGradient id="gradient_face50" x1="0" x2="1.01" y1="0" y2="1.01">
<stop offset="0%" stop-color="#070D15FF"/>
<stop offset="100%" stop-color="#070D15FF"/>
</linearGradient>
<path d="M251.02695,795 L218.66568,795 Q194.39473,795,204.37817,776.56903 L217.68942,751.9944 Q227.67287,733.5635,246.54387,736.9707 L271.70523,741.51373 Q290.57623,744.921,285.99274,759.9447 L279.8814,779.9763 Q275.2979,795,251.02695,795 z" fill="url(#gradient_face50)" stroke="none" stroke-width="0"/>
<path d="M186,800 L72,800 L179,669 L225,728 z" fill="none" stroke="none" stroke-width="0"/>
<linearGradient id="gradient_face51" x1="0" x2="1.01" y1="0" y2="1.01">
<stop offset="0%" stop-color="#070D15FF"/>
<stop offset="100%" stop-color="#070D15FF"/>
</linearGradient>
<path d="M152.87732,795 L112.6845,795 Q82.53988,795,111.450645,759.60455 L149.99834,712.4107 Q178.90909,677.01526,190.95006,692.4591 L207.00467,713.0509 Q219.04562,728.49475,208.23853,748.4463 L193.82904,775.0484 Q183.02194,795,152.87732,795 z" fill="url(#gradient_face51)" stroke="none" stroke-width="0"/>
<path d="M0,800 L0,728 L110,638 L178,662 L179,669 L72,800 z" fill="none" stroke="none" stroke-width="0"/>
<linearGradient id="gradient_face52" x1="0" x2="1.01" y1="0" y2="1.01">
<stop offset="0%" stop-color="#070D15FF"/>
<stop offset="100%" stop-color="#070D15FF"/>
</linearGradient>
<path d="M5,775.61084 L5,749.7586 Q5,730.3694,36.796646,704.35394 L79.19217,669.6667 Q110.988815,643.65125,129.7358,650.2679 L154.73177,659.08997 Q173.47874,665.70654,173.55714,666.2553 L173.66167,666.987 Q173.74007,667.53577,142.50645,705.775 L100.86166,756.76074 Q69.62806,795,50.23964,795 L24.388416,795 Q5,795,5,775.61084 z" fill="url(#gradient_face52)" stroke="none" stroke-width="0"/>
<path d="M0,728 L0,614 L77,573 L110,638 z" fill="none" stroke="none" stroke-width="0"/>
<linearGradient id="gradient_face53" x1="0" x2="1.01" y1="0" y2="1.01">
<stop offset="0%" stop-color="#070D15FF"/>
<stop offset="100%" stop-color="#070D15FF"/>
</linearGradient>
<path d="M5,687.3148 L5,647.1362 Q5,617.0023,25.95491,605.8445 L53.89479,590.9674 Q74.8497,579.8096,83.51106,596.8699 L95.05955,619.6169 Q103.72092,636.6771,74.10464,660.9086 L34.616276,693.2173 Q5,717.4488,5,687.3148 z" fill="url(#gradient_face53)" stroke="none" stroke-width="0"/>
<path d="M0,614 L0,521 L45,508 L86,531 L77,573 z" fill="none" stroke="none" stroke-width="0"/>
<linearGradient id="gradient_face54" x1="0" x2="1.01" y1="0" y2="1.01">
<stop offset="0%" stop-color="#070D15FF"/>
<stop offset="100%" stop-color="#070D15FF"/>
</linearGradient>
<path d="M5,581.3991 L5,549.03394 Q5,524.76,16.813425,521.3472 L32.56466,516.7969 Q44.378086,513.38416,55.166225,519.43604 L69.55041,527.5052 Q80.33855,533.55707,78.01641,544.39374 L74.92022,558.8426 Q72.59808,569.67926,52.318657,580.47736 L25.279425,594.8749 Q5,605.67303,5,581.3991 z" fill="url(#gradient_face54)" stroke="none" stroke-width="0"/>
<path d="M0,521 L0,439 L21,437 L45,508 z" fill="none" stroke="none" stroke-width="0"/>
<linearGradient id="gradient_face55" x1="0" x2="1.01" y1="0" y2="1.01">
<stop offset="0%" stop-color="#070D15FF"/>
<stop offset="100%" stop-color="#070D15FF"/>
</linearGradient>
<path d="M5,493.1097 L5,464.78784 Q5,443.54645,8.759455,443.1884 L13.772062,442.711 Q17.531517,442.35297,23.848724,461.04135 L32.271667,485.95923 Q38.588875,504.64764,28.512213,507.5587 L15.076663,511.44006 Q5,514.3511,5,493.1097 z" fill="url(#gradient_face55)" stroke="none" stroke-width="0"/>
<path d="M0,439 L0,361 L48,365 L56,373 L21,437 z" fill="none" stroke="none" stroke-width="0"/>
<linearGradient id="gradient_face56" x1="0" x2="1.01" y1="0" y2="1.01">
<stop offset="0%" stop-color="#070D15FF"/>
<stop offset="100%" stop-color="#070D15FF"/>
</linearGradient>
<path d="M5,413.38104 L5,386.55417 Q5,366.434,17.227867,367.45297 L33.531693,368.81165 Q45.75956,369.83063,46.9765,371.04758 L48.599087,372.67017 Q49.81603,373.8871,40.23693,391.40317 L27.4648,414.7579 Q17.885702,432.274,14.019992,432.64215 L8.86571,433.13303 Q5,433.5012,5,413.38104 z" fill="url(#gradient_face56)" stroke="none" stroke-width="0"/>
<path d="M0,361 L0,279 L27,287 L48,365 z" fill="none" stroke="none" stroke-width="0"/>
<linearGradient id="gradient_face57" x1="0" x2="1.01" y1="0" y2="1.01">
<stop offset="0%" stop-color="#070D15FF"/>
<stop offset="100%" stop-color="#070D15FF"/>
</linearGradient>
<path d="M5,335.18845 L5,306.90723 Q5,285.69635,10.369639,287.28735 L17.529158,289.4087 Q22.898796,290.9997,28.425547,311.52762 L35.794544,338.8982 Q41.321293,359.42612,30.424906,358.51807 L15.896388,357.30737 Q5,356.39932,5,335.18845 z" fill="url(#gradient_face57)" stroke="none" stroke-width="0"/>
<path d="M0,279 L0,186 L78,228 L27,287 z" fill="none" stroke="none" stroke-width="0"/>
<linearGradient id="gradient_face58" x1="0" x2="1.01" y1="0" y2="1.01">
<stop offset="0%" stop-color="#070D15FF"/>
<stop offset="100%" stop-color="#070D15FF"/>
</linearGradient>
<path d="M5,250.99796 L5,218.63974 Q5,194.37108,24.542118,204.89377 L50.598278,218.92401 Q70.140396,229.44669,56.696415,244.99953 L38.771114,265.73663 Q25.327135,281.28946,19.228994,279.4826 L11.098141,277.0735 Q5,275.26663,5,250.99796 z" fill="url(#gradient_face58)" stroke="none" stroke-width="0"/>
<path d="M0,186 L0,72 L101,155 L110,221 L78,228 z" fill="none" stroke="none" stroke-width="0"/>
<linearGradient id="gradient_face59" x1="0" x2="1.01" y1="0" y2="1.01">
<stop offset="0%" stop-color="#070D15FF"/>
<stop offset="100%" stop-color="#070D15FF"/>
</linearGradient>
<path d="M5,152.88367 L5,112.7105 Q5,82.58063,32.393227,105.091896 L68.91753,135.10692 Q96.31075,157.61818,98.74418,175.4633 L101.98875,199.25679 Q104.42217,217.10191,96.717606,218.7873 L86.44485,221.03445 Q78.74028,222.71983,56.618195,210.80794 L27.122084,194.92542 Q5,183.01353,5,152.88367 z" fill="url(#gradient_face59)" stroke="none" stroke-width="0"/>
<path d="M0,0 L72,0 L155,101 L101,155 L0,72 z" fill="none" stroke="none" stroke-width="0"/>
<linearGradient id="gradient_face60" x1="0" x2="1.01" y1="0" y2="1.01">
<stop offset="0%" stop-color="#070D15FF"/>
<stop offset="100%" stop-color="#070D15FF"/>
</linearGradient>
<path d="M24.391157,5 L50.246033,5 Q69.63719,5,93.22341,33.7013 L124.6717,71.9697 Q148.25792,100.67101,133.98184,114.94708 L114.94708,133.98184 Q100.67101,148.25792,71.9697,124.6717 L33.7013,93.22341 Q5,69.63719,5,50.246033 L5,24.391157 Q5,5,24.391157,5 z" fill="url(#gradient_face60)" stroke="none" stroke-width="0"/>
<path d="M72,0 L186,0 L227,75 L225,111 L155,101 z" fill="none" stroke="none" stroke-width="0"/>
<linearGradient id="gradient_face61" x1="0" x2="1.01" y1="0" y2="1.01">
<stop offset="0%" stop-color="#070D15FF"/>
<stop offset="100%" stop-color="#070D15FF"/>
</linearGradient>
<path d="M112.71694,5 L152.89868,5 Q183.03499,5,194.70306,26.344042 L210.2605,54.802765 Q221.92857,76.146805,221.44304,84.88654 L220.79565,96.53952 Q220.3101,105.27925,201.50603,102.59296 L176.43391,99.01122 Q157.62982,96.32493,135.11507,68.92745 L105.09539,32.397476 Q82.58063,5,112.71694,5 z" fill="url(#gradient_face61)" stroke="none" stroke-width="0"/>
<path d="M186,0 L279,0 L283,14 L227,75 z" fill="none" stroke="none" stroke-width="0"/>
<linearGradient id="gradient_face62" x1="0" x2="1.01" y1="0" y2="1.01">
<stop offset="0%" stop-color="#070D15FF"/>
<stop offset="100%" stop-color="#070D15FF"/>
</linearGradient>
<path d="M218.67072,5 L250.98944,5 Q275.2285,5,275.8869,7.30439 L276.76474,10.37691 Q277.42316,12.6813,262.6077,28.819567 L242.85374,50.337254 Q228.0383,66.47552,217.95631,48.032864 L204.51366,23.442656 Q194.43167,5,218.67072,5 z" fill="url(#gradient_face62)" stroke="none" stroke-width="0"/>
<path d="M279,0 L361,0 L365,49 L283,14 z" fill="none" stroke="none" stroke-width="0"/>
<linearGradient id="gradient_face63" x1="0" x2="1.01" y1="0" y2="1.01">
<stop offset="0%" stop-color="#070D15FF"/>
<stop offset="100%" stop-color="#070D15FF"/>
</linearGradient>
<path d="M306.8575,5 L335.16266,5 Q356.39154,5,357.2768,15.844634 L358.45718,30.304146 Q359.34244,41.14878,337.6857,31.90505 L308.81006,19.580076 Q287.15332,10.336347,286.69592,8.735442 L286.08606,6.600904 Q285.62866,5,306.8575,5 z" fill="url(#gradient_face63)" stroke="none" stroke-width="0"/>
<path d="M361,0 L436,0 L376,64 L365,49 z" fill="none" stroke="none" stroke-width="0"/>
<linearGradient id="gradient_face64" x1="0" x2="1.01" y1="0" y2="1.01">
<stop offset="0%" stop-color="#070D15FF"/>
<stop offset="100%" stop-color="#070D15FF"/>
</linearGradient>
<path d="M383.83502,5 L407.0486,5 Q424.45883,5,410.06247,20.356136 L390.86728,40.830986 Q376.47092,56.187122,374.49014,53.486076 L371.84912,49.88468 Q369.86835,47.183636,368.8353,34.528545 L367.45786,17.65509 Q366.4248,5,383.83502,5 z" fill="url(#gradient_face64)" stroke="none" stroke-width="0"/>
<path d="M448,0 L521,0 L511,33 z" fill="none" stroke="none" stroke-width="0"/>
<linearGradient id="gradient_face65" x1="0" x2="1.01" y1="0" y2="1.01">
<stop offset="0%" stop-color="#070D15FF"/>
<stop offset="100%" stop-color="#070D15FF"/>
</linearGradient>
<path d="M482.1029,5 L500.47858,5 Q514.2603,5,512.37244,11.230106 L509.8552,19.536915 Q507.9673,25.767021,496.07346,19.536915 L480.215,11.230106 Q468.32117,5,482.1029,5 z" fill="url(#gradient_face65)" stroke="none" stroke-width="0"/>
<path d="M521,0 L614,0 L581,60 L531,99 L525,96 L511,33 z" fill="none" stroke="none" stroke-width="0"/>
<linearGradient id="gradient_face66" x1="0" x2="1.01" y1="0" y2="1.01">
<stop offset="0%" stop-color="#070D15FF"/>
<stop offset="100%" stop-color="#070D15FF"/>
</linearGradient>
<path d="M548.95966,5 L581.29333,5 Q605.54364,5,597.01483,20.506912 L585.6431,41.182793 Q577.1143,56.689705,563.104,67.61774 L544.4236,82.18845 Q530.4133,93.116486,530.0987,92.95919 L529.67926,92.74946 Q529.3647,92.59216,525.4049,74.773094 L520.1252,51.014328 Q516.16534,33.195255,518.7286,24.73668 L522.1462,13.458576 Q524.70935,5,548.95966,5 z" fill="url(#gradient_face66)" stroke="none" stroke-width="0"/>
<path d="M614,0 L728,0 L663,80 L581,60 z" fill="none" stroke="none" stroke-width="0"/>
<linearGradient id="gradient_face67" x1="0" x2="1.01" y1="0" y2="1.01">
<stop offset="0%" stop-color="#070D15FF"/>
<stop offset="100%" stop-color="#070D15FF"/>
</linearGradient>
<path d="M647.118,5 L687.3335,5 Q717.4951,5,700.58057,25.817966 L678.0278,53.575256 Q661.11316,74.39322,639.3374,69.082054 L610.303,62.0005 Q588.5272,56.689335,597.05597,41.182533 L608.4276,20.5068 Q616.95636,5,647.118,5 z" fill="url(#gradient_face67)" stroke="none" stroke-width="0"/>
<path d="M800,0 L800,72 L660,186 L649,175 L663,80 L728,0 z" fill="none" stroke="none" stroke-width="0"/>
<linearGradient id="gradient_face68" x1="0" x2="1.01" y1="0" y2="1.01">
<stop offset="0%" stop-color="#070D15FF"/>
<stop offset="100%" stop-color="#070D15FF"/>
</linearGradient>
<path d="M795,24.387033 L795,50.23641 Q795,69.62344,754.603,102.51812 L700.7404,146.37769 Q660.34344,179.27237,658.5343,177.46326 L656.1222,175.05112 Q654.31305,173.242,658.3431,145.8956 L663.7164,109.43373 Q667.7464,82.08733,686.53644,58.961132 L711.58984,28.1262 Q730.3799,5,749.76587,5 L775.61395,5 Q795,5,795,24.387033 z" fill="url(#gradient_face68)" stroke="none" stroke-width="0"/>
<path d="M800,72 L800,186 L782,196 L662,192 L660,186 z" fill="none" stroke="none" stroke-width="0"/>
<linearGradient id="gradient_face69" x1="0" x2="1.01" y1="0" y2="1.01">
<stop offset="0%" stop-color="#070D15FF"/>
<stop offset="100%" stop-color="#070D15FF"/>
</linearGradient>
<path d="M795,112.680984 L795,152.89641 Q795,183.05798,790.73474,185.42758 L785.04767,188.58704 Q780.7824,190.95663,746.2407,189.80525 L700.18506,188.27007 Q665.6434,187.11867,665.7011,187.29187 L665.7781,187.5228 Q665.8358,187.69598,704.5851,156.14302 L756.25073,114.07239 Q795,82.51942,795,112.680984 z" fill="url(#gradient_face69)" stroke="none" stroke-width="0"/>
<path d="M800,186 L800,279 L741,296 L782,196 z" fill="none" stroke="none" stroke-width="0"/>
<linearGradient id="gradient_face70" x1="0" x2="1.01" y1="0" y2="1.01">
<stop offset="0%" stop-color="#070D15FF"/>
<stop offset="100%" stop-color="#070D15FF"/>
</linearGradient>
<path d="M795,218.71948 L795,251.01535 Q795,275.23727,781.36414,279.16626 L763.1829,284.40488 Q749.54706,288.33386,760.47125,261.68948 L775.03687,226.1636 Q785.96106,199.51921,788.6727,198.01271 L792.2883,196.00406 Q795,194.49757,795,218.71948 z" fill="url(#gradient_face70)" stroke="none" stroke-width="0"/>
<path d="M800,279 L800,361 L730,367 L729,305 L741,296 z" fill="none" stroke="none" stroke-width="0"/>
<linearGradient id="gradient_face71" x1="0" x2="1.01" y1="0" y2="1.01">
<stop offset="0%" stop-color="#070D15FF"/>
<stop offset="100%" stop-color="#070D15FF"/>
</linearGradient>
<path d="M795,306.87393 L795,335.1804 Q795,356.41025,776.9739,357.95532 L752.939,360.01547 Q734.9129,361.56055,734.6512,345.33328 L734.3022,323.6969 Q734.04047,307.46964,736.80817,305.3939 L740.49835,302.62625 Q743.266,300.5505,758.7862,296.07858 L779.4798,290.11603 Q795,285.6441,795,306.87393 z" fill="url(#gradient_face71)" stroke="none" stroke-width="0"/>
<circle cx="400" cy="400" fill="none" r="0" stroke="none" stroke-width="0"/>
<circle cx="409" cy="405" fill="none" r="0" stroke="none" stroke-width="0"/>
<circle cx="412" cy="416" fill="none" r="0" stroke="none" stroke-width="0"/>
<circle cx="405" cy="430" fill="none" r="0" stroke="none" stroke-width="0"/>
<circle cx="388" cy="438" fill="none" r="0" stroke="none" stroke-width="0"/>
<circle cx="365" cy="435" fill="none" r="0" stroke="none" stroke-width="0"/>
<circle cx="343" cy="419" fill="none" r="0" stroke="none" stroke-width="0"/>
<circle cx="331" cy="389" fill="none" r="0" stroke="none" stroke-width="0"/>
<circle cx="335" cy="353" fill="none" r="0" stroke="none" stroke-width="0"/>
<circle cx="359" cy="320" fill="none" r="0" stroke="none" stroke-width="0"/>
<circle cx="400" cy="300" fill="none" r="0" stroke="none" stroke-width="0"/>
<circle cx="450" cy="302" fill="none" r="0" stroke="none" stroke-width="0"/>
<circle cx="497" cy="329" fill="none" r="0" stroke="none" stroke-width="0"/>
<circle cx="528" cy="380" fill="none" r="0" stroke="none" stroke-width="0"/>
<circle cx="533" cy="443" fill="none" r="0" stroke="none" stroke-width="0"/>
<circle cx="506" cy="506" fill="none" r="0" stroke="none" stroke-width="0"/>
<circle cx="449" cy="552" fill="none" r="0" stroke="none" stroke-width="0"/>
<circle cx="373" cy="568" fill="none" r="0" stroke="none" stroke-width="0"/>
<circle cx="294" cy="546" fill="none" r="0" stroke="none" stroke-width="0"/>
<circle cx="231" cy="486" fill="none" r="0" stroke="none" stroke-width="0"/>
<circle cx="200" cy="400" fill="none" r="0" stroke="none" stroke-width="0"/>
<circle cx="213" cy="305" fill="none" r="0" stroke="none" stroke-width="0"/>
<circle cx="271" cy="222" fill="none" r="0" stroke="none" stroke-width="0"/>
<circle cx="364" cy="173" fill="none" r="0" stroke="none" stroke-width="0"/>
<circle cx="474" cy="172" fill="none" r="0" stroke="none" stroke-width="0"/>
<circle cx="577" cy="223" fill="none" r="0" stroke="none" stroke-width="0"/>
<circle cx="647" cy="320" fill="none" r="0" stroke="none" stroke-width="0"/>
<circle cx="667" cy="442" fill="none" r="0" stroke="none" stroke-width="0"/>
<circle cx="627" cy="565" fill="none" r="0" stroke="none" stroke-width="0"/>
<circle cx="532" cy="658" fill="none" r="0" stroke="none" stroke-width="0"/>
<circle cx="400" cy="700" fill="none" r="0" stroke="none" stroke-width="0"/>
<circle cx="259" cy="676" fill="none" r="0" stroke="none" stroke-width="0"/>
<circle cx="141" cy="588" fill="none" r="0" stroke="none" stroke-width="0"/>
<circle cx="74" cy="452" fill="none" r="0" stroke="none" stroke-width="0"/>
<circle cx="77" cy="295" fill="none" r="0" stroke="none" stroke-width="0"/>
<circle cx="153" cy="153" fill="none" r="0" stroke="none" stroke-width="0"/>
<circle cx="289" cy="58" fill="none" r="0" stroke="none" stroke-width="0"/>
<circle cx="458" cy="35" fill="none" r="0" stroke="none" stroke-width="0"/>
<circle cx="623" cy="93" fill="none" r="0" stroke="none" stroke-width="0"/>
<circle cx="747" cy="223" fill="none" r="0" stroke="none" stroke-width="0"/>
<circle cx="820" cy="400" fill="none" r="0" stroke="none" stroke-width="0"/>
<circle cx="812" cy="482" fill="none" r="0" stroke="none" stroke-width="0"/>
<circle cx="788" cy="561" fill="none" r="0" stroke="none" stroke-width="0"/>
<circle cx="749" cy="633" fill="none" r="0" stroke="none" stroke-width="0"/>
<circle cx="697" cy="697" fill="none" r="0" stroke="none" stroke-width="0"/>
<circle cx="633" cy="749" fill="none" r="0" stroke="none" stroke-width="0"/>
<circle cx="561" cy="788" fill="none" r="0" stroke="none" stroke-width="0"/>
<circle cx="482" cy="812" fill="none" r="0" stroke="none" stroke-width="0"/>
<circle cx="400" cy="820" fill="none" r="0" stroke="none" stroke-width="0"/>
<circle cx="318" cy="812" fill="none" r="0" stroke="none" stroke-width="0"/>
<circle cx="239" cy="788" fill="none" r="0" stroke="none" stroke-width="0"/>
<circle cx="167" cy="749" fill="none" r="0" stroke="none" stroke-width="0"/>
<circle cx="103" cy="697" fill="none" r="0" stroke="none" stroke-width="0"/>
<circle cx="51" cy="633" fill="none" r="0" stroke="none" stroke-width="0"/>
<circle cx="12" cy="561" fill="none" r="0" stroke="none" stroke-width="0"/>
<circle cx="-12" cy="482" fill="none" r="0" stroke="none" stroke-width="0"/>
<circle cx="-20" cy="400" fill="none" r="0" stroke="none" stroke-width="0"/>
<circle cx="-12" cy="318" fill="none" r="0" stroke="none" stroke-width="0"/>
<circle cx="12" cy="239" fill="none" r="0" stroke="none" stroke-width="0"/>
<circle cx="51" cy="167" fill="none" r="0" stroke="none" stroke-width="0"/>
<circle cx="103" cy="103" fill="none" r="0" stroke="none" stroke-width="0"/>
<circle cx="167" cy="51" fill="none" r="0" stroke="none" stroke-width="0"/>
<circle cx="239" cy="12" fill="none" r="0" stroke="none" stroke-width="0"/>
<circle cx="318" cy="-12" fill="none" r="0" stroke="none" stroke-width="0"/>
<circle cx="400" cy="-20" fill="none" r="0" stroke="none" stroke-width="0"/>
<circle cx="482" cy="-12" fill="none" r="0" stroke="none" stroke-width="0"/>
<circle cx="561" cy="12" fill="none" r="0" stroke="none" stroke-width="0"/>
<circle cx="633" cy="51" fill="none" r="0" stroke="none" stroke-width="0"/>
<circle cx="697" cy="103" fill="none" r="0" stroke="none" stroke-width="0"/>
<circle cx="749" cy="167" fill="none" r="0" stroke="none" stroke-width="0"/>
<circle cx="788" cy="239" fill="none" r="0" stroke="none" stroke-width="0"/>
<circle cx="812" cy="318" fill="none" r="0" stroke="none" stroke-width="0"/>
<circle cx="365" cy="760" fill="none" r="0" stroke="none" stroke-width="0"/>
<circle cx="435" cy="760" fill="none" r="0" stroke="none" stroke-width="0"/>
<circle cx="297" cy="741" fill="none" r="0" stroke="none" stroke-width="0"/>
<circle cx="225" cy="728" fill="none" r="0" stroke="none" stroke-width="0"/>
<circle cx="501" cy="733" fill="none" r="0" stroke="none" stroke-width="0"/>
<circle cx="570" cy="718" fill="none" r="0" stroke="none" stroke-width="0"/>
<circle cx="323" cy="729" fill="none" r="0" stroke="none" stroke-width="0"/>
<circle cx="481" cy="727" fill="none" r="0" stroke="none" stroke-width="0"/>
<circle cx="179" cy="669" fill="none" r="0" stroke="none" stroke-width="0"/>
<circle cx="178" cy="662" fill="none" r="0" stroke="none" stroke-width="0"/>
<circle cx="110" cy="638" fill="none" r="0" stroke="none" stroke-width="0"/>
<circle cx="617" cy="665" fill="none" r="0" stroke="none" stroke-width="0"/>
<circle cx="620" cy="653" fill="none" r="0" stroke="none" stroke-width="0"/>
<circle cx="337" cy="644" fill="none" r="0" stroke="none" stroke-width="0"/>
<circle cx="452" cy="635" fill="none" r="0" stroke="none" stroke-width="0"/>
<circle cx="674" cy="625" fill="none" r="0" stroke="none" stroke-width="0"/>
<circle cx="425" cy="626" fill="none" r="0" stroke="none" stroke-width="0"/>
<circle cx="316" cy="621" fill="none" r="0" stroke="none" stroke-width="0"/>
<circle cx="226" cy="597" fill="none" r="0" stroke="none" stroke-width="0"/>
<circle cx="77" cy="573" fill="none" r="0" stroke="none" stroke-width="0"/>
<circle cx="521" cy="582" fill="none" r="0" stroke="none" stroke-width="0"/>
<circle cx="546" cy="578" fill="none" r="0" stroke="none" stroke-width="0"/>
<circle cx="217" cy="565" fill="none" r="0" stroke="none" stroke-width="0"/>
<circle cx="707" cy="564" fill="none" r="0" stroke="none" stroke-width="0"/>
<circle cx="86" cy="531" fill="none" r="0" stroke="none" stroke-width="0"/>
<circle cx="45" cy="508" fill="none" r="0" stroke="none" stroke-width="0"/>
<circle cx="400" cy="505" fill="none" r="0" stroke="none" stroke-width="0"/>
<circle cx="369" cy="502" fill="none" r="0" stroke="none" stroke-width="0"/>
<circle cx="349" cy="503" fill="none" r="0" stroke="none" stroke-width="0"/>
<circle cx="706" cy="523" fill="none" r="0" stroke="none" stroke-width="0"/>
<circle cx="425" cy="492" fill="none" r="0" stroke="none" stroke-width="0"/>
<circle cx="583" cy="502" fill="none" r="0" stroke="none" stroke-width="0"/>
<circle cx="442" cy="485" fill="none" r="0" stroke="none" stroke-width="0"/>
<circle cx="729" cy="500" fill="none" r="0" stroke="none" stroke-width="0"/>
<circle cx="145" cy="501" fill="none" r="0" stroke="none" stroke-width="0"/>
<circle cx="313" cy="480" fill="none" r="0" stroke="none" stroke-width="0"/>
<circle cx="600" cy="488" fill="none" r="0" stroke="none" stroke-width="0"/>
<circle cx="301" cy="475" fill="none" r="0" stroke="none" stroke-width="0"/>
<circle cx="399" cy="413" fill="none" r="0" stroke="none" stroke-width="0"/>
<circle cx="395" cy="416" fill="none" r="0" stroke="none" stroke-width="0"/>
<circle cx="388" cy="417" fill="none" r="0" stroke="none" stroke-width="0"/>
<circle cx="379" cy="414" fill="none" r="0" stroke="none" stroke-width="0"/>
<circle cx="466" cy="453" fill="none" r="0" stroke="none" stroke-width="0"/>
<circle cx="467" cy="452" fill="none" r="0" stroke="none" stroke-width="0"/>
<circle cx="153" cy="465" fill="none" r="0" stroke="none" stroke-width="0"/>
<circle cx="21" cy="437" fill="none" r="0" stroke="none" stroke-width="0"/>
<circle cx="370" cy="406" fill="none" r="0" stroke="none" stroke-width="0"/>
<circle cx="273" cy="430" fill="none" r="0" stroke="none" stroke-width="0"/>
<circle cx="366" cy="392" fill="none" r="0" stroke="none" stroke-width="0"/>
<circle cx="747" cy="434" fill="none" r="0" stroke="none" stroke-width="0"/>
<circle cx="268" cy="424" fill="none" r="0" stroke="none" stroke-width="0"/>
<circle cx="476" cy="416" fill="none" r="0" stroke="none" stroke-width="0"/>
<circle cx="368" cy="375" fill="none" r="0" stroke="none" stroke-width="0"/>
<circle cx="469" cy="396" fill="none" r="0" stroke="none" stroke-width="0"/>
<circle cx="600" cy="406" fill="none" r="0" stroke="none" stroke-width="0"/>
<circle cx="467" cy="383" fill="none" r="0" stroke="none" stroke-width="0"/>
<circle cx="380" cy="360" fill="none" r="0" stroke="none" stroke-width="0"/>
<circle cx="608" cy="389" fill="none" r="0" stroke="none" stroke-width="0"/>
<circle cx="447" cy="360" fill="none" r="0" stroke="none" stroke-width="0"/>
<circle cx="399" cy="350" fill="none" r="0" stroke="none" stroke-width="0"/>
<circle cx="429" cy="353" fill="none" r="0" stroke="none" stroke-width="0"/>
<circle cx="423" cy="350" fill="none" r="0" stroke="none" stroke-width="0"/>
<circle cx="56" cy="373" fill="none" r="0" stroke="none" stroke-width="0"/>
<circle cx="263" cy="362" fill="none" r="0" stroke="none" stroke-width="0"/>
<circle cx="48" cy="365" fill="none" r="0" stroke="none" stroke-width="0"/>
<circle cx="262" cy="360" fill="none" r="0" stroke="none" stroke-width="0"/>
<circle cx="116" cy="374" fill="none" r="0" stroke="none" stroke-width="0"/>
<circle cx="729" cy="370" fill="none" r="0" stroke="none" stroke-width="0"/>
<circle cx="730" cy="367" fill="none" r="0" stroke="none" stroke-width="0"/>
<circle cx="142" cy="344" fill="none" r="0" stroke="none" stroke-width="0"/>
<circle cx="572" cy="318" fill="none" r="0" stroke="none" stroke-width="0"/>
<circle cx="27" cy="287" fill="none" r="0" stroke="none" stroke-width="0"/>
<circle cx="571" cy="302" fill="none" r="0" stroke="none" stroke-width="0"/>
<circle cx="741" cy="296" fill="none" r="0" stroke="none" stroke-width="0"/>
<circle cx="729" cy="305" fill="none" r="0" stroke="none" stroke-width="0"/>
<circle cx="287" cy="295" fill="none" r="0" stroke="none" stroke-width="0"/>
<circle cx="289" cy="294" fill="none" r="0" stroke="none" stroke-width="0"/>
<circle cx="509" cy="255" fill="none" r="0" stroke="none" stroke-width="0"/>
<circle cx="349" cy="246" fill="none" r="0" stroke="none" stroke-width="0"/>
<circle cx="343" cy="246" fill="none" r="0" stroke="none" stroke-width="0"/>
<circle cx="502" cy="244" fill="none" r="0" stroke="none" stroke-width="0"/>
<circle cx="78" cy="228" fill="none" r="0" stroke="none" stroke-width="0"/>
<circle cx="428" cy="230" fill="none" r="0" stroke="none" stroke-width="0"/>
<circle cx="149" cy="242" fill="none" r="0" stroke="none" stroke-width="0"/>
<circle cx="782" cy="196" fill="none" r="0" stroke="none" stroke-width="0"/>
<circle cx="420" cy="226" fill="none" r="0" stroke="none" stroke-width="0"/>
<circle cx="662" cy="235" fill="none" r="0" stroke="none" stroke-width="0"/>
<circle cx="189" cy="226" fill="none" r="0" stroke="none" stroke-width="0"/>
<circle cx="110" cy="221" fill="none" r="0" stroke="none" stroke-width="0"/>
<circle cx="101" cy="155" fill="none" r="0" stroke="none" stroke-width="0"/>
<circle cx="662" cy="192" fill="none" r="0" stroke="none" stroke-width="0"/>
<circle cx="660" cy="186" fill="none" r="0" stroke="none" stroke-width="0"/>
<circle cx="649" cy="175" fill="none" r="0" stroke="none" stroke-width="0"/>
<circle cx="287" cy="141" fill="none" r="0" stroke="none" stroke-width="0"/>
<circle cx="554" cy="141" fill="none" r="0" stroke="none" stroke-width="0"/>
<circle cx="155" cy="101" fill="none" r="0" stroke="none" stroke-width="0"/>
<circle cx="242" cy="136" fill="none" r="0" stroke="none" stroke-width="0"/>
<circle cx="663" cy="80" fill="none" r="0" stroke="none" stroke-width="0"/>
<circle cx="225" cy="111" fill="none" r="0" stroke="none" stroke-width="0"/>
<circle cx="418" cy="109" fill="none" r="0" stroke="none" stroke-width="0"/>
<circle cx="227" cy="75" fill="none" r="0" stroke="none" stroke-width="0"/>
<circle cx="581" cy="60" fill="none" r="0" stroke="none" stroke-width="0"/>
<circle cx="531" cy="99" fill="none" r="0" stroke="none" stroke-width="0"/>
<circle cx="525" cy="96" fill="none" r="0" stroke="none" stroke-width="0"/>
<circle cx="378" cy="81" fill="none" r="0" stroke="none" stroke-width="0"/>
<circle cx="511" cy="33" fill="none" r="0" stroke="none" stroke-width="0"/>
<circle cx="376" cy="64" fill="none" r="0" stroke="none" stroke-width="0"/>
<circle cx="365" cy="49" fill="none" r="0" stroke="none" stroke-width="0"/>
<circle cx="283" cy="14" fill="none" r="0" stroke="none" stroke-width="0"/>
<circle cx="0" cy="0" fill="none" r="0" stroke="none" stroke-width="0"/>
<circle cx="800" cy="0" fill="none" r="0" stroke="none" stroke-width="0"/>
<circle cx="800" cy="800" fill="none" r="0" stroke="none" stroke-width="0"/>
<circle cx="0" cy="800" fill="none" r="0" stroke="none" stroke-width="0"/>
<circle cx="436" cy="0" fill="none" r="0" stroke="none" stroke-width="0"/>
<circle cx="448" cy="0" fill="none" r="0" stroke="none" stroke-width="0"/>
<circle cx="800" cy="361" fill="none" r="0" stroke="none" stroke-width="0"/>
<circle cx="800" cy="439" fill="none" r="0" stroke="none" stroke-width="0"/>
<circle cx="800" cy="521" fill="none" r="0" stroke="none" stroke-width="0"/>
<circle cx="800" cy="614" fill="none" r="0" stroke="none" stroke-width="0"/>
<circle cx="800" cy="728" fill="none" r="0" stroke="none" stroke-width="0"/>
<circle cx="728" cy="800" fill="none" r="0" stroke="none" stroke-width="0"/>
<circle cx="614" cy="800" fill="none" r="0" stroke="none" stroke-width="0"/>
<circle cx="521" cy="800" fill="none" r="0" stroke="none" stroke-width="0"/>
<circle cx="439" cy="800" fill="none" r="0" stroke="none" stroke-width="0"/>
<circle cx="361" cy="800" fill="none" r="0" stroke="none" stroke-width="0"/>
<circle cx="279" cy="800" fill="none" r="0" stroke="none" stroke-width="0"/>
<circle cx="186" cy="800" fill="none" r="0" stroke="none" stroke-width="0"/>
<circle cx="72" cy="800" fill="none" r="0" stroke="none" stroke-width="0"/>
<circle cx="0" cy="728" fill="none" r="0" stroke="none" stroke-width="0"/>
<circle cx="0" cy="614" fill="none" r="0" stroke="none" stroke-width="0"/>
<circle cx="0" cy="521" fill="none" r="0" stroke="none" stroke-width="0"/>
<circle cx="0" cy="439" fill="none" r="0" stroke="none" stroke-width="0"/>
<circle cx="0" cy="361" fill="none" r="0" stroke="none" stroke-width="0"/>
<circle cx="0" cy="279" fill="none" r="0" stroke="none" stroke-width="0"/>
<circle cx="0" cy="186" fill="none" r="0" stroke="none" stroke-width="0"/>
<circle cx="0" cy="72" fill="none" r="0" stroke="none" stroke-width="0"/>
<circle cx="72" cy="0" fill="none" r="0" stroke="none" stroke-width="0"/>
<circle cx="186" cy="0" fill="none" r="0" stroke="none" stroke-width="0"/>
<circle cx="279" cy="0" fill="none" r="0" stroke="none" stroke-width="0"/>
<circle cx="361" cy="0" fill="none" r="0" stroke="none" stroke-width="0"/>
<circle cx="521" cy="0" fill="none" r="0" stroke="none" stroke-width="0"/>
<circle cx="614" cy="0" fill="none" r="0" stroke="none" stroke-width="0"/>
<circle cx="728" cy="0" fill="none" r="0" stroke="none" stroke-width="0"/>
<circle cx="800" cy="72" fill="none" r="0" stroke="none" stroke-width="0"/>
<circle cx="800" cy="186" fill="none" r="0" stroke="none" stroke-width="0"/>
<circle cx="800" cy="279" fill="none" r="0" stroke="none" stroke-width="0"/>
</svg>