<svg 
            xmlns:xlink="http://www.w3.org/1999/xlink" viewBox="0 0 800 800" xmlns="http://www.w3.org/2000/svg">
<rect fill="#1B0E24" height="800" stroke="none" width="800" x="0" y="0"/>
<path d="M409,382 L435,409 L432,413 L379,413 z" fill="none" stroke="none" stroke-width="0"/>
<linearGradient id="gradient_face0" x1="0" x2="1.01" y1="0" y2="1.01">
<stop offset="0%" stop-color="#FFF430FF"/>
<stop offset="100%" stop-color="#FFF430FF"/>
</linearGradient>
<path d="M414.82794,395.26044 L422.61044,403.34225 Q428.4473,409.4036,428.76312,408.9825 L429.1842,408.42108 Q429.5,408,417.889,408 L402.40765,408 Q390.79666,408,396.255,402.3597 L403.53278,394.83936 Q408.9911,389.1991,414.82794,395.26044 z" fill="url(#gradient_face0)" stroke="none" stroke-width="0"/>
<path d="M362,354 L397,358 L409,382 L379,413 L374,414 z" fill="none" stroke="none" stroke-width="0"/>
<linearGradient id="gradient_face1" x1="0" x2="1.01" y1="0" y2="1.01">
<stop offset="0%" stop-color="#FFFBBBFF"/>
<stop offset="100%" stop-color="#FFFDDAFF"/>
</linearGradient>
<path d="M375.89578,360.62064 L386.09238,361.78595 Q393.7398,362.65994,396.50104,368.1824 L400.18265,375.54565 Q402.94388,381.0681,395.008,389.26852 L384.42685,400.2024 Q376.49097,408.4028,376.92038,408.3169 L377.49292,408.2024 Q377.92233,408.11652,375.02014,393.60556 L371.15054,374.2576 Q368.24835,359.74664,375.89578,360.62064 z" fill="url(#gradient_face1)" stroke="none" stroke-width="0"/>
<path d="M374,414 L379,413 L432,413 L405,475 L388,475 L364,435 z" fill="none" stroke="none" stroke-width="0"/>
<linearGradient id="gradient_face2" x1="0" x2="1.01" y1="0" y2="1.01">
<stop offset="0%" stop-color="#DCC4EEFF"/>
<stop offset="100%" stop-color="#BE93E1FF"/>
</linearGradient>
<path d="M378.05457,418.28812 L378.87772,418.12347 Q379.4951,418,392.95728,418 L410.90686,418 Q424.36905,418,417.5755,433.6 L408.51743,454.4 Q401.72388,470,398.456,470 L394.09882,470 Q390.83096,470,384.48193,459.41833 L376.0166,445.30942 Q369.6676,434.72775,371.99847,429.8329 L375.10632,423.30643 Q377.4372,418.4116,378.05457,418.28812 z" fill="url(#gradient_face2)" stroke="none" stroke-width="0"/>
<path d="M452,328 L476,352 L457,403 L435,409 L409,382 L397,358 z" fill="none" stroke="none" stroke-width="0"/>
<linearGradient id="gradient_face3" x1="0" x2="1.01" y1="0" y2="1.01">
<stop offset="0%" stop-color="#9856CBFF"/>
<stop offset="100%" stop-color="#512E6DFF"/>
</linearGradient>
<path d="M456.8349,339.90598 L464.46826,347.5393 Q470.19327,353.26434,465.09827,366.94034 L458.30496,385.17502 Q453.21,398.851,448.21048,400.21454 L441.54446,402.03253 Q436.54495,403.39603,429.52072,396.10165 L420.1551,386.37582 Q413.1309,379.08142,410.28055,373.38077 L406.4801,365.77988 Q403.62976,360.0792,417.8738,352.30972 L436.86584,341.95044 Q451.1099,334.18097,456.8349,339.90598 z" fill="url(#gradient_face3)" stroke="none" stroke-width="0"/>
<path d="M359,352 L362,354 L374,414 L364,435 L300,422 L300,373 z" fill="none" stroke="none" stroke-width="0"/>
<linearGradient id="gradient_face4" x1="0" x2="1.01" y1="0" y2="1.01">
<stop offset="0%" stop-color="#FFF430FF"/>
<stop offset="100%" stop-color="#FFF430FF"/>
</linearGradient>
<path d="M358.07047,357.38956 L357.74634,357.1735 Q357.50327,357.01144,360.88364,373.91327 L365.39078,396.44904 Q368.77115,413.35086,366.48953,418.14227 L363.4474,424.5308 Q361.16577,429.32217,344.31604,425.8996 L321.84973,421.33612 Q305,417.9135,305,405.49774 L305,388.9434 Q305,376.52762,320.99405,370.8348 L342.3195,363.24442 Q358.31354,357.5516,358.07047,357.38956 z" fill="url(#gradient_face4)" stroke="none" stroke-width="0"/>
<path d="M435,409 L457,403 L501,458 L456,503 L405,475 L432,413 z" fill="none" stroke="none" stroke-width="0"/>
<linearGradient id="gradient_face5" x1="0" x2="1.01" y1="0" y2="1.01">
<stop offset="0%" stop-color="#FFFBBBFF"/>
<stop offset="100%" stop-color="#FFFDDAFF"/>
</linearGradient>
<path d="M443.12363,411.96707 L449.99426,410.09326 Q455.14722,408.68793,466.89307,423.3702 L482.55417,442.94662 Q494.30002,457.6289,482.54526,469.3837 L466.87222,485.0567 Q455.11746,496.81146,442.004,489.61194 L424.5194,480.01254 Q411.40594,472.813,418.8894,455.62878 L428.8673,432.71652 Q436.35077,415.53232,436.83673,414.88434 L437.4847,414.0204 Q437.97067,413.37244,443.12363,411.96707 z" fill="url(#gradient_face5)" stroke="none" stroke-width="0"/>
<path d="M363,275 L440,275 L452,328 L397,358 L362,354 L359,352 z" fill="none" stroke="none" stroke-width="0"/>
<linearGradient id="gradient_face6" x1="0" x2="1.01" y1="0" y2="1.01">
<stop offset="0%" stop-color="#DCC4EEFF"/>
<stop offset="100%" stop-color="#BE93E1FF"/>
</linearGradient>
<path d="M388.22455,280 L415.52795,280 Q436.00552,280,439.0906,293.62585 L443.2041,311.79367 Q446.28918,325.41956,431.201,333.64948 L411.0834,344.6227 Q395.99524,352.85263,386.32712,351.74768 L373.43628,350.27444 Q363.76816,349.16953,363.87997,349.24408 L364.02905,349.34344 Q364.14087,349.418,365.22272,328.5926 L366.66516,300.8254 Q367.747,280,388.22455,280 z" fill="url(#gradient_face6)" stroke="none" stroke-width="0"/>
<path d="M270,465 L300,422 L364,435 L388,475 L334,528 z" fill="none" stroke="none" stroke-width="0"/>
<linearGradient id="gradient_face7" x1="0" x2="1.01" y1="0" y2="1.01">
<stop offset="0%" stop-color="#9856CBFF"/>
<stop offset="100%" stop-color="#512E6DFF"/>
</linearGradient>
<path d="M284.22806,453.34494 L294.51038,438.60696 Q302.2221,427.55347,319.80923,431.12585 L343.25876,435.88904 Q360.84592,439.46143,367.0975,449.88077 L375.43298,463.77322 Q381.68457,474.19257,367.38077,488.2315 L348.309,506.9501 Q334.00516,520.989,316.7585,504.01187 L293.76297,481.3756 Q276.5163,464.39844,284.22806,453.34494 z" fill="url(#gradient_face7)" stroke="none" stroke-width="0"/>
<path d="M476,352 L550,350 L550,452 L501,458 L457,403 z" fill="none" stroke="none" stroke-width="0"/>
<linearGradient id="gradient_face8" x1="0" x2="1.01" y1="0" y2="1.01">
<stop offset="0%" stop-color="#FFF430FF"/>
<stop offset="100%" stop-color="#FFF430FF"/>
</linearGradient>
<path d="M499.15533,356.376 L525.3523,355.66797 Q545,355.13696,545,382.86835 L545,419.8435 Q545,447.5749,532.4484,449.11182 L515.7131,451.16104 Q503.1615,452.69797,491.0155,437.51547 L474.82086,417.27216 Q462.67487,402.08966,467.72467,388.53488 L474.4578,370.46182 Q479.5076,356.907,499.15533,356.376 z" fill="url(#gradient_face8)" stroke="none" stroke-width="0"/>
<path d="M326,244 L363,275 L359,352 L300,373 L245,325 z" fill="none" stroke="none" stroke-width="0"/>
<linearGradient id="gradient_face9" x1="0" x2="1.01" y1="0" y2="1.01">
<stop offset="0%" stop-color="#FFFBBBFF"/>
<stop offset="100%" stop-color="#FFFDDAFF"/>
</linearGradient>
<path d="M335.77197,258.7103 L348.40363,269.29358 Q357.87735,277.23105,356.7681,298.58423 L355.2891,327.05518 Q354.17984,348.4084,338.2504,354.0782 L317.01117,361.6379 Q301.08173,367.3077,286.45306,354.54086 L266.94818,337.5184 Q252.3195,324.75156,274.51312,302.55795 L304.1046,272.96646 Q326.29822,250.77284,335.77197,258.7103 z" fill="url(#gradient_face9)" stroke="none" stroke-width="0"/>
<path d="M388,475 L405,475 L456,503 L462,575 L336,575 L334,528 z" fill="none" stroke="none" stroke-width="0"/>
<linearGradient id="gradient_face10" x1="0" x2="1.01" y1="0" y2="1.01">
<stop offset="0%" stop-color="#DCC4EEFF"/>
<stop offset="100%" stop-color="#BE93E1FF"/>
</linearGradient>
<path d="M394.14594,480 L399.61554,480 Q403.7177,480,417.9745,487.82724 L436.9835,498.26355 Q451.24023,506.0908,452.83795,525.26355 L454.96826,550.8272 Q456.566,570,421.83374,570 L375.52402,570 Q340.79175,570,340.28125,558.00305 L339.60056,542.0071 Q339.09006,530.0101,354.37616,515.0071 L374.75763,495.00302 Q390.04376,480,394.14594,480 z" fill="url(#gradient_face10)" stroke="none" stroke-width="0"/>
<path d="M440,275 L484,219 L582,316 L550,350 L476,352 L452,328 z" fill="none" stroke="none" stroke-width="0"/>
<linearGradient id="gradient_face11" x1="0" x2="1.01" y1="0" y2="1.01">
<stop offset="0%" stop-color="#9856CBFF"/>
<stop offset="100%" stop-color="#512E6DFF"/>
</linearGradient>
<path d="M457.1218,261.30154 L472.74796,241.41374 Q484.46756,226.49788,511.6325,253.38562 L547.8524,289.23593 Q575.01733,316.1237,566.84766,324.804 L555.9547,336.37775 Q547.78503,345.05804,526.85394,345.62375 L498.94586,346.37802 Q478.0148,346.94373,471.57758,340.5065 L462.99463,331.92358 Q456.55743,325.48636,453.21088,310.7057 L448.74878,290.9981 Q445.4022,276.21744,457.1218,261.30154 z" fill="url(#gradient_face11)" stroke="none" stroke-width="0"/>
<path d="M200,325 L245,325 L300,373 L300,422 L270,465 L200,474 z" fill="none" stroke="none" stroke-width="0"/>
<linearGradient id="gradient_face12" x1="0" x2="1.01" y1="0" y2="1.01">
<stop offset="0%" stop-color="#FFF430FF"/>
<stop offset="100%" stop-color="#FFF430FF"/>
</linearGradient>
<path d="M216.4375,330 L231.6875,330 Q243.125,330,258.6875,343.58182 L279.4375,361.69092 Q295,375.27274,295,388.81937 L295,406.88153 Q295,420.4282,286.64987,432.39667 L275.5164,448.35468 Q267.1663,460.32318,248.5164,462.721 L223.64989,465.91815 Q205,468.31598,205,426.8212 L205,371.49478 Q205,330,216.4375,330 z" fill="url(#gradient_face12)" stroke="none" stroke-width="0"/>
<path d="M501,458 L550,452 L607,494 L493,607 L462,575 L456,503 z" fill="none" stroke="none" stroke-width="0"/>
<linearGradient id="gradient_face13" x1="0" x2="1.01" y1="0" y2="1.01">
<stop offset="0%" stop-color="#FFFBBBFF"/>
<stop offset="100%" stop-color="#FFFDDAFF"/>
</linearGradient>
<path d="M516.9126,461.08887 L535.03937,458.86926 Q548.63446,457.20456,563.8437,468.41138 L584.12274,483.35382 Q599.332,494.56064,567.45404,526.15894 L524.9501,568.2901 Q493.0721,599.8884,485.20078,591.7632 L474.7057,580.9295 Q466.83435,572.80426,465.13663,552.4317 L462.87302,525.2683 Q461.17532,504.89575,473.81796,492.2531 L490.67484,475.39624 Q503.3175,462.75357,516.9126,461.08887 z" fill="url(#gradient_face13)" stroke="none" stroke-width="0"/>
<path d="M315,175 L486,175 L484,219 L440,275 L363,275 L326,244 z" fill="none" stroke="none" stroke-width="0"/>
<linearGradient id="gradient_face14" x1="0" x2="1.01" y1="0" y2="1.01">
<stop offset="0%" stop-color="#DCC4EEFF"/>
<stop offset="100%" stop-color="#BE93E1FF"/>
</linearGradient>
<path d="M368.83243,180 L432.79538,180 Q480.76758,180,480.26068,191.15144 L479.58484,206.02003 Q479.07794,217.17148,466.62552,233.02003 L450.02225,254.15144 Q437.56982,270,415.7442,270 L386.64337,270 Q364.81775,270,354.56546,261.41025 L340.89575,249.95724 Q330.64346,241.3675,327.7085,222.95724 L323.7952,198.41025 Q320.86023,180,368.83243,180 z" fill="url(#gradient_face14)" stroke="none" stroke-width="0"/>
<path d="M167,503 L200,474 L270,465 L334,528 L336,575 L296,632 z" fill="none" stroke="none" stroke-width="0"/>
<linearGradient id="gradient_face15" x1="0" x2="1.01" y1="0" y2="1.01">
<stop offset="0%" stop-color="#9856CBFF"/>
<stop offset="100%" stop-color="#512E6DFF"/>
</linearGradient>
<path d="M182.66045,495.89413 L193.79901,486.10568 Q202.15294,478.76434,221.97472,476.21585 L248.40376,472.8178 Q268.22552,470.26932,286.48438,488.24283 L310.82947,512.2075 Q329.0883,530.1811,329.6415,543.1819 L330.37915,560.51624 Q330.93237,573.517,320.2506,588.7385 L306.00824,609.0339 Q295.32648,624.25543,259.0205,587.9494 L210.6125,539.54144 Q174.30652,503.23544,182.66045,495.89413 z" fill="url(#gradient_face15)" stroke="none" stroke-width="0"/>
<path d="M582,316 L650,303 L650,497 L607,494 L550,452 L550,350 z" fill="none" stroke="none" stroke-width="0"/>
<linearGradient id="gradient_face16" x1="0" x2="1.01" y1="0" y2="1.01">
<stop offset="0%" stop-color="#FFF430FF"/>
<stop offset="100%" stop-color="#FFF430FF"/>
</linearGradient>
<path d="M602.6713,317.13867 L626.85913,312.51453 Q645,309.04645,645,363.82422 L645,436.86124 Q645,491.639,634.13904,490.88126 L619.6578,489.87094 Q608.7968,489.1132,592.6578,477.22128 L571.13904,461.3654 Q555,449.47345,555,420.2263 L555,381.23007 Q555,351.98288,563.85913,342.57007 L575.6713,330.01962 Q584.53046,320.60678,602.6713,317.13867 z" fill="url(#gradient_face16)" stroke="none" stroke-width="0"/>
<path d="M287,142 L315,175 L326,244 L245,325 L200,325 L142,287 z" fill="none" stroke="none" stroke-width="0"/>
<linearGradient id="gradient_face17" x1="0" x2="1.01" y1="0" y2="1.01">
<stop offset="0%" stop-color="#FFFBBBFF"/>
<stop offset="100%" stop-color="#FFFDDAFF"/>
</linearGradient>
<path d="M293.77362,157.71143 L303.20728,168.8297 Q310.28253,177.1684,313.39603,196.69832 L317.5473,222.73824 Q320.66077,242.26816,297.34122,265.5877 L266.24847,296.68045 Q242.92892,320,230.49788,320 L213.92313,320 Q201.49207,320,186.00952,309.85626 L165.3661,296.33127 Q149.88354,286.18753,190.928,245.14308 L245.6539,190.41716 Q286.69833,149.37273,293.77362,157.71143 z" fill="url(#gradient_face17)" stroke="none" stroke-width="0"/>
<path d="M462,575 L493,607 L508,675 L292,675 L296,632 L336,575 z" fill="none" stroke="none" stroke-width="0"/>
<linearGradient id="gradient_face18" x1="0" x2="1.01" y1="0" y2="1.01">
<stop offset="0%" stop-color="#DCC4EEFF"/>
<stop offset="100%" stop-color="#BE93E1FF"/>
</linearGradient>
<path d="M468.4444,588.8383 L479.86057,600.62274 Q488.42267,609.46106,492.42892,627.62274 L497.7706,651.8383 Q501.77686,670,440.4898,670 L358.77374,670 Q297.4867,670,298.49734,659.13556 L299.84488,644.64966 Q300.85553,633.7852,312.1787,617.64966 L327.27634,596.13556 Q338.59955,580,374.98438,580 L423.49747,580 Q459.8823,580,468.4444,588.8383 z" fill="url(#gradient_face18)" stroke="none" stroke-width="0"/>
<path d="M519,123 L530,123 L677,270 L676,283 L650,303 L582,316 L484,219 L486,175 z" fill="none" stroke="none" stroke-width="0"/>
<linearGradient id="gradient_face19" x1="0" x2="1.01" y1="0" y2="1.01">
<stop offset="0%" stop-color="#9856CBFF"/>
<stop offset="100%" stop-color="#512E6DFF"/>
</linearGradient>
<path d="M523.60284,128 L526.0749,128 Q527.92896,128,571.10175,171.17282 L628.6655,228.73659 Q671.8384,271.90942,671.6425,274.45517 L671.3814,277.8495 Q671.1856,280.39523,664.198,285.7703 L654.8812,292.93707 Q647.8936,298.31213,628.6195,301.9969 L602.92065,306.9099 Q583.64655,310.59467,555.2813,282.51886 L517.46094,245.08443 Q489.09567,217.0086,489.6473,204.8728 L490.3828,188.69174 Q490.93445,176.55594,500.17874,161.98915 L512.50446,142.56679 Q521.7488,128,523.60284,128 z" fill="url(#gradient_face19)" stroke="none" stroke-width="0"/>
<path d="M122,284 L142,287 L200,325 L200,474 L167,503 L120,514 L100,497 L100,303 z" fill="none" stroke="none" stroke-width="0"/>
<linearGradient id="gradient_face20" x1="0" x2="1.01" y1="0" y2="1.01">
<stop offset="0%" stop-color="#FFF430FF"/>
<stop offset="100%" stop-color="#FFF430FF"/>
</linearGradient>
<path d="M128.52353,290.03445 L135.18187,291.0332 Q140.17561,291.7823,156.62294,302.5581 L178.55269,316.92587 Q195,327.7017,195,370.91248 L195,428.52682 Q195,471.7376,185.89218,479.74146 L173.74841,490.41324 Q164.6406,498.41708,151.64336,501.45898 L134.31369,505.51486 Q121.31645,508.5568,116.42152,504.3961 L109.894936,498.84848 Q105,494.6878,105,437.86798 L105,362.10822 Q105,305.2884,110.55893,300.4875 L117.97084,294.0863 Q123.52977,289.2854,128.52353,290.03445 z" fill="url(#gradient_face20)" stroke="none" stroke-width="0"/>
<path d="M650,497 L680,516 L684,552 L682,560 L560,682 L552,684 L511,679 L508,675 L493,607 L607,494 z" fill="none" stroke="none" stroke-width="0"/>
<linearGradient id="gradient_face21" x1="0" x2="1.01" y1="0" y2="1.01">
<stop offset="0%" stop-color="#FFFBBBFF"/>
<stop offset="100%" stop-color="#FFFDDAFF"/>
</linearGradient>
<path d="M656.4631,507.0117 L667.2246,513.82733 Q675.2958,518.9391,676.3865,528.75507 L677.8407,541.8431 Q678.93134,551.65906,678.4975,553.3945 L677.919,555.7084 Q677.48517,557.4437,641.4728,593.4562 L593.4562,641.4728 Q557.4437,677.48517,555.7164,677.917 L553.4132,678.4928 Q551.68585,678.9246,540.29645,677.5357 L525.11053,675.6838 Q513.72107,674.2948,513.3996,673.86615 L512.97095,673.2946 Q512.6495,672.86597,508.39737,653.58984 L502.72794,627.88837 Q498.47586,608.6123,531.6065,575.7723 L575.7807,531.98553 Q608.9114,499.1455,620.75555,499.97183 L636.5477,501.07364 Q648.3919,501.89996,656.4631,507.0117 z" fill="url(#gradient_face21)" stroke="none" stroke-width="0"/>
<path d="M472,75 L494,89 L519,123 L486,175 L315,175 L287,142 L282,122 L306,89 L328,75 z" fill="none" stroke="none" stroke-width="0"/>
<linearGradient id="gradient_face22" x1="0" x2="1.01" y1="0" y2="1.01">
<stop offset="0%" stop-color="#DCC4EEFF"/>
<stop offset="100%" stop-color="#BE93E1FF"/>
</linearGradient>
<path d="M476.53864,83.814766 L484.53146,88.90112 Q490.52612,92.71589,497.2522,101.86339 L506.22034,114.06004 Q512.9464,123.207535,504.03787,137.24527 L492.1598,155.96227 Q483.25122,170,433.4703,170 L367.09576,170 Q317.31488,170,309.5907,160.89651 L299.2918,148.75853 Q291.56766,139.65504,290.32245,134.67429 L288.6622,128.03328 Q287.41702,123.05253,294.0375,113.949356 L302.8648,101.8118 Q309.4853,92.708626,315.4765,88.89604 L323.46478,83.81259 Q329.456,80,371.7824,80 L428.2176,80 Q470.544,80,476.53864,83.814766 z" fill="url(#gradient_face22)" stroke="none" stroke-width="0"/>
<path d="M120,514 L167,503 L296,632 L292,675 L289,679 L245,689 L203,681 L119,597 L111,555 z" fill="none" stroke="none" stroke-width="0"/>
<linearGradient id="gradient_face23" x1="0" x2="1.01" y1="0" y2="1.01">
<stop offset="0%" stop-color="#9856CBFF"/>
<stop offset="100%" stop-color="#512E6DFF"/>
</linearGradient>
<path d="M136.57497,515.25586 L153.06425,511.39667 Q165.43121,508.5023,203.04305,546.11414 L253.19215,596.26324 Q290.804,633.87506,289.7085,645.6516 L288.24783,661.35364 Q287.15234,673.1302,286.83713,673.55054 L286.4168,674.1109 Q286.1016,674.53125,273.7441,677.3397 L257.26746,681.0844 Q244.90997,683.89294,233.07118,681.63794 L217.28612,678.6313 Q205.44733,676.3763,180.90025,651.82916 L148.17082,619.09973 Q123.62373,594.5527,121.367645,582.7082 L118.35953,566.9156 Q116.10344,555.0711,118.53481,543.9949 L121.77664,529.2265 Q124.208015,518.15027,136.57497,515.25586 z" fill="url(#gradient_face23)" stroke="none" stroke-width="0"/>
<path d="M650,303 L676,283 L716,304 L760,365 L760,435 L716,496 L680,516 L650,497 z" fill="none" stroke="none" stroke-width="0"/>
<linearGradient id="gradient_face24" x1="0" x2="1.01" y1="0" y2="1.01">
<stop offset="0%" stop-color="#FFF430FF"/>
<stop offset="100%" stop-color="#FFF430FF"/>
</linearGradient>
<path d="M661.4532,300.498 L670.0575,293.8793 Q676.51074,288.9153,687.34753,294.60464 L701.7967,302.19043 Q712.63354,307.8798,725.34344,325.5004 L742.29004,348.9945 Q755,366.6151,755,386.64606 L755,413.35394 Q755,433.3849,742.2791,451.02063 L725.318,474.53494 Q712.5971,492.1707,702.8681,497.5757 L689.89606,504.78238 Q680.16705,510.18738,672.61694,505.40564 L662.5501,499.03 Q655,494.24823,655,437.61237 L655,362.09787 Q655,305.462,661.4532,300.498 z" fill="url(#gradient_face24)" stroke="none" stroke-width="0"/>
<path d="M244,108 L282,122 L287,142 L142,287 L122,284 L108,244 L116,167 L167,116 z" fill="none" stroke="none" stroke-width="0"/>
<linearGradient id="gradient_face25" x1="0" x2="1.01" y1="0" y2="1.01">
<stop offset="0%" stop-color="#FFFBBBFF"/>
<stop offset="100%" stop-color="#FFFDDAFF"/>
</linearGradient>
<path d="M253.69014,116.89859 L267.4618,121.97236 Q277.79053,125.77769,278.89218,130.18425 L280.36105,136.05968 Q281.46268,140.46625,239.09819,182.83075 L182.6122,239.31673 Q140.24771,281.6812,135.8904,281.02762 L130.08063,280.15616 Q125.7233,279.50256,121.93296,268.673 L116.87917,254.23361 Q113.08883,243.40407,115.399155,221.16719 L118.47958,191.51804 Q120.78991,169.28116,135.33728,154.73378 L154.73378,135.33728 Q169.28116,120.78991,191.50523,118.48092 L221.13731,115.40226 Q243.36139,113.09326,253.69014,116.89859 z" fill="url(#gradient_face25)" stroke="none" stroke-width="0"/>
<path d="M508,675 L511,679 L496,717 L437,773 L363,772 L304,717 L289,679 L292,675 z" fill="none" stroke="none" stroke-width="0"/>
<linearGradient id="gradient_face26" x1="0" x2="1.01" y1="0" y2="1.01">
<stop offset="0%" stop-color="#DCC4EEFF"/>
<stop offset="100%" stop-color="#BE93E1FF"/>
</linearGradient>
<path d="M505.4469,679.9292 L505.3761,679.8348 Q505.323,679.764,501.25272,690.0753 L495.8257,703.8238 Q491.75543,714.1351,474.73883,730.28644 L452.05002,751.8216 Q435.0334,767.97296,414.02264,767.689 L386.0083,767.3105 Q364.99753,767.02655,347.96906,751.1525 L325.2644,729.9872 Q308.2359,714.11316,304.16824,703.8084 L298.7447,690.0687 Q294.677,679.764,294.6239,679.8348 L294.5531,679.9292 Q294.5,680,357.8,680 L442.2,680 Q505.5,680,505.4469,679.9292 z" fill="url(#gradient_face26)" stroke="none" stroke-width="0"/>
<path d="M530,123 L555,110 L641,106 L694,159 L690,245 L677,270 z" fill="none" stroke="none" stroke-width="0"/>
<linearGradient id="gradient_face27" x1="0" x2="1.01" y1="0" y2="1.01">
<stop offset="0%" stop-color="#9856CBFF"/>
<stop offset="100%" stop-color="#512E6DFF"/>
</linearGradient>
<path d="M543.75104,121.48506 L550.9396,117.747025 Q556.331,114.9435,581.1395,113.78961 L614.2176,112.2511 Q639.0261,111.09721,653.98914,126.0602 L673.9398,146.01086 Q688.9028,160.97386,687.7489,185.78241 L686.2104,218.86049 Q685.0565,243.66904,682.253,249.06042 L678.51495,256.24896 Q675.7114,261.64035,634.50586,220.43481 L579.5652,165.49411 Q538.3597,124.28858,543.75104,121.48506 z" fill="url(#gradient_face27)" stroke="none" stroke-width="0"/>
<path d="M89,306 L100,303 L100,497 L89,494 L15,438 L15,362 z" fill="none" stroke="none" stroke-width="0"/>
<linearGradient id="gradient_face28" x1="0" x2="1.01" y1="0" y2="1.01">
<stop offset="0%" stop-color="#FFF430FF"/>
<stop offset="100%" stop-color="#FFF430FF"/>
</linearGradient>
<path d="M92.37304,310.2627 L93.87416,309.8533 Q95,309.54626,95,363.8185 L95,436.1815 Q95,490.45374,93.87416,490.1467 L92.37304,489.7373 Q91.24721,489.43027,69.87304,473.25522 L41.37416,451.6885 Q20,435.51346,20,414.20538 L20,385.79462 Q20,364.48654,41.37416,348.3115 L69.87304,326.74478 Q91.24721,310.56973,92.37304,310.2627 z" fill="url(#gradient_face28)" stroke="none" stroke-width="0"/>
<path d="M560,682 L682,560 L704,649 L649,704 z" fill="none" stroke="none" stroke-width="0"/>
<linearGradient id="gradient_face29" x1="0" x2="1.01" y1="0" y2="1.01">
<stop offset="0%" stop-color="#FFFBBBFF"/>
<stop offset="100%" stop-color="#FFFDDAFF"/>
</linearGradient>
<path d="M602.64105,646.43005 L646.43005,602.64105 Q679.2718,569.79926,685.0309,593.09753 L692.7097,624.16187 Q698.4689,647.4601,683.1662,662.7627 L662.7627,683.1662 Q647.4601,698.4689,624.16187,692.7097 L593.09753,685.0309 Q569.79926,679.2718,602.64105,646.43005 z" fill="url(#gradient_face29)" stroke="none" stroke-width="0"/>
<path d="M361,2 L439,3 L472,75 L328,75 z" fill="none" stroke="none" stroke-width="0"/>
<linearGradient id="gradient_face30" x1="0" x2="1.01" y1="0" y2="1.01">
<stop offset="0%" stop-color="#DCC4EEFF"/>
<stop offset="100%" stop-color="#BE93E1FF"/>
</linearGradient>
<path d="M385.6775,7.316789 L414.30334,7.683787 Q435.77274,7.959036,444.30338,26.571325 L455.67755,51.38771 Q464.20816,70,425.66995,70 L374.28564,70 Q335.74744,70,344.2856,51.11246 L355.6699,25.92908 Q364.2081,7.04154,385.6775,7.316789 z" fill="url(#gradient_face30)" stroke="none" stroke-width="0"/>
<path d="M119,597 L203,681 L143,714 L86,657 z" fill="none" stroke="none" stroke-width="0"/>
<linearGradient id="gradient_face31" x1="0" x2="1.01" y1="0" y2="1.01">
<stop offset="0%" stop-color="#9856CBFF"/>
<stop offset="100%" stop-color="#512E6DFF"/>
</linearGradient>
<path d="M142.54765,627.6187 L172.38129,657.45233 Q194.7565,679.8276,179.49368,688.2221 L159.14326,699.41486 Q143.88046,707.8094,128.3735,692.3024 L107.69756,671.6265 Q92.190605,656.11957,100.58516,640.85675 L111.777885,620.5063 Q120.17243,605.24347,142.54765,627.6187 z" fill="url(#gradient_face31)" stroke="none" stroke-width="0"/>
<path d="M800,361 L800,439 L760,435 L760,365 z" fill="none" stroke="none" stroke-width="0"/>
<linearGradient id="gradient_face32" x1="0" x2="1.01" y1="0" y2="1.01">
<stop offset="0%" stop-color="#1B0E24FF"/>
<stop offset="100%" stop-color="#1B0E24FF"/>
</linearGradient>
<path d="M795,386.61 L795,413.39 Q795,433.47507,786,432.57507 L774,431.37506 Q765,430.47507,765,412.19003 L765,387.80997 Q765,369.52493,774,368.62494 L786,367.42493 Q795,366.52493,795,386.61 z" fill="url(#gradient_face32)" stroke="none" stroke-width="0"/>
<path d="M800,439 L800,521 L716,496 L760,435 z" fill="none" stroke="none" stroke-width="0"/>
<linearGradient id="gradient_face33" x1="0" x2="1.01" y1="0" y2="1.01">
<stop offset="0%" stop-color="#1B0E24FF"/>
<stop offset="100%" stop-color="#1B0E24FF"/>
</linearGradient>
<path d="M795,464.756 L795,493.0641 Q795,514.29517,773.752,507.97134 L745.4213,499.53958 Q724.1733,493.2158,735.63214,477.32962 L750.91064,456.14807 Q762.36957,440.2619,772.1587,441.2408 L785.2109,442.54602 Q795,443.52493,795,464.756 z" fill="url(#gradient_face33)" stroke="none" stroke-width="0"/>
<path d="M800,521 L800,614 L684,552 L680,516 L716,496 z" fill="none" stroke="none" stroke-width="0"/>
<linearGradient id="gradient_face34" x1="0" x2="1.01" y1="0" y2="1.01">
<stop offset="0%" stop-color="#1B0E24FF"/>
<stop offset="100%" stop-color="#1B0E24FF"/>
</linearGradient>
<path d="M795,549.0075 L795,581.37933 Q795,605.6582,763.10364,588.61017 L720.5751,565.8794 Q688.6787,548.8313,687.67615,539.80835 L686.3394,527.7778 Q685.33685,518.7549,694.7127,513.5461 L707.2138,506.601 Q716.5896,501.39224,740.11273,508.39316 L771.47687,517.7277 Q795,524.72864,795,549.0075 z" fill="url(#gradient_face34)" stroke="none" stroke-width="0"/>
<path d="M800,614 L800,728 L704,649 L682,560 L684,552 z" fill="none" stroke="none" stroke-width="0"/>
<linearGradient id="gradient_face35" x1="0" x2="1.01" y1="0" y2="1.01">
<stop offset="0%" stop-color="#1B0E24FF"/>
<stop offset="100%" stop-color="#1B0E24FF"/>
</linearGradient>
<path d="M795,647.1209 L795,687.28613 Q795,717.4101,769.0369,696.0446 L734.41943,667.5574 Q708.45636,646.1919,702.0651,620.33636 L693.54346,585.86237 Q687.15216,560.00684,687.1954,559.8341 L687.2529,559.6038 Q687.2961,559.4311,719.6073,576.70087 L762.68884,599.7272 Q795,616.99695,795,647.1209 z" fill="url(#gradient_face35)" stroke="none" stroke-width="0"/>
<path d="M800,800 L728,800 L649,704 L704,649 L800,728 z" fill="none" stroke="none" stroke-width="0"/>
<linearGradient id="gradient_face36" x1="0" x2="1.01" y1="0" y2="1.01">
<stop offset="0%" stop-color="#1B0E24FF"/>
<stop offset="100%" stop-color="#1B0E24FF"/>
</linearGradient>
<path d="M775.6082,795 L749.7525,795 Q730.3607,795,707.97577,767.79803 L678.1292,731.52875 Q655.74426,704.3268,670.31903,689.752 L689.752,670.31903 Q704.3268,655.74426,731.52875,678.1292 L767.79803,707.97577 Q795,730.3607,795,749.7525 L795,775.6082 Q795,795,775.6082,795 z" fill="url(#gradient_face36)" stroke="none" stroke-width="0"/>
<path d="M728,800 L614,800 L552,684 L560,682 L649,704 z" fill="none" stroke="none" stroke-width="0"/>
<linearGradient id="gradient_face37" x1="0" x2="1.01" y1="0" y2="1.01">
<stop offset="0%" stop-color="#1B0E24FF"/>
<stop offset="100%" stop-color="#1B0E24FF"/>
</linearGradient>
<path d="M687.28613,795 L647.1209,795 Q616.99695,795,599.7272,762.68884 L576.70087,719.6073 Q559.4311,687.2961,559.6038,687.2529 L559.8341,687.1954 Q560.00684,687.15216,585.86237,693.54346 L620.33636,702.0651 Q646.1919,708.45636,667.5574,734.41943 L696.0446,769.0369 Q717.4101,795,687.28613,795 z" fill="url(#gradient_face37)" stroke="none" stroke-width="0"/>
<path d="M614,800 L521,800 L496,717 L511,679 L552,684 z" fill="none" stroke="none" stroke-width="0"/>
<linearGradient id="gradient_face38" x1="0" x2="1.01" y1="0" y2="1.01">
<stop offset="0%" stop-color="#1B0E24FF"/>
<stop offset="100%" stop-color="#1B0E24FF"/>
</linearGradient>
<path d="M581.3755,795 L548.9986,795 Q524.7159,795,517.6876,771.6662 L508.3166,740.55444 Q501.28836,717.22064,505.17133,707.3838 L510.3486,694.268 Q514.23157,684.43115,524.6067,685.6964 L538.4401,687.3834 Q548.81525,688.6487,565.86816,720.5541 L588.60535,763.0946 Q605.6582,795,581.3755,795 z" fill="url(#gradient_face38)" stroke="none" stroke-width="0"/>
<path d="M521,800 L439,800 L437,773 L496,717 z" fill="none" stroke="none" stroke-width="0"/>
<linearGradient id="gradient_face39" x1="0" x2="1.01" y1="0" y2="1.01">
<stop offset="0%" stop-color="#1B0E24FF"/>
<stop offset="100%" stop-color="#1B0E24FF"/>
</linearGradient>
<path d="M493.08347,795 L464.83197,795 Q443.64334,795,443.19876,788.9984 L442.60602,780.9962 Q442.16144,774.9946,457.57916,760.3609 L478.1361,740.8492 Q493.55383,726.2154,499.76932,746.85077 L508.0566,774.3646 Q514.2721,795,493.08347,795 z" fill="url(#gradient_face39)" stroke="none" stroke-width="0"/>
<path d="M439,800 L361,800 L363,772 L437,773 z" fill="none" stroke="none" stroke-width="0"/>
<linearGradient id="gradient_face40" x1="0" x2="1.01" y1="0" y2="1.01">
<stop offset="0%" stop-color="#1B0E24FF"/>
<stop offset="100%" stop-color="#1B0E24FF"/>
</linearGradient>
<path d="M413.4421,795 L386.5437,795 Q366.36987,795,366.75424,789.619 L367.26672,782.44434 Q367.65106,777.0633,387.06137,777.3256 L412.94177,777.67535 Q432.35205,777.9376,432.7312,783.05634 L433.23676,789.8813 Q433.61594,795,413.4421,795 z" fill="url(#gradient_face40)" stroke="none" stroke-width="0"/>
<path d="M361,800 L279,800 L304,717 L363,772 z" fill="none" stroke="none" stroke-width="0"/>
<linearGradient id="gradient_face41" x1="0" x2="1.01" y1="0" y2="1.01">
<stop offset="0%" stop-color="#1B0E24FF"/>
<stop offset="100%" stop-color="#1B0E24FF"/>
</linearGradient>
<path d="M335.15945,795 L306.91287,795 Q285.7279,795,291.9504,774.3413 L300.24707,746.7964 Q306.46957,726.1377,321.8814,740.5047 L342.43057,759.6607 Q357.84244,774.02765,357.393,780.3194 L356.79382,788.7083 Q356.3444,795,335.15945,795 z" fill="url(#gradient_face41)" stroke="none" stroke-width="0"/>
<path d="M279,800 L186,800 L245,689 L289,679 L304,717 z" fill="none" stroke="none" stroke-width="0"/>
<linearGradient id="gradient_face42" x1="0" x2="1.01" y1="0" y2="1.01">
<stop offset="0%" stop-color="#1B0E24FF"/>
<stop offset="100%" stop-color="#1B0E24FF"/>
</linearGradient>
<path d="M250.99492,795 L218.6093,795 Q194.32008,795,210.52623,764.5105 L232.13441,723.8578 Q248.34055,693.3683,259.61572,690.8057 L274.6493,687.38904 Q285.92447,684.8265,289.76062,694.54474 L294.8755,707.5024 Q298.71164,717.22064,291.6834,740.55444 L282.31238,771.6662 Q275.28415,795,250.99492,795 z" fill="url(#gradient_face42)" stroke="none" stroke-width="0"/>
<path d="M186,800 L72,800 L143,714 L203,681 L245,689 z" fill="none" stroke="none" stroke-width="0"/>
<linearGradient id="gradient_face43" x1="0" x2="1.01" y1="0" y2="1.01">
<stop offset="0%" stop-color="#1B0E24FF"/>
<stop offset="100%" stop-color="#1B0E24FF"/>
</linearGradient>
<path d="M152.88017,795 L112.72676,795 Q82.6117,795,101.70235,771.8761 L127.15654,741.0443 Q146.24718,717.9204,163.52278,708.4188 L186.55692,695.75006 Q203.83252,686.2485,213.9032,688.1667 L227.33076,690.7243 Q237.40144,692.6426,221.07957,723.3498 L199.3171,764.2928 Q182.99522,795,152.88017,795 z" fill="url(#gradient_face43)" stroke="none" stroke-width="0"/>
<path d="M0,800 L0,728 L86,657 L143,714 L72,800 z" fill="none" stroke="none" stroke-width="0"/>
<linearGradient id="gradient_face44" x1="0" x2="1.01" y1="0" y2="1.01">
<stop offset="0%" stop-color="#1B0E24FF"/>
<stop offset="100%" stop-color="#1B0E24FF"/>
</linearGradient>
<path d="M5,775.60675 L5,749.74915 Q5,730.3559,29.203493,710.37396 L61.474815,683.7313 Q85.67831,663.7494,100.850006,678.9211 L121.078926,699.15 Q136.25063,714.3217,116.26867,738.5252 L89.62606,770.7965 Q69.64411,795,50.250877,795 L24.393232,795 Q5,795,5,775.60675 z" fill="url(#gradient_face44)" stroke="none" stroke-width="0"/>
<path d="M0,728 L0,614 L111,555 L119,597 L86,657 z" fill="none" stroke="none" stroke-width="0"/>
<linearGradient id="gradient_face45" x1="0" x2="1.01" y1="0" y2="1.01">
<stop offset="0%" stop-color="#1B0E24FF"/>
<stop offset="100%" stop-color="#1B0E24FF"/>
</linearGradient>
<path d="M5,687.27325 L5,647.1198 Q5,617.00476,35.707233,600.6829 L76.650215,578.9204 Q107.35745,562.5986,109.27567,572.66925 L111.833305,586.0968 Q113.75153,596.1675,104.24995,613.44305 L91.58118,636.47723 Q82.0796,653.7528,58.955715,672.84344 L28.123878,698.29767 Q5,717.3883,5,687.27325 z" fill="url(#gradient_face45)" stroke="none" stroke-width="0"/>
<path d="M0,614 L0,521 L89,494 L100,497 L120,514 L111,555 z" fill="none" stroke="none" stroke-width="0"/>
<linearGradient id="gradient_face46" x1="0" x2="1.01" y1="0" y2="1.01">
<stop offset="0%" stop-color="#1B0E24FF"/>
<stop offset="100%" stop-color="#1B0E24FF"/>
</linearGradient>
<path d="M5,581.38837 L5,548.9997 Q5,524.7082,30.222082,517.0565 L63.851524,506.85434 Q89.07361,499.2027,91.634575,499.90112 L95.049194,500.8324 Q97.61016,501.53085,102.66869,505.8306 L109.4134,511.5636 Q114.471924,515.86334,112.11393,526.60535 L108.96993,540.928 Q106.61194,551.67,76.12836,567.8729 L35.48358,589.4769 Q5,605.67993,5,581.38837 z" fill="url(#gradient_face46)" stroke="none" stroke-width="0"/>
<path d="M0,521 L0,439 L15,438 L89,494 z" fill="none" stroke="none" stroke-width="0"/>
<linearGradient id="gradient_face47" x1="0" x2="1.01" y1="0" y2="1.01">
<stop offset="0%" stop-color="#1B0E24FF"/>
<stop offset="100%" stop-color="#1B0E24FF"/>
</linearGradient>
<path d="M5,493.084 L5,464.85187 Q5,443.67776,7.5412216,443.50836 L10.929517,443.28247 Q13.470738,443.11304,32.876507,457.7985 L58.750866,477.3791 Q78.15663,492.06454,56.209644,498.72263 L26.946991,507.60004 Q5,514.2581,5,493.084 z" fill="url(#gradient_face47)" stroke="none" stroke-width="0"/>
<path d="M0,439 L0,361 L15,362 L15,438 z" fill="none" stroke="none" stroke-width="0"/>
<linearGradient id="gradient_face48" x1="0" x2="1.01" y1="0" y2="1.01">
<stop offset="0%" stop-color="#1B0E24FF"/>
<stop offset="100%" stop-color="#1B0E24FF"/>
</linearGradient>
<path d="M5,413.46222 L5,386.53778 Q5,366.34442,6.5,366.44443 L8.5,366.57776 Q10,366.67776,10,386.6711 L10,413.3289 Q10,433.32224,8.5,433.42224 L6.5,433.55557 Q5,433.65558,5,413.46222 z" fill="url(#gradient_face48)" stroke="none" stroke-width="0"/>
<path d="M0,361 L0,279 L89,306 L15,362 z" fill="none" stroke="none" stroke-width="0"/>
<linearGradient id="gradient_face49" x1="0" x2="1.01" y1="0" y2="1.01">
<stop offset="0%" stop-color="#1B0E24FF"/>
<stop offset="100%" stop-color="#1B0E24FF"/>
</linearGradient>
<path d="M5,335.14813 L5,306.916 Q5,285.74188,26.946991,292.39996 L56.209644,301.27737 Q78.15663,307.93546,58.750866,322.6209 L32.876507,342.2015 Q13.470738,356.88696,10.929517,356.71753 L7.5412216,356.49164 Q5,356.32224,5,335.14813 z" fill="url(#gradient_face49)" stroke="none" stroke-width="0"/>
<path d="M0,279 L0,186 L108,244 L122,284 L100,303 L89,306 z" fill="none" stroke="none" stroke-width="0"/>
<linearGradient id="gradient_face50" x1="0" x2="1.01" y1="0" y2="1.01">
<stop offset="0%" stop-color="#1B0E24FF"/>
<stop offset="100%" stop-color="#1B0E24FF"/>
</linearGradient>
<path d="M5,251.01247 L5,218.63997 Q5,194.3606,34.676777,210.29811 L74.24581,231.54816 Q103.922585,247.48569,107.59279,257.972 L112.4864,271.9537 Q116.1566,282.44,110.58669,287.2504 L103.16015,293.6642 Q97.59024,298.47458,95.03525,299.17142 L91.6286,300.1005 Q89.07361,300.7973,63.851524,293.14566 L30.222082,282.94348 Q5,275.29184,5,251.01247 z" fill="url(#gradient_face50)" stroke="none" stroke-width="0"/>
<path d="M0,186 L0,72 L116,167 L108,244 z" fill="none" stroke="none" stroke-width="0"/>
<linearGradient id="gradient_face51" x1="0" x2="1.01" y1="0" y2="1.01">
<stop offset="0%" stop-color="#1B0E24FF"/>
<stop offset="100%" stop-color="#1B0E24FF"/>
</linearGradient>
<path d="M5,152.87413 L5,112.69327 Q5,82.55762,36.72454,108.53892 L79.023926,143.18066 Q110.74847,169.16196,108.6631,189.23364 L105.88261,215.99588 Q103.79723,236.06755,74.158066,220.15022 L34.63917,198.92711 Q5,183.00978,5,152.87413 z" fill="url(#gradient_face51)" stroke="none" stroke-width="0"/>
<path d="M0,0 L72,0 L167,116 L116,167 L0,72 z" fill="none" stroke="none" stroke-width="0"/>
<linearGradient id="gradient_face52" x1="0" x2="1.01" y1="0" y2="1.01">
<stop offset="0%" stop-color="#1B0E24FF"/>
<stop offset="100%" stop-color="#1B0E24FF"/>
</linearGradient>
<path d="M24.389612,5 L50.242428,5 Q69.63204,5,96.821434,38.199677 L133.07396,82.46591 Q160.26334,115.66559,146.88402,129.04492 L129.04492,146.88402 Q115.66559,160.26334,82.46591,133.07396 L38.199677,96.821434 Q5,69.63204,5,50.242428 L5,24.389612 Q5,5,24.389612,5 z" fill="url(#gradient_face52)" stroke="none" stroke-width="0"/>
<path d="M72,0 L186,0 L244,108 L167,116 z" fill="none" stroke="none" stroke-width="0"/>
<linearGradient id="gradient_face53" x1="0" x2="1.01" y1="0" y2="1.01">
<stop offset="0%" stop-color="#1B0E24FF"/>
<stop offset="100%" stop-color="#1B0E24FF"/>
</linearGradient>
<path d="M112.69327,5 L152.87413,5 Q183.00978,5,198.92711,34.63917 L220.15022,74.158066 Q236.06755,103.79723,215.99588,105.88261 L189.23364,108.6631 Q169.16196,110.74847,143.18066,79.023926 L108.53892,36.72454 Q82.55762,5,112.69327,5 z" fill="url(#gradient_face53)" stroke="none" stroke-width="0"/>
<path d="M186,0 L279,0 L306,89 L282,122 L244,108 z" fill="none" stroke="none" stroke-width="0"/>
<linearGradient id="gradient_face54" x1="0" x2="1.01" y1="0" y2="1.01">
<stop offset="0%" stop-color="#1B0E24FF"/>
<stop offset="100%" stop-color="#1B0E24FF"/>
</linearGradient>
<path d="M218.63997,5 L251.01247,5 Q275.29184,5,282.85223,29.9213 L292.93274,63.1497 Q300.49313,88.071,294.39932,96.45002 L286.2742,107.62205 Q280.18036,116.00107,270.3786,112.38989 L257.3096,107.57499 Q247.50783,103.96381,231.56366,74.27467 L210.30476,34.689144 Q194.3606,5,218.63997,5 z" fill="url(#gradient_face54)" stroke="none" stroke-width="0"/>
<path d="M279,0 L361,0 L361,2 L328,75 L306,89 z" fill="none" stroke="none" stroke-width="0"/>
<linearGradient id="gradient_face55" x1="0" x2="1.01" y1="0" y2="1.01">
<stop offset="0%" stop-color="#1B0E24FF"/>
<stop offset="100%" stop-color="#1B0E24FF"/>
</linearGradient>
<path d="M306.8193,5 L334.92258,5 Q356,5,356,3.7767081 L356,2.1456523 Q356,0.9223605,346.4174,22.120258 L333.64056,50.384125 Q324.05795,71.58202,319.50232,74.481064 L313.42816,78.34644 Q308.87253,81.24548,301.93332,58.371838 L292.68106,27.873644 Q285.74188,5,306.8193,5 z" fill="url(#gradient_face55)" stroke="none" stroke-width="0"/>
<path d="M361,0 L439,0 L439,3 L361,2 z" fill="none" stroke="none" stroke-width="0"/>
<linearGradient id="gradient_face56" x1="0" x2="1.01" y1="0" y2="1.01">
<stop offset="0%" stop-color="#1B0E24FF"/>
<stop offset="100%" stop-color="#1B0E24FF"/>
</linearGradient>
<path d="M386.4,5 L413.6,5 Q434,5,434,2.880646 L434,0.054840576 Q434,-2.0645134,413.6,-2.326052 L386.4,-2.6747699 Q366,-2.9363084,366,-0.5554158 L366,2.6191075 Q366,5,386.4,5 z" fill="url(#gradient_face56)" stroke="none" stroke-width="0"/>
<path d="M439,0 L521,0 L494,89 L472,75 L439,3 z" fill="none" stroke="none" stroke-width="0"/>
<linearGradient id="gradient_face57" x1="0" x2="1.01" y1="0" y2="1.01">
<stop offset="0%" stop-color="#1B0E24FF"/>
<stop offset="100%" stop-color="#1B0E24FF"/>
</linearGradient>
<path d="M465.07742,5 L493.1807,5 Q514.2581,5,507.31894,27.873644 L498.06668,58.371838 Q491.12747,81.24548,486.56827,78.34416 L480.48932,74.475746 Q475.9301,71.574425,466.35107,50.674725 L453.57904,22.80845 Q444,1.9087466,444,2.8361225 L444,4.072624 Q444,5,465.07742,5 z" fill="url(#gradient_face57)" stroke="none" stroke-width="0"/>
<path d="M521,0 L614,0 L555,110 L530,123 L519,123 L494,89 z" fill="none" stroke="none" stroke-width="0"/>
<linearGradient id="gradient_face58" x1="0" x2="1.01" y1="0" y2="1.01">
<stop offset="0%" stop-color="#1B0E24FF"/>
<stop offset="100%" stop-color="#1B0E24FF"/>
</linearGradient>
<path d="M548.989,5 L581.3635,5 Q605.64435,5,589.3481,35.38285 L567.61975,75.89332 Q551.3235,106.27617,544.55975,109.79332 L535.54144,114.48285 Q528.7777,118,526.6033,118 L523.7041,118 Q521.52966,118,514.92426,109.01662 L506.11703,97.038765 Q499.5116,88.05538,507.07056,63.138767 L517.1492,29.916615 Q524.7082,5,548.989,5 z" fill="url(#gradient_face58)" stroke="none" stroke-width="0"/>
<path d="M614,0 L728,0 L641,106 L555,110 z" fill="none" stroke="none" stroke-width="0"/>
<linearGradient id="gradient_face59" x1="0" x2="1.01" y1="0" y2="1.01">
<stop offset="0%" stop-color="#1B0E24FF"/>
<stop offset="100%" stop-color="#1B0E24FF"/>
</linearGradient>
<path d="M647.12274,5 L687.29706,5 Q717.4278,5,693.76324,33.83262 L662.2106,72.27611 Q638.5461,101.108734,616.05396,102.15488 L586.0645,103.549736 Q563.5724,104.59588,579.59827,74.71712 L600.9661,34.878765 Q616.992,5,647.12274,5 z" fill="url(#gradient_face59)" stroke="none" stroke-width="0"/>
<path d="M800,0 L800,72 L694,159 L641,106 L728,0 z" fill="none" stroke="none" stroke-width="0"/>
<linearGradient id="gradient_face60" x1="0" x2="1.01" y1="0" y2="1.01">
<stop offset="0%" stop-color="#1B0E24FF"/>
<stop offset="100%" stop-color="#1B0E24FF"/>
</linearGradient>
<path d="M795,24.390594 L795,50.24472 Q795,69.635315,764.7993,94.42269 L724.5317,127.47253 Q694.331,152.2599,680.3537,138.28264 L661.71735,119.64629 Q647.7401,105.66904,672.52747,75.46832 L705.57733,35.20071 Q730.3647,5,749.7553,5 L775.60944,5 Q795,5,795,24.390594 z" fill="url(#gradient_face60)" stroke="none" stroke-width="0"/>
<path d="M800,72 L800,186 L690,245 L694,159 z" fill="none" stroke="none" stroke-width="0"/>
<linearGradient id="gradient_face61" x1="0" x2="1.01" y1="0" y2="1.01">
<stop offset="0%" stop-color="#1B0E24FF"/>
<stop offset="100%" stop-color="#1B0E24FF"/>
</linearGradient>
<path d="M795,112.702965 L795,152.87727 Q795,183.00801,765.1212,199.03389 L725.2829,220.40173 Q695.4041,236.42761,696.45026,213.9355 L697.84515,183.94603 Q698.8913,161.45393,727.7239,137.78941 L766.16736,106.23674 Q795,82.572235,795,112.702965 z" fill="url(#gradient_face61)" stroke="none" stroke-width="0"/>
<path d="M800,186 L800,279 L716,304 L676,283 L677,270 L690,245 z" fill="none" stroke="none" stroke-width="0"/>
<linearGradient id="gradient_face62" x1="0" x2="1.01" y1="0" y2="1.01">
<stop offset="0%" stop-color="#1B0E24FF"/>
<stop offset="100%" stop-color="#1B0E24FF"/>
</linearGradient>
<path d="M795,218.63034 L795,250.99663 Q795,275.27136,771.457,282.2782 L740.0663,291.62067 Q716.52325,298.62753,705.93756,293.07004 L691.8233,285.66006 Q681.2377,280.1026,681.4385,277.49216 L681.7062,274.0116 Q681.907,271.40118,685.452,264.58377 L690.1788,255.4939 Q693.7238,248.67648,724.1067,232.38023 L764.6171,210.65189 Q795,194.35564,795,218.63034 z" fill="url(#gradient_face62)" stroke="none" stroke-width="0"/>
<path d="M800,279 L800,361 L760,365 L716,304 z" fill="none" stroke="none" stroke-width="0"/>
<linearGradient id="gradient_face63" x1="0" x2="1.01" y1="0" y2="1.01">
<stop offset="0%" stop-color="#1B0E24FF"/>
<stop offset="100%" stop-color="#1B0E24FF"/>
</linearGradient>
<path d="M795,306.9359 L795,335.244 Q795,356.47507,785.2109,357.45398 L772.1587,358.7592 Q762.36957,359.7381,750.91064,343.85193 L735.63214,322.67038 Q724.1733,306.7842,745.4213,300.46042 L773.752,292.02866 Q795,285.70483,795,306.9359 z" fill="url(#gradient_face63)" stroke="none" stroke-width="0"/>
<circle cx="400" cy="400" fill="none" r="0" stroke="none" stroke-width="0"/>
<circle cx="391" cy="391" fill="none" r="0" stroke="none" stroke-width="0"/>
<circle cx="400" cy="425" fill="none" r="0" stroke="none" stroke-width="0"/>
<circle cx="427" cy="373" fill="none" r="0" stroke="none" stroke-width="0"/>
<circle cx="350" cy="400" fill="none" r="0" stroke="none" stroke-width="0"/>
<circle cx="444" cy="444" fill="none" r="0" stroke="none" stroke-width="0"/>
<circle cx="400" cy="325" fill="none" r="0" stroke="none" stroke-width="0"/>
<circle cx="338" cy="462" fill="none" r="0" stroke="none" stroke-width="0"/>
<circle cx="500" cy="400" fill="none" r="0" stroke="none" stroke-width="0"/>
<circle cx="320" cy="320" fill="none" r="0" stroke="none" stroke-width="0"/>
<circle cx="400" cy="525" fill="none" r="0" stroke="none" stroke-width="0"/>
<circle cx="497" cy="303" fill="none" r="0" stroke="none" stroke-width="0"/>
<circle cx="250" cy="400" fill="none" r="0" stroke="none" stroke-width="0"/>
<circle cx="515" cy="515" fill="none" r="0" stroke="none" stroke-width="0"/>
<circle cx="400" cy="225" fill="none" r="0" stroke="none" stroke-width="0"/>
<circle cx="267" cy="533" fill="none" r="0" stroke="none" stroke-width="0"/>
<circle cx="600" cy="400" fill="none" r="0" stroke="none" stroke-width="0"/>
<circle cx="250" cy="250" fill="none" r="0" stroke="none" stroke-width="0"/>
<circle cx="400" cy="625" fill="none" r="0" stroke="none" stroke-width="0"/>
<circle cx="568" cy="232" fill="none" r="0" stroke="none" stroke-width="0"/>
<circle cx="150" cy="400" fill="none" r="0" stroke="none" stroke-width="0"/>
<circle cx="586" cy="586" fill="none" r="0" stroke="none" stroke-width="0"/>
<circle cx="400" cy="125" fill="none" r="0" stroke="none" stroke-width="0"/>
<circle cx="197" cy="603" fill="none" r="0" stroke="none" stroke-width="0"/>
<circle cx="700" cy="400" fill="none" r="0" stroke="none" stroke-width="0"/>
<circle cx="179" cy="179" fill="none" r="0" stroke="none" stroke-width="0"/>
<circle cx="400" cy="725" fill="none" r="0" stroke="none" stroke-width="0"/>
<circle cx="639" cy="161" fill="none" r="0" stroke="none" stroke-width="0"/>
<circle cx="50" cy="400" fill="none" r="0" stroke="none" stroke-width="0"/>
<circle cx="656" cy="656" fill="none" r="0" stroke="none" stroke-width="0"/>
<circle cx="400" cy="25" fill="none" r="0" stroke="none" stroke-width="0"/>
<circle cx="126" cy="674" fill="none" r="0" stroke="none" stroke-width="0"/>
<circle cx="820" cy="400" fill="none" r="0" stroke="none" stroke-width="0"/>
<circle cx="812" cy="482" fill="none" r="0" stroke="none" stroke-width="0"/>
<circle cx="788" cy="561" fill="none" r="0" stroke="none" stroke-width="0"/>
<circle cx="749" cy="633" fill="none" r="0" stroke="none" stroke-width="0"/>
<circle cx="697" cy="697" fill="none" r="0" stroke="none" stroke-width="0"/>
<circle cx="633" cy="749" fill="none" r="0" stroke="none" stroke-width="0"/>
<circle cx="561" cy="788" fill="none" r="0" stroke="none" stroke-width="0"/>
<circle cx="482" cy="812" fill="none" r="0" stroke="none" stroke-width="0"/>
<circle cx="400" cy="820" fill="none" r="0" stroke="none" stroke-width="0"/>
<circle cx="318" cy="812" fill="none" r="0" stroke="none" stroke-width="0"/>
<circle cx="239" cy="788" fill="none" r="0" stroke="none" stroke-width="0"/>
<circle cx="167" cy="749" fill="none" r="0" stroke="none" stroke-width="0"/>
<circle cx="103" cy="697" fill="none" r="0" stroke="none" stroke-width="0"/>
<circle cx="51" cy="633" fill="none" r="0" stroke="none" stroke-width="0"/>
<circle cx="12" cy="561" fill="none" r="0" stroke="none" stroke-width="0"/>
<circle cx="-12" cy="482" fill="none" r="0" stroke="none" stroke-width="0"/>
<circle cx="-20" cy="400" fill="none" r="0" stroke="none" stroke-width="0"/>
<circle cx="-12" cy="318" fill="none" r="0" stroke="none" stroke-width="0"/>
<circle cx="12" cy="239" fill="none" r="0" stroke="none" stroke-width="0"/>
<circle cx="51" cy="167" fill="none" r="0" stroke="none" stroke-width="0"/>
<circle cx="103" cy="103" fill="none" r="0" stroke="none" stroke-width="0"/>
<circle cx="167" cy="51" fill="none" r="0" stroke="none" stroke-width="0"/>
<circle cx="239" cy="12" fill="none" r="0" stroke="none" stroke-width="0"/>
<circle cx="318" cy="-12" fill="none" r="0" stroke="none" stroke-width="0"/>
<circle cx="400" cy="-20" fill="none" r="0" stroke="none" stroke-width="0"/>
<circle cx="482" cy="-12" fill="none" r="0" stroke="none" stroke-width="0"/>
<circle cx="561" cy="12" fill="none" r="0" stroke="none" stroke-width="0"/>
<circle cx="633" cy="51" fill="none" r="0" stroke="none" stroke-width="0"/>
<circle cx="697" cy="103" fill="none" r="0" stroke="none" stroke-width="0"/>
<circle cx="749" cy="167" fill="none" r="0" stroke="none" stroke-width="0"/>
<circle cx="788" cy="239" fill="none" r="0" stroke="none" stroke-width="0"/>
<circle cx="812" cy="318" fill="none" r="0" stroke="none" stroke-width="0"/>
<circle cx="437" cy="773" fill="none" r="0" stroke="none" stroke-width="0"/>
<circle cx="363" cy="772" fill="none" r="0" stroke="none" stroke-width="0"/>
<circle cx="143" cy="714" fill="none" r="0" stroke="none" stroke-width="0"/>
<circle cx="649" cy="704" fill="none" r="0" stroke="none" stroke-width="0"/>
<circle cx="496" cy="717" fill="none" r="0" stroke="none" stroke-width="0"/>
<circle cx="304" cy="717" fill="none" r="0" stroke="none" stroke-width="0"/>
<circle cx="86" cy="657" fill="none" r="0" stroke="none" stroke-width="0"/>
<circle cx="203" cy="681" fill="none" r="0" stroke="none" stroke-width="0"/>
<circle cx="704" cy="649" fill="none" r="0" stroke="none" stroke-width="0"/>
<circle cx="245" cy="689" fill="none" r="0" stroke="none" stroke-width="0"/>
<circle cx="560" cy="682" fill="none" r="0" stroke="none" stroke-width="0"/>
<circle cx="552" cy="684" fill="none" r="0" stroke="none" stroke-width="0"/>
<circle cx="289" cy="679" fill="none" r="0" stroke="none" stroke-width="0"/>
<circle cx="511" cy="679" fill="none" r="0" stroke="none" stroke-width="0"/>
<circle cx="508" cy="675" fill="none" r="0" stroke="none" stroke-width="0"/>
<circle cx="292" cy="675" fill="none" r="0" stroke="none" stroke-width="0"/>
<circle cx="296" cy="632" fill="none" r="0" stroke="none" stroke-width="0"/>
<circle cx="119" cy="597" fill="none" r="0" stroke="none" stroke-width="0"/>
<circle cx="493" cy="607" fill="none" r="0" stroke="none" stroke-width="0"/>
<circle cx="462" cy="575" fill="none" r="0" stroke="none" stroke-width="0"/>
<circle cx="336" cy="575" fill="none" r="0" stroke="none" stroke-width="0"/>
<circle cx="334" cy="528" fill="none" r="0" stroke="none" stroke-width="0"/>
<circle cx="682" cy="560" fill="none" r="0" stroke="none" stroke-width="0"/>
<circle cx="111" cy="555" fill="none" r="0" stroke="none" stroke-width="0"/>
<circle cx="684" cy="552" fill="none" r="0" stroke="none" stroke-width="0"/>
<circle cx="456" cy="503" fill="none" r="0" stroke="none" stroke-width="0"/>
<circle cx="405" cy="475" fill="none" r="0" stroke="none" stroke-width="0"/>
<circle cx="388" cy="475" fill="none" r="0" stroke="none" stroke-width="0"/>
<circle cx="501" cy="458" fill="none" r="0" stroke="none" stroke-width="0"/>
<circle cx="607" cy="494" fill="none" r="0" stroke="none" stroke-width="0"/>
<circle cx="716" cy="496" fill="none" r="0" stroke="none" stroke-width="0"/>
<circle cx="167" cy="503" fill="none" r="0" stroke="none" stroke-width="0"/>
<circle cx="680" cy="516" fill="none" r="0" stroke="none" stroke-width="0"/>
<circle cx="364" cy="435" fill="none" r="0" stroke="none" stroke-width="0"/>
<circle cx="270" cy="465" fill="none" r="0" stroke="none" stroke-width="0"/>
<circle cx="120" cy="514" fill="none" r="0" stroke="none" stroke-width="0"/>
<circle cx="89" cy="494" fill="none" r="0" stroke="none" stroke-width="0"/>
<circle cx="650" cy="497" fill="none" r="0" stroke="none" stroke-width="0"/>
<circle cx="100" cy="497" fill="none" r="0" stroke="none" stroke-width="0"/>
<circle cx="379" cy="413" fill="none" r="0" stroke="none" stroke-width="0"/>
<circle cx="15" cy="438" fill="none" r="0" stroke="none" stroke-width="0"/>
<circle cx="374" cy="414" fill="none" r="0" stroke="none" stroke-width="0"/>
<circle cx="200" cy="474" fill="none" r="0" stroke="none" stroke-width="0"/>
<circle cx="550" cy="452" fill="none" r="0" stroke="none" stroke-width="0"/>
<circle cx="432" cy="413" fill="none" r="0" stroke="none" stroke-width="0"/>
<circle cx="435" cy="409" fill="none" r="0" stroke="none" stroke-width="0"/>
<circle cx="300" cy="422" fill="none" r="0" stroke="none" stroke-width="0"/>
<circle cx="760" cy="435" fill="none" r="0" stroke="none" stroke-width="0"/>
<circle cx="409" cy="382" fill="none" r="0" stroke="none" stroke-width="0"/>
<circle cx="457" cy="403" fill="none" r="0" stroke="none" stroke-width="0"/>
<circle cx="397" cy="358" fill="none" r="0" stroke="none" stroke-width="0"/>
<circle cx="300" cy="373" fill="none" r="0" stroke="none" stroke-width="0"/>
<circle cx="15" cy="362" fill="none" r="0" stroke="none" stroke-width="0"/>
<circle cx="362" cy="354" fill="none" r="0" stroke="none" stroke-width="0"/>
<circle cx="359" cy="352" fill="none" r="0" stroke="none" stroke-width="0"/>
<circle cx="476" cy="352" fill="none" r="0" stroke="none" stroke-width="0"/>
<circle cx="760" cy="365" fill="none" r="0" stroke="none" stroke-width="0"/>
<circle cx="550" cy="350" fill="none" r="0" stroke="none" stroke-width="0"/>
<circle cx="452" cy="328" fill="none" r="0" stroke="none" stroke-width="0"/>
<circle cx="245" cy="325" fill="none" r="0" stroke="none" stroke-width="0"/>
<circle cx="200" cy="325" fill="none" r="0" stroke="none" stroke-width="0"/>
<circle cx="582" cy="316" fill="none" r="0" stroke="none" stroke-width="0"/>
<circle cx="363" cy="275" fill="none" r="0" stroke="none" stroke-width="0"/>
<circle cx="440" cy="275" fill="none" r="0" stroke="none" stroke-width="0"/>
<circle cx="716" cy="304" fill="none" r="0" stroke="none" stroke-width="0"/>
<circle cx="89" cy="306" fill="none" r="0" stroke="none" stroke-width="0"/>
<circle cx="650" cy="303" fill="none" r="0" stroke="none" stroke-width="0"/>
<circle cx="100" cy="303" fill="none" r="0" stroke="none" stroke-width="0"/>
<circle cx="142" cy="287" fill="none" r="0" stroke="none" stroke-width="0"/>
<circle cx="326" cy="244" fill="none" r="0" stroke="none" stroke-width="0"/>
<circle cx="122" cy="284" fill="none" r="0" stroke="none" stroke-width="0"/>
<circle cx="676" cy="283" fill="none" r="0" stroke="none" stroke-width="0"/>
<circle cx="677" cy="270" fill="none" r="0" stroke="none" stroke-width="0"/>
<circle cx="108" cy="244" fill="none" r="0" stroke="none" stroke-width="0"/>
<circle cx="690" cy="245" fill="none" r="0" stroke="none" stroke-width="0"/>
<circle cx="484" cy="219" fill="none" r="0" stroke="none" stroke-width="0"/>
<circle cx="694" cy="159" fill="none" r="0" stroke="none" stroke-width="0"/>
<circle cx="116" cy="167" fill="none" r="0" stroke="none" stroke-width="0"/>
<circle cx="315" cy="175" fill="none" r="0" stroke="none" stroke-width="0"/>
<circle cx="486" cy="175" fill="none" r="0" stroke="none" stroke-width="0"/>
<circle cx="167" cy="116" fill="none" r="0" stroke="none" stroke-width="0"/>
<circle cx="641" cy="106" fill="none" r="0" stroke="none" stroke-width="0"/>
<circle cx="287" cy="142" fill="none" r="0" stroke="none" stroke-width="0"/>
<circle cx="244" cy="108" fill="none" r="0" stroke="none" stroke-width="0"/>
<circle cx="555" cy="110" fill="none" r="0" stroke="none" stroke-width="0"/>
<circle cx="530" cy="123" fill="none" r="0" stroke="none" stroke-width="0"/>
<circle cx="519" cy="123" fill="none" r="0" stroke="none" stroke-width="0"/>
<circle cx="282" cy="122" fill="none" r="0" stroke="none" stroke-width="0"/>
<circle cx="328" cy="75" fill="none" r="0" stroke="none" stroke-width="0"/>
<circle cx="472" cy="75" fill="none" r="0" stroke="none" stroke-width="0"/>
<circle cx="494" cy="89" fill="none" r="0" stroke="none" stroke-width="0"/>
<circle cx="306" cy="89" fill="none" r="0" stroke="none" stroke-width="0"/>
<circle cx="439" cy="3" fill="none" r="0" stroke="none" stroke-width="0"/>
<circle cx="361" cy="2" fill="none" r="0" stroke="none" stroke-width="0"/>
<circle cx="0" cy="0" fill="none" r="0" stroke="none" stroke-width="0"/>
<circle cx="800" cy="0" fill="none" r="0" stroke="none" stroke-width="0"/>
<circle cx="800" cy="800" fill="none" r="0" stroke="none" stroke-width="0"/>
<circle cx="0" cy="800" fill="none" r="0" stroke="none" stroke-width="0"/>
<circle cx="800" cy="361" fill="none" r="0" stroke="none" stroke-width="0"/>
<circle cx="800" cy="439" fill="none" r="0" stroke="none" stroke-width="0"/>
<circle cx="800" cy="521" fill="none" r="0" stroke="none" stroke-width="0"/>
<circle cx="800" cy="614" fill="none" r="0" stroke="none" stroke-width="0"/>
<circle cx="800" cy="728" fill="none" r="0" stroke="none" stroke-width="0"/>
<circle cx="728" cy="800" fill="none" r="0" stroke="none" stroke-width="0"/>
<circle cx="614" cy="800" fill="none" r="0" stroke="none" stroke-width="0"/>
<circle cx="521" cy="800" fill="none" r="0" stroke="none" stroke-width="0"/>
<circle cx="439" cy="800" fill="none" r="0" stroke="none" stroke-width="0"/>
<circle cx="361" cy="800" fill="none" r="0" stroke="none" stroke-width="0"/>
<circle cx="279" cy="800" fill="none" r="0" stroke="none" stroke-width="0"/>
<circle cx="186" cy="800" fill="none" r="0" stroke="none" stroke-width="0"/>
<circle cx="72" cy="800" fill="none" r="0" stroke="none" stroke-width="0"/>
<circle cx="0" cy="728" fill="none" r="0" stroke="none" stroke-width="0"/>
<circle cx="0" cy="614" fill="none" r="0" stroke="none" stroke-width="0"/>
<circle cx="0" cy="521" fill="none" r="0" stroke="none" stroke-width="0"/>
<circle cx="0" cy="439" fill="none" r="0" stroke="none" stroke-width="0"/>
<circle cx="0" cy="361" fill="none" r="0" stroke="none" stroke-width="0"/>
<circle cx="0" cy="279" fill="none" r="0" stroke="none" stroke-width="0"/>
<circle cx="0" cy="186" fill="none" r="0" stroke="none" stroke-width="0"/>
<circle cx="0" cy="72" fill="none" r="0" stroke="none" stroke-width="0"/>
<circle cx="72" cy="0" fill="none" r="0" stroke="none" stroke-width="0"/>
<circle cx="186" cy="0" fill="none" r="0" stroke="none" stroke-width="0"/>
<circle cx="279" cy="0" fill="none" r="0" stroke="none" stroke-width="0"/>
<circle cx="361" cy="0" fill="none" r="0" stroke="none" stroke-width="0"/>
<circle cx="439" cy="0" fill="none" r="0" stroke="none" stroke-width="0"/>
<circle cx="521" cy="0" fill="none" r="0" stroke="none" stroke-width="0"/>
<circle cx="614" cy="0" fill="none" r="0" stroke="none" stroke-width="0"/>
<circle cx="728" cy="0" fill="none" r="0" stroke="none" stroke-width="0"/>
<circle cx="800" cy="72" fill="none" r="0" stroke="none" stroke-width="0"/>
<circle cx="800" cy="186" fill="none" r="0" stroke="none" stroke-width="0"/>
<circle cx="800" cy="279" fill="none" r="0" stroke="none" stroke-width="0"/>
</svg>