<svg 
            xmlns:xlink="http://www.w3.org/1999/xlink" viewBox="0 0 800 800" xmlns="http://www.w3.org/2000/svg">
<rect fill="#010506" height="800" stroke="none" width="800" x="0" y="0"/>
<path d="M384,399 L409,375 L425,417 z" fill="none" stroke="none" stroke-width="0"/>
<linearGradient id="gradient_face0" x1="0" x2="1.01" y1="0" y2="1.01">
<stop offset="0%" stop-color="#839496FF"/>
<stop offset="100%" stop-color="#839496FF"/>
</linearGradient>
<path d="M397.10486,393.3504 L402.76816,387.91367 Q407.01563,383.8361,409.73398,390.97183 L413.3585,400.48615 Q416.07687,407.6219,409.11102,404.56372 L399.82324,400.48615 Q392.8574,397.42798,397.10486,393.3504 z" fill="url(#gradient_face0)" stroke="none" stroke-width="0"/>
<path d="M347,426 L359,410 L384,399 L425,417 L430,426 L346,432 z" fill="none" stroke="none" stroke-width="0"/>
<linearGradient id="gradient_face1" x1="0" x2="1.01" y1="0" y2="1.01">
<stop offset="0%" stop-color="#909F9FFF"/>
<stop offset="100%" stop-color="#8B9B9BFF"/>
</linearGradient>
<path d="M354.87613,423.83185 L359.0689,418.24146 Q362.2135,414.04865,368.75012,411.17255 L377.4656,407.33774 Q384.00223,404.4616,395.23578,409.39343 L410.21387,415.96915 Q421.44742,420.90097,421.55917,421.10214 L421.7082,421.37036 Q421.81995,421.57156,400.86664,423.0682 L372.9289,425.06378 Q351.97556,426.56042,351.90234,426.9997 L351.80475,427.58536 Q351.73154,428.02463,354.87613,423.83185 z" fill="url(#gradient_face1)" stroke="none" stroke-width="0"/>
<path d="M381,318 L385,319 L403,335 L411,353 L409,375 L384,399 L359,410 z" fill="none" stroke="none" stroke-width="0"/>
<linearGradient id="gradient_face2" x1="0" x2="1.01" y1="0" y2="1.01">
<stop offset="0%" stop-color="#294C54FF"/>
<stop offset="100%" stop-color="#002C37FF"/>
</linearGradient>
<path d="M384.06042,323.91898 L383.2236,323.70978 Q382.596,323.5529,387.4782,327.89264 L393.98785,333.679 Q398.87006,338.01874,400.9799,342.7658 L403.79297,349.09528 Q405.9028,353.84238,405.38885,359.4957 L404.7036,367.03348 Q404.18967,372.68683,397.28555,379.31476 L388.08008,388.15204 Q381.176,394.77997,376.6848,396.75607 L370.69656,399.3909 Q366.20538,401.36703,371.75018,378.1797 L379.14325,347.26324 Q384.68805,324.0759,384.06042,323.91898 z" fill="url(#gradient_face2)" stroke="none" stroke-width="0"/>
<path d="M409,375 L411,353 L503,407 L486,425 L462,435 L443,433 L430,426 L425,417 z" fill="none" stroke="none" stroke-width="0"/>
<linearGradient id="gradient_face3" x1="0" x2="1.01" y1="0" y2="1.01">
<stop offset="0%" stop-color="#04313CFF"/>
<stop offset="100%" stop-color="#053440FF"/>
</linearGradient>
<path d="M414.4387,370.40106 L414.9114,365.20135 Q415.26593,361.30157,439.20193,375.35098 L471.1166,394.0835 Q495.05258,408.13287,491.46536,411.93112 L486.6824,416.99542 Q483.09518,420.79367,476.54303,423.52374 L467.8068,427.16385 Q461.2546,429.89392,456.22916,429.36493 L449.52856,428.6596 Q444.50314,428.13058,441.2501,426.37897 L436.91272,424.04346 Q433.6597,422.29184,432.42523,420.0698 L430.7793,417.10712 Q429.54486,414.8851,424.90665,402.7098 L418.72238,386.4761 Q414.08417,374.30084,414.4387,370.40106 z" fill="url(#gradient_face3)" stroke="none" stroke-width="0"/>
<path d="M338,444 L346,432 L430,426 L443,433 L354,511 L348,506 L335,472 z" fill="none" stroke="none" stroke-width="0"/>
<linearGradient id="gradient_face4" x1="0" x2="1.01" y1="0" y2="1.01">
<stop offset="0%" stop-color="#03313CFF"/>
<stop offset="100%" stop-color="#2F5055FF"/>
</linearGradient>
<path d="M344.6288,443.07065 L347.01282,439.49466 Q348.8008,436.81268,372.83295,435.0961 L404.8758,432.8073 Q428.90793,431.09073,430.52176,431.95972 L432.67352,433.11838 Q434.28735,433.98734,410.17657,455.11813 L378.0289,483.29248 Q353.91815,504.42325,353.4039,503.99472 L352.71823,503.4233 Q352.20395,502.99475,348.57266,493.4975 L343.73093,480.8345 Q340.0996,471.33728,340.922,463.66187 L342.01846,453.428 Q342.84085,445.75262,344.6288,443.07065 z" fill="url(#gradient_face4)" stroke="none" stroke-width="0"/>
<path d="M298,310 L320,301 L359,304 L381,318 L359,410 L347,426 z" fill="none" stroke="none" stroke-width="0"/>
<linearGradient id="gradient_face5" x1="0" x2="1.01" y1="0" y2="1.01">
<stop offset="0%" stop-color="#466264FF"/>
<stop offset="100%" stop-color="#B4BBB0FF"/>
</linearGradient>
<path d="M309.4408,310.7219 L315.93015,308.06714 Q320.79718,306.07608,331.76907,306.92007 L346.3983,308.0454 Q357.3702,308.8894,362.75153,312.31387 L369.92664,316.87988 Q375.30798,320.30435,369.02902,346.5618 L360.6571,381.57172 Q354.37814,407.82913,352.53082,410.29227 L350.0677,413.57642 Q348.22034,416.03955,335.12637,385.04156 L317.66776,343.7109 Q304.57376,312.71295,309.4408,310.7219 z" fill="url(#gradient_face5)" stroke="none" stroke-width="0"/>
<path d="M534,327 L532,366 L511,402 L503,407 L411,353 L403,335 z" fill="none" stroke="none" stroke-width="0"/>
<linearGradient id="gradient_face6" x1="0" x2="1.01" y1="0" y2="1.01">
<stop offset="0%" stop-color="#CACCBEFF"/>
<stop offset="100%" stop-color="#04323FFF"/>
</linearGradient>
<path d="M528.2247,341.99133 L527.56415,354.87076 Q527.0688,364.5303,521.1391,374.6955 L513.23285,388.2491 Q507.30313,398.4143,505.9878,399.2364 L504.234,400.33252 Q502.91867,401.1546,476.51804,385.65857 L441.3172,364.9972 Q414.91656,349.5012,413.58997,346.51633 L411.82114,342.5365 Q410.49454,339.55164,445.9622,337.38568 L493.25235,334.4977 Q528.72003,332.33176,528.2247,341.99133 z" fill="url(#gradient_face6)" stroke="none" stroke-width="0"/>
<path d="M443,433 L462,435 L424,568 L374,543 L354,511 z" fill="none" stroke="none" stroke-width="0"/>
<linearGradient id="gradient_face7" x1="0" x2="1.01" y1="0" y2="1.01">
<stop offset="0%" stop-color="#063541FF"/>
<stop offset="100%" stop-color="#4D2D34FF"/>
</linearGradient>
<path d="M447.92294,438.54584 L452.2854,439.00504 Q455.55722,439.34943,445.1443,475.79468 L431.2604,524.3883 Q420.84747,560.83356,407.84155,554.3306 L390.5003,545.66 Q377.4944,539.15704,372.39435,530.99695 L365.5943,520.1169 Q360.49426,511.95685,385.74133,489.83023 L419.40405,460.32806 Q444.65112,438.20142,447.92294,438.54584 z" fill="url(#gradient_face7)" stroke="none" stroke-width="0"/>
<path d="M273,313 L298,310 L347,426 L346,432 L338,444 L222,361 L226,350 z" fill="none" stroke="none" stroke-width="0"/>
<linearGradient id="gradient_face8" x1="0" x2="1.01" y1="0" y2="1.01">
<stop offset="0%" stop-color="#002C39FF"/>
<stop offset="100%" stop-color="#D53C24FF"/>
</linearGradient>
<path d="M280.95038,317.08182 L288.89798,316.1281 Q294.85867,315.41284,308.94992,348.77173 L327.73825,393.2502 Q341.8295,426.6091,341.654,427.6622 L341.41998,429.06635 Q341.24445,430.11945,339.88306,432.16153 L338.06787,434.8843 Q336.70648,436.9264,304.09332,413.5911 L260.6091,382.4774 Q227.99593,359.1421,228.66078,357.31372 L229.54727,354.8759 Q230.21213,353.04752,243.64539,342.47238 L261.5564,328.37222 Q274.98965,317.79712,280.95038,317.08182 z" fill="url(#gradient_face8)" stroke="none" stroke-width="0"/>
<path d="M508,237 L524,253 L538,314 L534,327 L403,335 L385,319 z" fill="none" stroke="none" stroke-width="0"/>
<linearGradient id="gradient_face9" x1="0" x2="1.01" y1="0" y2="1.01">
<stop offset="0%" stop-color="#A13031FF"/>
<stop offset="100%" stop-color="#AB6E0CFF"/>
</linearGradient>
<path d="M510.9885,247.05957 L515.82263,251.89368 Q519.4482,255.51927,523.46173,273.0069 L528.8132,296.32373 Q532.8267,313.81137,532.0505,316.33405 L531.01556,319.69766 Q530.2393,322.22034,492.59824,324.51904 L442.4101,327.58395 Q404.76898,329.88266,401.28738,326.7879 L396.64526,322.66156 Q393.16367,319.5668,427.42343,296.72696 L473.10315,266.27383 Q507.3629,243.43398,510.9885,247.05957 z" fill="url(#gradient_face9)" stroke="none" stroke-width="0"/>
<path d="M462,435 L486,425 L520,570 L489,582 L424,569 L424,568 z" fill="none" stroke="none" stroke-width="0"/>
<linearGradient id="gradient_face10" x1="0" x2="1.01" y1="0" y2="1.01">
<stop offset="0%" stop-color="#D14020FF"/>
<stop offset="100%" stop-color="#6E833AFF"/>
</linearGradient>
<path d="M471.04578,436.64758 L477.5788,433.9255 Q482.47855,431.88394,491.97675,472.3909 L504.641,526.4002 Q514.13916,566.90717,506.4633,569.8785 L496.22876,573.8402 Q488.55286,576.8115,470.68698,573.2384 L446.86584,568.4741 Q429,564.901,429,566.0408 L429,567.5605 Q429,568.70026,440.1438,529.69696 L455.00223,477.69247 Q466.14603,438.68915,471.04578,436.64758 z" fill="url(#gradient_face10)" stroke="none" stroke-width="0"/>
<path d="M186,408 L222,361 L338,444 L335,472 L185,452 z" fill="none" stroke="none" stroke-width="0"/>
<linearGradient id="gradient_face11" x1="0" x2="1.01" y1="0" y2="1.01">
<stop offset="0%" stop-color="#AB6E0CFF"/>
<stop offset="100%" stop-color="#8B7C34FF"/>
</linearGradient>
<path d="M200.58109,397.18625 L213.40701,380.44128 Q223.02646,367.88254,255.9338,391.4283 L299.81027,422.8227 Q332.71762,446.36847,332.07486,452.36765 L331.21783,460.36658 Q330.57504,466.36575,288.43268,460.74677 L232.24284,453.2548 Q190.10048,447.6358,190.35883,436.26855 L190.7033,421.1122 Q190.96164,409.74496,200.58109,397.18625 z" fill="url(#gradient_face11)" stroke="none" stroke-width="0"/>
<path d="M434,168 L482,191 L508,237 L385,319 L381,318 L359,304 z" fill="none" stroke="none" stroke-width="0"/>
<linearGradient id="gradient_face12" x1="0" x2="1.01" y1="0" y2="1.01">
<stop offset="0%" stop-color="#778B24FF"/>
<stop offset="100%" stop-color="#85804EFF"/>
</linearGradient>
<path d="M448.7949,180.63359 L465.72415,188.74551 Q478.42108,194.82947,485.3032,207.00554 L494.47937,223.24033 Q501.3615,235.41641,466.17313,258.87534 L419.25525,290.1539 Q384.06686,313.61282,383.74677,313.5328 L383.31995,313.42612 Q382.99985,313.34607,377.79367,310.03305 L370.8521,305.6157 Q365.64594,302.30267,386.78152,263.97678 L414.96234,212.87555 Q436.09796,174.54964,448.7949,180.63359 z" fill="url(#gradient_face12)" stroke="none" stroke-width="0"/>
<path d="M503,407 L511,402 L613,526 L566,567 L520,570 L486,425 z" fill="none" stroke="none" stroke-width="0"/>
<linearGradient id="gradient_face13" x1="0" x2="1.01" y1="0" y2="1.01">
<stop offset="0%" stop-color="#677261FF"/>
<stop offset="100%" stop-color="#3C85B6FF"/>
</linearGradient>
<path d="M507.31424,410.19986 L508.80743,409.2666 Q509.92734,408.56665,538.765,443.6242 L577.2152,490.3676 Q606.0529,525.4252,593.4332,536.4338 L576.607,551.112 Q563.9873,562.12067,551.9614,562.9049 L535.92694,563.9507 Q523.90106,564.735,514.17535,523.2577 L501.20776,467.9547 Q491.48206,426.47748,495.89575,421.80417 L501.78064,415.5731 Q506.19434,410.89978,507.31424,410.19986 z" fill="url(#gradient_face13)" stroke="none" stroke-width="0"/>
<path d="M171,489 L185,452 L335,472 L348,506 L192,558 z" fill="none" stroke="none" stroke-width="0"/>
<linearGradient id="gradient_face14" x1="0" x2="1.01" y1="0" y2="1.01">
<stop offset="0%" stop-color="#B28803FF"/>
<stop offset="100%" stop-color="#6791A7FF"/>
</linearGradient>
<path d="M179.87747,479.66672 L184.67448,466.9889 Q188.27223,457.48056,231.20808,463.20532 L288.45587,470.83838 Q331.39172,476.56314,334.4136,484.46658 L338.4428,495.00452 Q341.46472,502.90796,297.61194,517.5256 L239.14154,537.0157 Q195.28874,551.6333,189.58604,532.8958 L181.98242,507.91254 Q176.27972,489.17505,179.87747,479.66672 z" fill="url(#gradient_face14)" stroke="none" stroke-width="0"/>
<path d="M330,134 L410,144 L434,168 L359,304 L320,301 z" fill="none" stroke="none" stroke-width="0"/>
<linearGradient id="gradient_face15" x1="0" x2="1.01" y1="0" y2="1.01">
<stop offset="0%" stop-color="#6E7C74FF"/>
<stop offset="100%" stop-color="#BF4D87FF"/>
</linearGradient>
<path d="M356.57385,142.36064 L385.77594,146.01091 Q407.67752,148.7486,413.71616,154.78722 L421.76764,162.83871 Q427.80627,168.87733,406.31702,207.84453 L377.66467,259.80078 Q356.1754,298.76794,346.90826,298.05508 L334.55206,297.1046 Q325.2849,296.39175,328.1011,249.36111 L331.85605,186.6536 Q334.67224,139.62294,356.57385,142.36064 z" fill="url(#gradient_face15)" stroke="none" stroke-width="0"/>
<path d="M511,402 L532,366 L686,439 L640,516 L613,526 z" fill="none" stroke="none" stroke-width="0"/>
<linearGradient id="gradient_face16" x1="0" x2="1.01" y1="0" y2="1.01">
<stop offset="0%" stop-color="#3686BDFF"/>
<stop offset="100%" stop-color="#8065B6FF"/>
</linearGradient>
<path d="M522.15295,392.80383 L528.92615,381.19263 Q534.00604,372.48422,577.4697,393.08713 L635.42126,420.55768 Q678.88495,441.1606,666.2028,462.38937 L649.29333,490.6944 Q636.6112,511.9232,630.00806,514.3688 L621.20386,517.62964 Q614.60065,520.07526,585.3424,484.50635 L546.3313,437.08115 Q517.07306,401.51224,522.15295,392.80383 z" fill="url(#gradient_face16)" stroke="none" stroke-width="0"/>
<path d="M348,506 L354,511 L374,543 L247,661 L190,581 L192,558 z" fill="none" stroke="none" stroke-width="0"/>
<linearGradient id="gradient_face17" x1="0" x2="1.01" y1="0" y2="1.01">
<stop offset="0%" stop-color="#5E90ADFF"/>
<stop offset="100%" stop-color="#33999EFF"/>
</linearGradient>
<path d="M347.9124,512.43555 L349.21057,513.51733 Q350.1842,514.32874,355.40033,522.6745 L362.35516,533.80225 Q367.5713,542.148,331.6303,575.542 L283.70898,620.0673 Q247.768,653.4613,231.97983,631.3024 L210.92892,601.7573 Q195.14075,579.59845,195.60753,574.2304 L196.22992,567.07294 Q196.6967,561.7049,241.76933,546.68066 L301.86615,526.64844 Q346.93878,511.6242,347.9124,512.43555 z" fill="url(#gradient_face17)" stroke="none" stroke-width="0"/>
<path d="M314,126 L330,134 L320,301 L298,310 L273,313 L211,150 L217,146 z" fill="none" stroke="none" stroke-width="0"/>
<linearGradient id="gradient_face18" x1="0" x2="1.01" y1="0" y2="1.01">
<stop offset="0%" stop-color="#A8688CFF"/>
<stop offset="100%" stop-color="#88A1A0FF"/>
</linearGradient>
<path d="M316.76276,132.97154 L321.36212,135.27122 Q324.81165,136.99599,321.92722,185.166 L318.0813,249.39268 Q315.19687,297.5627,309.65765,299.82877 L302.272,302.85016 Q296.7328,305.11618,290.59818,305.85236 L282.4187,306.8339 Q276.2841,307.57004,258.5261,260.88367 L234.84874,198.63515 Q217.09073,151.94876,217.65251,151.57425 L218.40155,151.07489 Q218.96333,150.70036,247.2683,144.86429 L285.00824,137.08286 Q313.31323,131.24678,316.76276,132.97154 z" fill="url(#gradient_face18)" stroke="none" stroke-width="0"/>
<path d="M534,327 L538,314 L708,318 L719,369 L709,421 L686,439 L532,366 z" fill="none" stroke="none" stroke-width="0"/>
<linearGradient id="gradient_face19" x1="0" x2="1.01" y1="0" y2="1.01">
<stop offset="0%" stop-color="#B14997FF"/>
<stop offset="100%" stop-color="#E9E4D2FF"/>
</linearGradient>
<path d="M539.7729,325.2399 L540.8546,321.72433 Q541.6659,319.08765,590.34906,320.23312 L655.26,321.76044 Q703.9432,322.9059,706.92944,336.75134 L710.91113,355.21185 Q713.8974,369.05725,711.0613,383.80508 L707.2798,403.46887 Q704.44366,418.21667,698.71576,422.69937 L691.0786,428.67627 Q685.35077,433.15894,640.89496,412.08572 L581.62054,383.98813 Q537.1648,362.91492,537.70386,352.4034 L538.42255,338.3881 Q538.9616,327.8766,539.7729,325.2399 z" fill="url(#gradient_face19)" stroke="none" stroke-width="0"/>
<path d="M374,543 L424,568 L424,569 L357,721 L305,713 L252,677 L251,676 L247,661 z" fill="none" stroke="none" stroke-width="0"/>
<linearGradient id="gradient_face20" x1="0" x2="1.01" y1="0" y2="1.01">
<stop offset="0%" stop-color="#6079BCFF"/>
<stop offset="100%" stop-color="#FDF6E3FF"/>
</linearGradient>
<path d="M388.1049,555.64264 L405.75925,564.4698 Q419,571.09015,419,570.1472 L419,568.8899 Q419,567.9469,399.49133,612.2054 L373.47977,671.2167 Q353.9711,715.47516,339.8425,713.3016 L321.0044,710.4034 Q306.8758,708.22974,291.37332,697.69977 L270.70337,683.6598 Q255.2009,673.1298,255.28616,673.2151 L255.39987,673.3288 Q255.48515,673.41406,254.62134,670.1748 L253.4696,665.85583 Q252.6058,662.6166,289.2833,628.53827 L338.1866,583.1005 Q374.86414,549.0222,388.1049,555.64264 z" fill="url(#gradient_face20)" stroke="none" stroke-width="0"/>
<path d="M197,153 L211,150 L273,313 L226,350 L115,235 L143,189 z" fill="none" stroke="none" stroke-width="0"/>
<linearGradient id="gradient_face21" x1="0" x2="1.01" y1="0" y2="1.01">
<stop offset="0%" stop-color="#2EA198FF"/>
<stop offset="100%" stop-color="#FDF6E3FF"/>
</linearGradient>
<path d="M201.64168,157.11887 L205.19049,156.3584 Q207.85211,155.78806,225.60263,202.45477 L249.27002,264.67706 Q267.02054,311.34378,254.85196,320.9233 L238.62718,333.696 Q226.4586,343.2755,194.90419,310.584 L152.83162,266.99533 Q121.27721,234.30382,128.90257,221.77643 L139.06973,205.07324 Q146.6951,192.54585,162.38058,182.08887 L183.29457,168.14621 Q198.98007,157.68921,201.64168,157.11887 z" fill="url(#gradient_face21)" stroke="none" stroke-width="0"/>
<path d="M665,197 L699,240 L711,306 L708,318 L538,314 L524,253 z" fill="none" stroke="none" stroke-width="0"/>
<linearGradient id="gradient_face22" x1="0" x2="1.01" y1="0" y2="1.01">
<stop offset="0%" stop-color="#839496FF"/>
<stop offset="100%" stop-color="#839496FF"/>
</linearGradient>
<path d="M672.6617,214.7512 L685.0286,230.39182 Q694.3039,242.12225,697.77905,261.23563 L702.4126,286.72012 Q705.88776,305.83347,705.35724,307.95563 L704.64984,310.78516 Q704.11926,312.90732,655.4846,311.76297 L590.6384,310.23715 Q542.0038,309.09283,538.35254,293.18396 L533.48425,271.9721 Q529.833,256.06323,569.89905,240.1505 L623.32043,218.9335 Q663.3864,203.02077,672.6617,214.7512 z" fill="url(#gradient_face22)" stroke="none" stroke-width="0"/>
<path d="M424,569 L489,582 L487,727 L434,744 L368,729 L357,721 z" fill="none" stroke="none" stroke-width="0"/>
<linearGradient id="gradient_face23" x1="0" x2="1.01" y1="0" y2="1.01">
<stop offset="0%" stop-color="#909F9FFF"/>
<stop offset="100%" stop-color="#8B9B9BFF"/>
</linearGradient>
<path d="M444.05215,578.10944 L466.84702,582.6684 Q483.94315,586.08765,483.3752,627.2624 L482.61798,682.16205 Q482.05005,723.3368,467.56747,727.9822 L448.2574,734.17596 Q433.7748,738.8213,414.67535,734.4805 L389.2094,728.6928 Q370.10995,724.35205,368.03738,722.8447 L365.27396,720.8349 Q363.20135,719.3276,382.32776,675.9364 L407.82962,618.0814 Q426.956,574.69025,444.05215,578.10944 z" fill="url(#gradient_face23)" stroke="none" stroke-width="0"/>
<path d="M103,241 L115,235 L226,350 L222,361 L186,408 L60,354 L63,298 z" fill="none" stroke="none" stroke-width="0"/>
<linearGradient id="gradient_face24" x1="0" x2="1.01" y1="0" y2="1.01">
<stop offset="0%" stop-color="#294C54FF"/>
<stop offset="100%" stop-color="#002C37FF"/>
</linearGradient>
<path d="M108.64234,243.769 L111.67655,242.25189 Q113.95222,241.11406,145.83673,274.14758 L188.34943,318.19226 Q220.23395,351.22577,219.43283,353.42886 L218.36465,356.3663 Q217.56354,358.5694,207.61305,371.5603 L194.34575,388.88153 Q184.39526,401.8724,148.63058,386.5447 L100.94435,366.10773 Q65.17967,350.78003,66.00062,335.45566 L67.095215,315.02316 Q67.91616,299.69882,79.45132,283.26123 L94.83152,261.34442 Q106.36668,244.90683,108.64234,243.769 z" fill="url(#gradient_face24)" stroke="none" stroke-width="0"/>
<path d="M575,100 L627,123 L664,183 L665,197 L524,253 L508,237 L482,191 z" fill="none" stroke="none" stroke-width="0"/>
<linearGradient id="gradient_face25" x1="0" x2="1.01" y1="0" y2="1.01">
<stop offset="0%" stop-color="#04313CFF"/>
<stop offset="100%" stop-color="#053440FF"/>
</linearGradient>
<path d="M590.3205,112.243614 L609.31366,120.64445 Q623.55853,126.94507,634.221,144.23558 L648.4376,167.28958 Q659.1001,184.58008,659.29565,187.3174 L659.55634,190.96715 Q659.7519,193.70445,619.3894,209.73492 L565.5729,231.10889 Q525.21045,247.13936,521.2525,243.18146 L515.97534,237.90428 Q512.01746,233.9464,504.88544,221.32819 L495.37607,204.5039 Q488.24402,191.8857,514.5935,166.10289 L549.72614,131.72581 Q576.07556,105.94299,590.3205,112.243614 z" fill="url(#gradient_face25)" stroke="none" stroke-width="0"/>
<path d="M520,570 L566,567 L611,680 L572,722 L501,733 L487,727 L489,582 z" fill="none" stroke="none" stroke-width="0"/>
<linearGradient id="gradient_face26" x1="0" x2="1.01" y1="0" y2="1.01">
<stop offset="0%" stop-color="#03313CFF"/>
<stop offset="100%" stop-color="#2F5055FF"/>
</linearGradient>
<path d="M533.57294,574.1254 L550.2165,573.04 Q562.6992,572.2259,575.4451,604.23224 L592.43964,646.90735 Q605.1855,678.9137,594.4852,690.4371 L580.21826,705.8015 Q569.51794,717.3249,549.158,720.47925 L522.0115,724.68506 Q501.65155,727.8394,498.7698,726.6044 L494.92746,724.95764 Q492.0457,723.7226,492.61786,682.2391 L493.38077,626.92773 Q493.95297,585.4443,502.09415,582.29285 L512.94904,578.09094 Q521.0902,574.9395,533.57294,574.1254 z" fill="url(#gradient_face26)" stroke="none" stroke-width="0"/>
<path d="M48,365 L60,354 L186,408 L185,452 L171,489 L57,488 L31,436 z" fill="none" stroke="none" stroke-width="0"/>
<linearGradient id="gradient_face27" x1="0" x2="1.01" y1="0" y2="1.01">
<stop offset="0%" stop-color="#466264FF"/>
<stop offset="100%" stop-color="#B4BBB0FF"/>
</linearGradient>
<path d="M55.053936,365.31674 L58.450737,362.203 Q60.99834,359.8677,96.97619,375.28677 L144.94666,395.84555 Q180.92451,411.26462,180.65338,423.19452 L180.29187,439.101 Q180.02074,451.03088,176.28174,460.9125 L171.29642,474.08798 Q167.55743,483.9696,135.3213,483.68683 L92.33981,483.3098 Q60.103687,483.02704,52.95858,468.73682 L43.431774,449.6832 Q36.286667,435.393,41.152565,415.0707 L47.640434,387.97433 Q52.506332,367.65204,55.053936,365.31674 z" fill="url(#gradient_face27)" stroke="none" stroke-width="0"/>
<path d="M451,48 L510,39 L569,83 L575,100 L482,191 L434,168 L410,144 z" fill="none" stroke="none" stroke-width="0"/>
<linearGradient id="gradient_face28" x1="0" x2="1.01" y1="0" y2="1.01">
<stop offset="0%" stop-color="#CACCBEFF"/>
<stop offset="100%" stop-color="#04323FFF"/>
</linearGradient>
<path d="M470.7597,50.043648 L492.43243,46.737637 Q508.687,44.258125,525.5183,56.810287 L547.9601,73.54651 Q564.7914,86.09867,566.12103,89.86608 L567.8939,94.8893 Q569.22363,98.656715,542.7579,124.55328 L507.47025,159.08205 Q481.00452,184.97862,467.78253,178.6431 L450.15323,170.19572 Q436.93127,163.8602,430.62967,157.55861 L422.22757,149.1565 Q415.92596,142.8549,427.49973,115.75537 L442.9314,79.62268 Q454.50516,52.523155,470.7597,50.043648 z" fill="url(#gradient_face28)" stroke="none" stroke-width="0"/>
<path d="M613,526 L640,516 L706,584 L697,643 L632,682 L611,680 L566,567 z" fill="none" stroke="none" stroke-width="0"/>
<linearGradient id="gradient_face29" x1="0" x2="1.01" y1="0" y2="1.01">
<stop offset="0%" stop-color="#063541FF"/>
<stop offset="100%" stop-color="#4D2D34FF"/>
</linearGradient>
<path d="M622.52167,527.80536 L631.75574,524.3854 Q638.6813,521.8203,657.28174,540.98444 L682.08234,566.53656 Q700.68274,585.7006,698.2014,601.96704 L694.893,623.65564 Q692.4117,639.92206,673.9394,651.00543 L649.30963,665.78326 Q630.83734,676.86664,625.9407,676.40027 L619.41174,675.7785 Q614.515,675.31213,601.74713,643.2505 L584.72327,600.50165 Q571.9553,568.44,585.04755,557.0191 L602.5039,541.79126 Q615.5961,530.3704,622.52167,527.80536 z" fill="url(#gradient_face29)" stroke="none" stroke-width="0"/>
<path d="M57,488 L171,489 L192,558 L190,581 L114,611 L56,584 L44,508 z" fill="none" stroke="none" stroke-width="0"/>
<linearGradient id="gradient_face30" x1="0" x2="1.01" y1="0" y2="1.01">
<stop offset="0%" stop-color="#002C39FF"/>
<stop offset="100%" stop-color="#D53C24FF"/>
</linearGradient>
<path d="M91.974174,493.30698 L135.00919,493.68448 Q167.28545,493.96762,173.18031,513.3365 L181.04013,539.1616 Q186.935,558.53046,186.44054,564.21686 L185.78125,571.79865 Q185.28677,577.48505,163.9495,585.90765 L135.49977,597.1378 Q114.16248,605.5604,98.07082,598.06946 L76.61527,588.08154 Q60.523617,580.5906,57.13797,559.1482 L52.623775,530.5583 Q49.23813,509.11584,52.37607,504.28824 L56.559986,497.85144 Q59.69792,493.02386,91.974174,493.30698 z" fill="url(#gradient_face30)" stroke="none" stroke-width="0"/>
<path d="M361,6 L437,24 L451,48 L410,144 L330,134 L314,126 L315,58 z" fill="none" stroke="none" stroke-width="0"/>
<linearGradient id="gradient_face31" x1="0" x2="1.01" y1="0" y2="1.01">
<stop offset="0%" stop-color="#A13031FF"/>
<stop offset="100%" stop-color="#AB6E0CFF"/>
</linearGradient>
<path d="M384.06125,16.600195 L412.46133,23.326532 Q433.76138,28.371284,437.25732,34.364292 L441.91855,42.354973 Q445.41446,48.34798,433.8546,75.41498 L418.44147,111.504295 Q406.8816,138.57129,384.25812,135.74336 L354.0935,131.97278 Q331.47003,129.14484,327.7427,127.28119 L322.77295,124.79631 Q319.04565,122.932655,319.3236,104.030525 L319.69424,78.82768 Q319.97223,59.925552,332.8089,45.41452 L349.9245,26.066475 Q362.76117,11.555441,384.06125,16.600195 z" fill="url(#gradient_face31)" stroke="none" stroke-width="0"/>
<path d="M686,439 L709,421 L728,432 L785,517 L739,581 L706,584 L640,516 z" fill="none" stroke="none" stroke-width="0"/>
<linearGradient id="gradient_face32" x1="0" x2="1.01" y1="0" y2="1.01">
<stop offset="0%" stop-color="#D14020FF"/>
<stop offset="100%" stop-color="#6E833AFF"/>
</linearGradient>
<path d="M695.69635,437.7607 L703.5383,431.6235 Q709.41986,427.02057,713.94165,429.63843 L719.97064,433.1289 Q724.4924,435.7468,740.8187,460.09308 L762.5872,492.5548 Q778.9136,516.9011,766.12134,534.699 L749.06506,558.42944 Q736.2728,576.2273,727.7685,577.0004 L716.4294,578.03125 Q707.92505,578.8044,689.42554,559.74426 L664.7595,534.3308 Q646.26,515.2707,659.3264,493.39856 L676.74835,464.23575 Q689.8148,442.36365,695.69635,437.7607 z" fill="url(#gradient_face32)" stroke="none" stroke-width="0"/>
<path d="M114,611 L190,581 L247,661 L251,676 L141,715 L97,649 z" fill="none" stroke="none" stroke-width="0"/>
<linearGradient id="gradient_face33" x1="0" x2="1.01" y1="0" y2="1.01">
<stop offset="0%" stop-color="#AB6E0CFF"/>
<stop offset="100%" stop-color="#8B7C34FF"/>
</linearGradient>
<path d="M138.87149,606.55774 L167.05785,595.4316 Q188.1976,587.0869,204.45898,609.9099 L226.14084,640.3406 Q242.40224,663.16364,243.1755,666.06335 L244.20653,669.9297 Q244.9798,672.82947,214.38583,683.67645 L173.59387,698.13904 Q142.99991,708.98596,130.90726,690.847 L114.783714,666.6617 Q102.69106,648.5227,107.20326,638.43665 L113.219536,624.98846 Q117.731735,614.9024,138.87149,606.55774 z" fill="url(#gradient_face33)" stroke="none" stroke-width="0"/>
<path d="M284,17 L315,58 L314,126 L217,146 L206,37 z" fill="none" stroke="none" stroke-width="0"/>
<linearGradient id="gradient_face34" x1="0" x2="1.01" y1="0" y2="1.01">
<stop offset="0%" stop-color="#778B24FF"/>
<stop offset="100%" stop-color="#85804EFF"/>
</linearGradient>
<path d="M290.40558,33.762295 L301.58826,48.552284 Q309.97528,59.644775,309.70056,78.325386 L309.33426,103.232864 Q309.05957,121.913475,282.76718,127.33459 L247.71065,134.56273 Q221.41826,139.98384,218.4147,110.22134 L214.40996,70.537994 Q211.4064,40.77549,232.59006,35.343784 L260.83493,28.101511 Q282.0186,22.669804,290.40558,33.762295 z" fill="url(#gradient_face34)" stroke="none" stroke-width="0"/>
<path d="M800,361 L800,439 L728,432 L709,421 L719,369 z" fill="none" stroke="none" stroke-width="0"/>
<linearGradient id="gradient_face35" x1="0" x2="1.01" y1="0" y2="1.01">
<stop offset="0%" stop-color="#010506FF"/>
<stop offset="100%" stop-color="#010506FF"/>
</linearGradient>
<path d="M795,386.6098 L795,413.39865 Q795,433.49033,775.3695,431.5818 L749.19556,429.0371 Q729.56506,427.12857,725.06995,424.52612 L719.0764,421.0562 Q714.5813,418.45377,717.16846,405.00034 L720.6181,387.06244 Q723.20526,373.60898,744.7437,371.48175 L773.4616,368.64542 Q795,366.51816,795,386.6098 z" fill="url(#gradient_face35)" stroke="none" stroke-width="0"/>
<path d="M800,439 L800,521 L785,517 L728,432 z" fill="none" stroke="none" stroke-width="0"/>
<linearGradient id="gradient_face36" x1="0" x2="1.01" y1="0" y2="1.01">
<stop offset="0%" stop-color="#010506FF"/>
<stop offset="100%" stop-color="#010506FF"/>
</linearGradient>
<path d="M795,464.82382 L795,493.2056 Q795,514.49194,792.9316,513.94037 L790.17377,513.20496 Q788.10535,512.6534,773.08685,490.2574 L753.0622,460.39606 Q738.0437,438.00006,755.1306,439.6613 L777.9131,441.87625 Q795,443.53748,795,464.82382 z" fill="url(#gradient_face36)" stroke="none" stroke-width="0"/>
<path d="M800,521 L800,614 L739,581 L785,517 z" fill="none" stroke="none" stroke-width="0"/>
<linearGradient id="gradient_face37" x1="0" x2="1.01" y1="0" y2="1.01">
<stop offset="0%" stop-color="#010506FF"/>
<stop offset="100%" stop-color="#010506FF"/>
</linearGradient>
<path d="M795,549.0721 L795,581.37964 Q795,605.6103,780.41266,597.7188 L760.9629,587.1968 Q746.3756,579.3053,758.5767,562.32983 L774.8449,539.6958 Q787.046,522.72034,789.43225,523.3566 L792.61383,524.2051 Q795,524.8414,795,549.0721 z" fill="url(#gradient_face37)" stroke="none" stroke-width="0"/>
<path d="M800,614 L800,728 L697,643 L706,584 L739,581 z" fill="none" stroke="none" stroke-width="0"/>
<linearGradient id="gradient_face38" x1="0" x2="1.01" y1="0" y2="1.01">
<stop offset="0%" stop-color="#010506FF"/>
<stop offset="100%" stop-color="#010506FF"/>
</linearGradient>
<path d="M795,647.1032 L795,687.2677 Q795,717.39105,767.2112,694.45856 L730.1594,663.8819 Q702.37067,640.94934,704.76514,625.252 L707.9578,604.32227 Q710.35236,588.62494,718.63135,587.8723 L729.67,586.8688 Q737.949,586.11615,755.0643,595.37524 L777.8847,607.72076 Q795,616.97986,795,647.1032 z" fill="url(#gradient_face38)" stroke="none" stroke-width="0"/>
<path d="M800,800 L728,800 L632,682 L697,643 L800,728 z" fill="none" stroke="none" stroke-width="0"/>
<linearGradient id="gradient_face39" x1="0" x2="1.01" y1="0" y2="1.01">
<stop offset="0%" stop-color="#010506FF"/>
<stop offset="100%" stop-color="#010506FF"/>
</linearGradient>
<path d="M775.61334,795 L749.7645,795 Q730.37787,795,703.1203,761.49585 L666.7768,716.8236 Q639.51917,683.31946,656.6262,673.05524 L679.4356,659.36957 Q696.5427,649.10535,726.0799,673.4807 L765.4628,705.98114 Q795,730.3565,795,749.7496 L795,775.60693 Q795,795,775.61334,795 z" fill="url(#gradient_face39)" stroke="none" stroke-width="0"/>
<path d="M728,800 L614,800 L572,722 L611,680 L632,682 z" fill="none" stroke="none" stroke-width="0"/>
<linearGradient id="gradient_face40" x1="0" x2="1.01" y1="0" y2="1.01">
<stop offset="0%" stop-color="#010506FF"/>
<stop offset="100%" stop-color="#010506FF"/>
</linearGradient>
<path d="M687.3365,795 L647.1365,795 Q616.98645,795,605.3202,773.33405 L589.76514,744.44604 Q578.0988,722.7801,588.56433,711.5095 L602.5184,696.4821 Q612.9839,685.21155,617.92145,685.6818 L624.5048,686.3088 Q629.4423,686.77905,655.8556,719.2453 L691.07324,762.5337 Q717.4865,795,687.3365,795 z" fill="url(#gradient_face40)" stroke="none" stroke-width="0"/>
<path d="M614,800 L521,800 L501,733 L572,722 z" fill="none" stroke="none" stroke-width="0"/>
<linearGradient id="gradient_face41" x1="0" x2="1.01" y1="0" y2="1.01">
<stop offset="0%" stop-color="#010506FF"/>
<stop offset="100%" stop-color="#010506FF"/>
</linearGradient>
<path d="M581.3579,795 L548.9965,795 Q524.72546,795,519.5371,777.619 L512.6193,754.44434 Q507.43094,737.0633,525.9836,734.18896 L550.72046,730.3565 Q569.27313,727.4821,580.1799,747.7375 L594.72217,774.7446 Q605.6289,795,581.3579,795 z" fill="url(#gradient_face41)" stroke="none" stroke-width="0"/>
<path d="M521,800 L439,800 L434,744 L487,727 L501,733 z" fill="none" stroke="none" stroke-width="0"/>
<linearGradient id="gradient_face42" x1="0" x2="1.01" y1="0" y2="1.01">
<stop offset="0%" stop-color="#010506FF"/>
<stop offset="100%" stop-color="#010506FF"/>
</linearGradient>
<path d="M493.07465,795 L464.78827,795 Q443.57346,795,442.3022,780.76184 L440.60718,761.7776 Q439.3359,747.53937,453.5595,742.9771 L472.5243,736.89404 Q486.74786,732.3318,489.78708,733.6343 L493.83936,735.371 Q496.87854,736.6735,502.10184,754.17145 L509.0662,777.5021 Q514.2894,795,493.07465,795 z" fill="url(#gradient_face42)" stroke="none" stroke-width="0"/>
<path d="M439,800 L361,800 L368,729 L434,744 z" fill="none" stroke="none" stroke-width="0"/>
<linearGradient id="gradient_face43" x1="0" x2="1.01" y1="0" y2="1.01">
<stop offset="0%" stop-color="#010506FF"/>
<stop offset="100%" stop-color="#010506FF"/>
</linearGradient>
<path d="M413.42874,795 L386.62213,795 Q366.5172,795,368.28793,777.0396 L370.64893,753.0924 Q372.41968,735.13196,389.4968,739.0131 L412.2663,744.18805 Q429.34344,748.0692,430.6005,762.14844 L432.2766,780.9208 Q433.5337,795,413.42874,795 z" fill="url(#gradient_face43)" stroke="none" stroke-width="0"/>
<path d="M361,800 L279,800 L305,713 L357,721 L368,729 z" fill="none" stroke="none" stroke-width="0"/>
<linearGradient id="gradient_face44" x1="0" x2="1.01" y1="0" y2="1.01">
<stop offset="0%" stop-color="#010506FF"/>
<stop offset="100%" stop-color="#010506FF"/>
</linearGradient>
<path d="M335.24194,795 L306.93954,795 Q285.71277,795,292.56204,772.0812 L301.69446,741.5228 Q308.54373,718.604,322.49277,720.75 L341.09143,723.6113 Q355.04044,725.7574,357.35126,727.4379 L360.43234,729.6787 Q362.74316,731.3593,360.8608,750.45154 L358.35104,775.9078 Q356.46872,795,335.24194,795 z" fill="url(#gradient_face44)" stroke="none" stroke-width="0"/>
<path d="M279,800 L186,800 L252,677 L305,713 z" fill="none" stroke="none" stroke-width="0"/>
<linearGradient id="gradient_face45" x1="0" x2="1.01" y1="0" y2="1.01">
<stop offset="0%" stop-color="#010506FF"/>
<stop offset="100%" stop-color="#010506FF"/>
</linearGradient>
<path d="M251.0002,795 L218.63281,795 Q194.35727,795,212.18459,761.77637 L235.95433,717.4782 Q253.78165,684.2545,267.39532,693.5016 L285.54684,705.83093 Q299.16052,715.07794,291.9951,739.05457 L282.44116,771.0234 Q275.27576,795,251.0002,795 z" fill="url(#gradient_face45)" stroke="none" stroke-width="0"/>
<path d="M186,800 L72,800 L141,715 L251,676 L252,677 z" fill="none" stroke="none" stroke-width="0"/>
<linearGradient id="gradient_face46" x1="0" x2="1.01" y1="0" y2="1.01">
<stop offset="0%" stop-color="#010506FF"/>
<stop offset="100%" stop-color="#010506FF"/>
</linearGradient>
<path d="M152.85567,795 L112.65178,795 Q82.498856,795,100.94797,772.2728 L125.54679,741.97 Q143.9959,719.2428,175.70598,708.0001 L217.98608,693.0099 Q249.69615,681.7672,248.53868,680.60974 L246.99539,679.06647 Q245.83792,677.909,226.98912,713.0363 L201.85739,759.8727 Q183.00859,795,152.85567,795 z" fill="url(#gradient_face46)" stroke="none" stroke-width="0"/>
<path d="M0,800 L0,728 L97,649 L141,715 L72,800 z" fill="none" stroke="none" stroke-width="0"/>
<linearGradient id="gradient_face47" x1="0" x2="1.01" y1="0" y2="1.01">
<stop offset="0%" stop-color="#010506FF"/>
<stop offset="100%" stop-color="#010506FF"/>
</linearGradient>
<path d="M5,775.6129 L5,749.7634 Q5,730.3763,32.267467,708.16876 L68.624084,678.5587 Q95.891556,656.3512,107.563034,673.85846 L123.125015,697.2014 Q134.7965,714.7086,115.24319,738.796 L89.172104,770.9126 Q69.61879,795,50.23315,795 L24.385637,795 Q5,795,5,775.6129 z" fill="url(#gradient_face47)" stroke="none" stroke-width="0"/>
<path d="M0,728 L0,614 L56,584 L114,611 L97,649 z" fill="none" stroke="none" stroke-width="0"/>
<linearGradient id="gradient_face48" x1="0" x2="1.01" y1="0" y2="1.01">
<stop offset="0%" stop-color="#010506FF"/>
<stop offset="100%" stop-color="#010506FF"/>
</linearGradient>
<path d="M5,687.3337 L5,647.1394 Q5,616.9937,20.34706,608.7721 L40.809807,597.8099 Q56.156864,589.58826,71.53716,596.74805 L92.04422,606.29443 Q107.424515,613.4542,103.07351,623.18 L97.27217,636.1477 Q92.92116,645.8735,66.544815,667.3553 L31.376348,695.9976 Q5,717.4794,5,687.3337 z" fill="url(#gradient_face48)" stroke="none" stroke-width="0"/>
<path d="M0,614 L0,521 L44,508 L56,584 z" fill="none" stroke="none" stroke-width="0"/>
<linearGradient id="gradient_face49" x1="0" x2="1.01" y1="0" y2="1.01">
<stop offset="0%" stop-color="#010506FF"/>
<stop offset="100%" stop-color="#010506FF"/>
</linearGradient>
<path d="M5,581.3753 L5,549.0102 Q5,524.7364,15.485058,521.63855 L29.465136,517.50806 Q39.950195,514.4102,43.117256,534.46826 L47.34,561.21234 Q50.50706,581.2704,36.854942,588.584 L18.652119,598.3355 Q5,605.6492,5,581.3753 z" fill="url(#gradient_face49)" stroke="none" stroke-width="0"/>
<path d="M0,521 L0,439 L31,436 L57,488 L44,508 z" fill="none" stroke="none" stroke-width="0"/>
<linearGradient id="gradient_face50" x1="0" x2="1.01" y1="0" y2="1.01">
<stop offset="0%" stop-color="#010506FF"/>
<stop offset="100%" stop-color="#010506FF"/>
</linearGradient>
<path d="M5,493.0782 L5,464.77036 Q5,443.5395,11.919078,442.8699 L21.144516,441.9771 Q28.063593,441.30753,35.01878,455.2179 L44.29236,473.76505 Q51.247543,487.6754,48.11733,492.49115 L43.943714,498.91208 Q40.813503,503.72778,30.06945,506.9022 L15.74405,511.13467 Q5,514.3091,5,493.0782 z" fill="url(#gradient_face50)" stroke="none" stroke-width="0"/>
<path d="M0,439 L0,361 L48,365 L31,436 z" fill="none" stroke="none" stroke-width="0"/>
<linearGradient id="gradient_face51" x1="0" x2="1.01" y1="0" y2="1.01">
<stop offset="0%" stop-color="#010506FF"/>
<stop offset="100%" stop-color="#010506FF"/>
</linearGradient>
<path d="M5,413.37515 L5,386.55164 Q5,366.434,16.034426,367.35355 L30.746994,368.5796 Q41.781418,369.4991,37.3374,388.05942 L31.41204,412.80652 Q26.968023,431.36682,20.377615,432.0046 L11.590406,432.85498 Q5,433.49277,5,413.37515 z" fill="url(#gradient_face51)" stroke="none" stroke-width="0"/>
<path d="M0,361 L0,279 L63,298 L60,354 L48,365 z" fill="none" stroke="none" stroke-width="0"/>
<linearGradient id="gradient_face52" x1="0" x2="1.01" y1="0" y2="1.01">
<stop offset="0%" stop-color="#010506FF"/>
<stop offset="100%" stop-color="#010506FF"/>
</linearGradient>
<path d="M5,335.19864 L5,306.93106 Q5,285.73038,20.839134,290.50726 L41.95798,296.87643 Q57.797115,301.65332,56.992893,316.66547 L55.920597,336.68167 Q55.116375,351.69382,52.45181,354.13632 L48.899055,357.39304 Q46.23449,359.83554,33.864143,358.8047 L17.370346,357.4302 Q5,356.39932,5,335.19864 z" fill="url(#gradient_face52)" stroke="none" stroke-width="0"/>
<path d="M0,279 L0,186 L103,241 L63,298 z" fill="none" stroke="none" stroke-width="0"/>
<linearGradient id="gradient_face53" x1="0" x2="1.01" y1="0" y2="1.01">
<stop offset="0%" stop-color="#010506FF"/>
<stop offset="100%" stop-color="#010506FF"/>
</linearGradient>
<path d="M5,251.00128 L5,218.62231 Q5,194.33809,32.19898,208.86182 L68.46428,228.22679 Q95.66326,242.75052,85.259285,257.57617 L71.38733,277.34372 Q60.98336,292.16937,44.18835,287.10422 L21.795008,280.35065 Q5,275.2855,5,251.00128 z" fill="url(#gradient_face53)" stroke="none" stroke-width="0"/>
<path d="M0,186 L0,72 L143,189 L115,235 L103,241 z" fill="none" stroke="none" stroke-width="0"/>
<linearGradient id="gradient_face54" x1="0" x2="1.01" y1="0" y2="1.01">
<stop offset="0%" stop-color="#010506FF"/>
<stop offset="100%" stop-color="#010506FF"/>
</linearGradient>
<path d="M5,152.86656 L5,112.68636 Q5,82.551216,44.440258,114.82052 L97.02727,157.84625 Q136.46753,190.11555,128.9704,202.43228 L118.97421,218.85457 Q111.47708,231.1713,108.95659,232.43153 L105.59594,234.11186 Q103.075455,235.3721,73.65282,219.66098 L34.422638,198.71283 Q5,183.00171,5,152.86656 z" fill="url(#gradient_face54)" stroke="none" stroke-width="0"/>
<path d="M0,0 L72,0 L197,153 L143,189 L0,72 z" fill="none" stroke="none" stroke-width="0"/>
<linearGradient id="gradient_face55" x1="0" x2="1.01" y1="0" y2="1.01">
<stop offset="0%" stop-color="#010506FF"/>
<stop offset="100%" stop-color="#010506FF"/>
</linearGradient>
<path d="M24.388527,5 L50.239895,5 Q69.628426,5,105.63241,49.068882 L153.63773,107.82739 Q189.64172,151.89627,175.74033,161.16386 L157.20515,173.52065 Q143.30377,182.78824,101.81264,148.84094 L46.49113,103.577896 Q5,69.63061,5,50.241425 L5,24.389181 Q5,5,24.388527,5 z" fill="url(#gradient_face55)" stroke="none" stroke-width="0"/>
<path d="M72,0 L186,0 L206,37 L217,146 L211,150 L197,153 z" fill="none" stroke="none" stroke-width="0"/>
<linearGradient id="gradient_face56" x1="0" x2="1.01" y1="0" y2="1.01">
<stop offset="0%" stop-color="#010506FF"/>
<stop offset="100%" stop-color="#010506FF"/>
</linearGradient>
<path d="M112.68475,5 L152.87575,5 Q183.01898,5,188.451,15.049237 L195.69371,28.448221 Q201.12572,38.49746,204.30496,70.00081 L208.54395,112.00528 Q211.72318,143.50862,210.9122,144.04927 L209.8309,144.77014 Q209.01993,145.31079,205.99574,145.95883 L201.9635,146.82289 Q198.93933,147.47092,164.01997,104.729645 L117.46085,47.741276 Q82.54151,5,112.68475,5 z" fill="url(#gradient_face56)" stroke="none" stroke-width="0"/>
<path d="M186,0 L279,0 L284,17 L206,37 z" fill="none" stroke="none" stroke-width="0"/>
<linearGradient id="gradient_face57" x1="0" x2="1.01" y1="0" y2="1.01">
<stop offset="0%" stop-color="#010506FF"/>
<stop offset="100%" stop-color="#010506FF"/>
</linearGradient>
<path d="M218.64813,5 L250.99709,5 Q275.25882,5,276.00375,7.5328593 L276.99704,10.910006 Q277.742,13.442864,256.9818,18.765993 L229.30154,25.863495 Q208.54135,31.186623,204.29486,23.330637 L198.63289,12.855987 Q194.38641,5,218.64813,5 z" fill="url(#gradient_face57)" stroke="none" stroke-width="0"/>
<path d="M279,0 L361,0 L361,6 L315,58 L284,17 z" fill="none" stroke="none" stroke-width="0"/>
<linearGradient id="gradient_face58" x1="0" x2="1.01" y1="0" y2="1.01">
<stop offset="0%" stop-color="#010506FF"/>
<stop offset="100%" stop-color="#010506FF"/>
</linearGradient>
<path d="M306.77765,5 L334.90472,5 Q356,5,356,4.731754 L356,4.374092 Q356,4.1058455,343.791,17.907328 L327.51233,36.309303 Q315.3033,50.110783,307.27405,39.49144 L296.5684,25.332314 Q288.53912,14.71297,287.6821,11.799079 L286.5394,7.913891 Q285.68237,5,306.77765,5 z" fill="url(#gradient_face58)" stroke="none" stroke-width="0"/>
<path d="M361,0 L439,0 L437,24 L361,6 z" fill="none" stroke="none" stroke-width="0"/>
<linearGradient id="gradient_face59" x1="0" x2="1.01" y1="0" y2="1.01">
<stop offset="0%" stop-color="#010506FF"/>
<stop offset="100%" stop-color="#010506FF"/>
</linearGradient>
<path d="M386.2698,5 L413.2962,5 Q433.566,5,433.2461,8.838744 L432.81958,13.957069 Q432.4997,17.795815,412.54977,13.070836 L385.9499,6.770866 Q366,2.0458884,366,2.9321218 L366,4.1137667 Q366,5,386.2698,5 z" fill="url(#gradient_face59)" stroke="none" stroke-width="0"/>
<path d="M439,0 L521,0 L510,39 L451,48 L437,24 z" fill="none" stroke="none" stroke-width="0"/>
<linearGradient id="gradient_face60" x1="0" x2="1.01" y1="0" y2="1.01">
<stop offset="0%" stop-color="#010506FF"/>
<stop offset="100%" stop-color="#010506FF"/>
</linearGradient>
<path d="M464.83887,5 L493.15646,5 Q514.39465,5,511.8949,13.862859 L508.56186,25.680004 Q506.06207,34.542862,490.32532,36.943386 L469.34296,40.14408 Q453.6062,42.544605,450.15845,36.63419 L445.56146,28.753635 Q442.11374,22.84322,442.5598,17.490253 L443.15457,10.352965 Q443.60068,5,464.83887,5 z" fill="url(#gradient_face60)" stroke="none" stroke-width="0"/>
<path d="M521,0 L614,0 L569,83 L510,39 z" fill="none" stroke="none" stroke-width="0"/>
<linearGradient id="gradient_face61" x1="0" x2="1.01" y1="0" y2="1.01">
<stop offset="0%" stop-color="#010506FF"/>
<stop offset="100%" stop-color="#010506FF"/>
</linearGradient>
<path d="M549.02985,5 L581.35657,5 Q605.60156,5,594.1285,26.161444 L578.83105,54.3767 Q567.358,75.53815,551.8743,63.990993 L531.22943,48.594795 Q515.7457,37.04765,518.45746,27.433353 L522.0731,14.614294 Q524.7848,5,549.02985,5 z" fill="url(#gradient_face61)" stroke="none" stroke-width="0"/>
<path d="M614,0 L728,0 L627,123 L575,100 L569,83 z" fill="none" stroke="none" stroke-width="0"/>
<linearGradient id="gradient_face62" x1="0" x2="1.01" y1="0" y2="1.01">
<stop offset="0%" stop-color="#010506FF"/>
<stop offset="100%" stop-color="#010506FF"/>
</linearGradient>
<path d="M647.1111,5 L687.2903,5 Q717.4246,5,689.86145,38.567062 L653.11053,83.32314 Q625.5473,116.890205,611.5821,110.71328 L592.9618,102.47738 Q578.9966,96.30045,577.63385,92.43945 L575.8169,87.29146 Q574.4542,83.43046,587.211,59.90132 L604.22,28.529139 Q616.97675,5,647.1111,5 z" fill="url(#gradient_face62)" stroke="none" stroke-width="0"/>
<path d="M800,0 L800,72 L664,183 L627,123 L728,0 z" fill="none" stroke="none" stroke-width="0"/>
<linearGradient id="gradient_face63" x1="0" x2="1.01" y1="0" y2="1.01">
<stop offset="0%" stop-color="#010506FF"/>
<stop offset="100%" stop-color="#010506FF"/>
</linearGradient>
<path d="M795,24.388077 L795,50.238846 Q795,69.62692,756.078,101.39412 L704.18207,143.75038 Q665.2601,175.51758,655.621,159.88654 L642.7688,139.04515 Q633.12964,123.414116,662.2999,87.88988 L701.19366,40.524235 Q730.364,5,749.75476,5 L775.6092,5 Q795,5,795,24.388077 z" fill="url(#gradient_face63)" stroke="none" stroke-width="0"/>
<path d="M800,72 L800,186 L699,240 L665,197 L664,183 z" fill="none" stroke="none" stroke-width="0"/>
<linearGradient id="gradient_face64" x1="0" x2="1.01" y1="0" y2="1.01">
<stop offset="0%" stop-color="#010506FF"/>
<stop offset="100%" stop-color="#010506FF"/>
</linearGradient>
<path d="M795,112.67544 L795,152.8629 Q795,183.0035,766.59875,198.18831 L728.7304,218.43475 Q700.32916,233.61957,691.19366,222.06586 L679.01306,206.6609 Q669.87756,195.1072,669.66595,192.14479 L669.3838,188.19493 Q669.1722,185.23253,706.92053,154.42322 L757.25165,113.34415 Q795,82.53484,795,112.67544 z" fill="url(#gradient_face64)" stroke="none" stroke-width="0"/>
<path d="M800,186 L800,279 L711,306 L699,240 z" fill="none" stroke="none" stroke-width="0"/>
<linearGradient id="gradient_face65" x1="0" x2="1.01" y1="0" y2="1.01">
<stop offset="0%" stop-color="#010506FF"/>
<stop offset="100%" stop-color="#010506FF"/>
</linearGradient>
<path d="M795,218.62769 L795,251.0072 Q795,275.29184,770.9748,282.58038 L738.94116,292.29843 Q714.91595,299.58698,711.81256,282.51822 L707.6747,259.75986 Q704.5713,242.69109,731.6999,228.18668 L767.8714,208.84746 Q795,194.34305,795,218.62769 z" fill="url(#gradient_face65)" stroke="none" stroke-width="0"/>
<path d="M800,279 L800,361 L719,369 L708,318 L711,306 z" fill="none" stroke="none" stroke-width="0"/>
<linearGradient id="gradient_face66" x1="0" x2="1.01" y1="0" y2="1.01">
<stop offset="0%" stop-color="#010506FF"/>
<stop offset="100%" stop-color="#010506FF"/>
</linearGradient>
<path d="M795,306.96017 L795,335.25122 Q795,356.4695,773.38416,358.6044 L744.56305,361.45093 Q722.9472,363.58582,720.0029,349.93515 L716.0773,331.73422 Q713.133,318.08353,713.7421,315.64706 L714.55426,312.39844 Q715.1634,309.96198,739.1144,302.69595 L771.049,293.0079 Q795,285.74188,795,306.96017 z" fill="url(#gradient_face66)" stroke="none" stroke-width="0"/>
<circle cx="400" cy="400" fill="none" r="0" stroke="none" stroke-width="0"/>
<circle cx="396" cy="411" fill="none" r="0" stroke="none" stroke-width="0"/>
<circle cx="384" cy="383" fill="none" r="0" stroke="none" stroke-width="0"/>
<circle cx="432" cy="388" fill="none" r="0" stroke="none" stroke-width="0"/>
<circle cx="398" cy="446" fill="none" r="0" stroke="none" stroke-width="0"/>
<circle cx="349" cy="375" fill="none" r="0" stroke="none" stroke-width="0"/>
<circle cx="452" cy="355" fill="none" r="0" stroke="none" stroke-width="0"/>
<circle cx="425" cy="476" fill="none" r="0" stroke="none" stroke-width="0"/>
<circle cx="309" cy="392" fill="none" r="0" stroke="none" stroke-width="0"/>
<circle cx="449" cy="309" fill="none" r="0" stroke="none" stroke-width="0"/>
<circle cx="471" cy="489" fill="none" r="0" stroke="none" stroke-width="0"/>
<circle cx="279" cy="433" fill="none" r="0" stroke="none" stroke-width="0"/>
<circle cx="418" cy="264" fill="none" r="0" stroke="none" stroke-width="0"/>
<circle cx="528" cy="476" fill="none" r="0" stroke="none" stroke-width="0"/>
<circle cx="271" cy="494" fill="none" r="0" stroke="none" stroke-width="0"/>
<circle cx="362" cy="233" fill="none" r="0" stroke="none" stroke-width="0"/>
<circle cx="580" cy="433" fill="none" r="0" stroke="none" stroke-width="0"/>
<circle cx="293" cy="562" fill="none" r="0" stroke="none" stroke-width="0"/>
<circle cx="287" cy="228" fill="none" r="0" stroke="none" stroke-width="0"/>
<circle cx="614" cy="361" fill="none" r="0" stroke="none" stroke-width="0"/>
<circle cx="349" cy="623" fill="none" r="0" stroke="none" stroke-width="0"/>
<circle cx="206" cy="259" fill="none" r="0" stroke="none" stroke-width="0"/>
<circle cx="616" cy="271" fill="none" r="0" stroke="none" stroke-width="0"/>
<circle cx="435" cy="660" fill="none" r="0" stroke="none" stroke-width="0"/>
<circle cx="136" cy="327" fill="none" r="0" stroke="none" stroke-width="0"/>
<circle cx="578" cy="177" fill="none" r="0" stroke="none" stroke-width="0"/>
<circle cx="541" cy="662" fill="none" r="0" stroke="none" stroke-width="0"/>
<circle cx="93" cy="428" fill="none" r="0" stroke="none" stroke-width="0"/>
<circle cx="499" cy="96" fill="none" r="0" stroke="none" stroke-width="0"/>
<circle cx="650" cy="618" fill="none" r="0" stroke="none" stroke-width="0"/>
<circle cx="91" cy="549" fill="none" r="0" stroke="none" stroke-width="0"/>
<circle cx="384" cy="46" fill="none" r="0" stroke="none" stroke-width="0"/>
<circle cx="742" cy="529" fill="none" r="0" stroke="none" stroke-width="0"/>
<circle cx="139" cy="673" fill="none" r="0" stroke="none" stroke-width="0"/>
<circle cx="247" cy="43" fill="none" r="0" stroke="none" stroke-width="0"/>
<circle cx="820" cy="400" fill="none" r="0" stroke="none" stroke-width="0"/>
<circle cx="812" cy="482" fill="none" r="0" stroke="none" stroke-width="0"/>
<circle cx="788" cy="561" fill="none" r="0" stroke="none" stroke-width="0"/>
<circle cx="749" cy="633" fill="none" r="0" stroke="none" stroke-width="0"/>
<circle cx="697" cy="697" fill="none" r="0" stroke="none" stroke-width="0"/>
<circle cx="633" cy="749" fill="none" r="0" stroke="none" stroke-width="0"/>
<circle cx="561" cy="788" fill="none" r="0" stroke="none" stroke-width="0"/>
<circle cx="482" cy="812" fill="none" r="0" stroke="none" stroke-width="0"/>
<circle cx="400" cy="820" fill="none" r="0" stroke="none" stroke-width="0"/>
<circle cx="318" cy="812" fill="none" r="0" stroke="none" stroke-width="0"/>
<circle cx="239" cy="788" fill="none" r="0" stroke="none" stroke-width="0"/>
<circle cx="167" cy="749" fill="none" r="0" stroke="none" stroke-width="0"/>
<circle cx="103" cy="697" fill="none" r="0" stroke="none" stroke-width="0"/>
<circle cx="51" cy="633" fill="none" r="0" stroke="none" stroke-width="0"/>
<circle cx="12" cy="561" fill="none" r="0" stroke="none" stroke-width="0"/>
<circle cx="-12" cy="482" fill="none" r="0" stroke="none" stroke-width="0"/>
<circle cx="-20" cy="400" fill="none" r="0" stroke="none" stroke-width="0"/>
<circle cx="-12" cy="318" fill="none" r="0" stroke="none" stroke-width="0"/>
<circle cx="12" cy="239" fill="none" r="0" stroke="none" stroke-width="0"/>
<circle cx="51" cy="167" fill="none" r="0" stroke="none" stroke-width="0"/>
<circle cx="103" cy="103" fill="none" r="0" stroke="none" stroke-width="0"/>
<circle cx="167" cy="51" fill="none" r="0" stroke="none" stroke-width="0"/>
<circle cx="239" cy="12" fill="none" r="0" stroke="none" stroke-width="0"/>
<circle cx="318" cy="-12" fill="none" r="0" stroke="none" stroke-width="0"/>
<circle cx="400" cy="-20" fill="none" r="0" stroke="none" stroke-width="0"/>
<circle cx="482" cy="-12" fill="none" r="0" stroke="none" stroke-width="0"/>
<circle cx="561" cy="12" fill="none" r="0" stroke="none" stroke-width="0"/>
<circle cx="633" cy="51" fill="none" r="0" stroke="none" stroke-width="0"/>
<circle cx="697" cy="103" fill="none" r="0" stroke="none" stroke-width="0"/>
<circle cx="749" cy="167" fill="none" r="0" stroke="none" stroke-width="0"/>
<circle cx="788" cy="239" fill="none" r="0" stroke="none" stroke-width="0"/>
<circle cx="812" cy="318" fill="none" r="0" stroke="none" stroke-width="0"/>
<circle cx="141" cy="715" fill="none" r="0" stroke="none" stroke-width="0"/>
<circle cx="434" cy="744" fill="none" r="0" stroke="none" stroke-width="0"/>
<circle cx="572" cy="722" fill="none" r="0" stroke="none" stroke-width="0"/>
<circle cx="501" cy="733" fill="none" r="0" stroke="none" stroke-width="0"/>
<circle cx="487" cy="727" fill="none" r="0" stroke="none" stroke-width="0"/>
<circle cx="368" cy="729" fill="none" r="0" stroke="none" stroke-width="0"/>
<circle cx="357" cy="721" fill="none" r="0" stroke="none" stroke-width="0"/>
<circle cx="632" cy="682" fill="none" r="0" stroke="none" stroke-width="0"/>
<circle cx="305" cy="713" fill="none" r="0" stroke="none" stroke-width="0"/>
<circle cx="611" cy="680" fill="none" r="0" stroke="none" stroke-width="0"/>
<circle cx="97" cy="649" fill="none" r="0" stroke="none" stroke-width="0"/>
<circle cx="697" cy="643" fill="none" r="0" stroke="none" stroke-width="0"/>
<circle cx="252" cy="677" fill="none" r="0" stroke="none" stroke-width="0"/>
<circle cx="251" cy="676" fill="none" r="0" stroke="none" stroke-width="0"/>
<circle cx="247" cy="661" fill="none" r="0" stroke="none" stroke-width="0"/>
<circle cx="114" cy="611" fill="none" r="0" stroke="none" stroke-width="0"/>
<circle cx="56" cy="584" fill="none" r="0" stroke="none" stroke-width="0"/>
<circle cx="739" cy="581" fill="none" r="0" stroke="none" stroke-width="0"/>
<circle cx="706" cy="584" fill="none" r="0" stroke="none" stroke-width="0"/>
<circle cx="489" cy="582" fill="none" r="0" stroke="none" stroke-width="0"/>
<circle cx="190" cy="581" fill="none" r="0" stroke="none" stroke-width="0"/>
<circle cx="424" cy="569" fill="none" r="0" stroke="none" stroke-width="0"/>
<circle cx="424" cy="568" fill="none" r="0" stroke="none" stroke-width="0"/>
<circle cx="520" cy="570" fill="none" r="0" stroke="none" stroke-width="0"/>
<circle cx="785" cy="517" fill="none" r="0" stroke="none" stroke-width="0"/>
<circle cx="566" cy="567" fill="none" r="0" stroke="none" stroke-width="0"/>
<circle cx="374" cy="543" fill="none" r="0" stroke="none" stroke-width="0"/>
<circle cx="192" cy="558" fill="none" r="0" stroke="none" stroke-width="0"/>
<circle cx="44" cy="508" fill="none" r="0" stroke="none" stroke-width="0"/>
<circle cx="354" cy="511" fill="none" r="0" stroke="none" stroke-width="0"/>
<circle cx="348" cy="506" fill="none" r="0" stroke="none" stroke-width="0"/>
<circle cx="613" cy="526" fill="none" r="0" stroke="none" stroke-width="0"/>
<circle cx="57" cy="488" fill="none" r="0" stroke="none" stroke-width="0"/>
<circle cx="640" cy="516" fill="none" r="0" stroke="none" stroke-width="0"/>
<circle cx="335" cy="472" fill="none" r="0" stroke="none" stroke-width="0"/>
<circle cx="171" cy="489" fill="none" r="0" stroke="none" stroke-width="0"/>
<circle cx="430" cy="426" fill="none" r="0" stroke="none" stroke-width="0"/>
<circle cx="425" cy="417" fill="none" r="0" stroke="none" stroke-width="0"/>
<circle cx="443" cy="433" fill="none" r="0" stroke="none" stroke-width="0"/>
<circle cx="338" cy="444" fill="none" r="0" stroke="none" stroke-width="0"/>
<circle cx="384" cy="399" fill="none" r="0" stroke="none" stroke-width="0"/>
<circle cx="462" cy="435" fill="none" r="0" stroke="none" stroke-width="0"/>
<circle cx="346" cy="432" fill="none" r="0" stroke="none" stroke-width="0"/>
<circle cx="347" cy="426" fill="none" r="0" stroke="none" stroke-width="0"/>
<circle cx="31" cy="436" fill="none" r="0" stroke="none" stroke-width="0"/>
<circle cx="359" cy="410" fill="none" r="0" stroke="none" stroke-width="0"/>
<circle cx="486" cy="425" fill="none" r="0" stroke="none" stroke-width="0"/>
<circle cx="185" cy="452" fill="none" r="0" stroke="none" stroke-width="0"/>
<circle cx="409" cy="375" fill="none" r="0" stroke="none" stroke-width="0"/>
<circle cx="728" cy="432" fill="none" r="0" stroke="none" stroke-width="0"/>
<circle cx="503" cy="407" fill="none" r="0" stroke="none" stroke-width="0"/>
<circle cx="686" cy="439" fill="none" r="0" stroke="none" stroke-width="0"/>
<circle cx="511" cy="402" fill="none" r="0" stroke="none" stroke-width="0"/>
<circle cx="411" cy="353" fill="none" r="0" stroke="none" stroke-width="0"/>
<circle cx="186" cy="408" fill="none" r="0" stroke="none" stroke-width="0"/>
<circle cx="709" cy="421" fill="none" r="0" stroke="none" stroke-width="0"/>
<circle cx="48" cy="365" fill="none" r="0" stroke="none" stroke-width="0"/>
<circle cx="532" cy="366" fill="none" r="0" stroke="none" stroke-width="0"/>
<circle cx="403" cy="335" fill="none" r="0" stroke="none" stroke-width="0"/>
<circle cx="60" cy="354" fill="none" r="0" stroke="none" stroke-width="0"/>
<circle cx="222" cy="361" fill="none" r="0" stroke="none" stroke-width="0"/>
<circle cx="719" cy="369" fill="none" r="0" stroke="none" stroke-width="0"/>
<circle cx="226" cy="350" fill="none" r="0" stroke="none" stroke-width="0"/>
<circle cx="385" cy="319" fill="none" r="0" stroke="none" stroke-width="0"/>
<circle cx="381" cy="318" fill="none" r="0" stroke="none" stroke-width="0"/>
<circle cx="534" cy="327" fill="none" r="0" stroke="none" stroke-width="0"/>
<circle cx="359" cy="304" fill="none" r="0" stroke="none" stroke-width="0"/>
<circle cx="298" cy="310" fill="none" r="0" stroke="none" stroke-width="0"/>
<circle cx="273" cy="313" fill="none" r="0" stroke="none" stroke-width="0"/>
<circle cx="538" cy="314" fill="none" r="0" stroke="none" stroke-width="0"/>
<circle cx="320" cy="301" fill="none" r="0" stroke="none" stroke-width="0"/>
<circle cx="63" cy="298" fill="none" r="0" stroke="none" stroke-width="0"/>
<circle cx="708" cy="318" fill="none" r="0" stroke="none" stroke-width="0"/>
<circle cx="711" cy="306" fill="none" r="0" stroke="none" stroke-width="0"/>
<circle cx="524" cy="253" fill="none" r="0" stroke="none" stroke-width="0"/>
<circle cx="699" cy="240" fill="none" r="0" stroke="none" stroke-width="0"/>
<circle cx="103" cy="241" fill="none" r="0" stroke="none" stroke-width="0"/>
<circle cx="508" cy="237" fill="none" r="0" stroke="none" stroke-width="0"/>
<circle cx="115" cy="235" fill="none" r="0" stroke="none" stroke-width="0"/>
<circle cx="665" cy="197" fill="none" r="0" stroke="none" stroke-width="0"/>
<circle cx="664" cy="183" fill="none" r="0" stroke="none" stroke-width="0"/>
<circle cx="143" cy="189" fill="none" r="0" stroke="none" stroke-width="0"/>
<circle cx="482" cy="191" fill="none" r="0" stroke="none" stroke-width="0"/>
<circle cx="434" cy="168" fill="none" r="0" stroke="none" stroke-width="0"/>
<circle cx="627" cy="123" fill="none" r="0" stroke="none" stroke-width="0"/>
<circle cx="197" cy="153" fill="none" r="0" stroke="none" stroke-width="0"/>
<circle cx="410" cy="144" fill="none" r="0" stroke="none" stroke-width="0"/>
<circle cx="211" cy="150" fill="none" r="0" stroke="none" stroke-width="0"/>
<circle cx="217" cy="146" fill="none" r="0" stroke="none" stroke-width="0"/>
<circle cx="330" cy="134" fill="none" r="0" stroke="none" stroke-width="0"/>
<circle cx="575" cy="100" fill="none" r="0" stroke="none" stroke-width="0"/>
<circle cx="314" cy="126" fill="none" r="0" stroke="none" stroke-width="0"/>
<circle cx="569" cy="83" fill="none" r="0" stroke="none" stroke-width="0"/>
<circle cx="206" cy="37" fill="none" r="0" stroke="none" stroke-width="0"/>
<circle cx="315" cy="58" fill="none" r="0" stroke="none" stroke-width="0"/>
<circle cx="510" cy="39" fill="none" r="0" stroke="none" stroke-width="0"/>
<circle cx="451" cy="48" fill="none" r="0" stroke="none" stroke-width="0"/>
<circle cx="284" cy="17" fill="none" r="0" stroke="none" stroke-width="0"/>
<circle cx="437" cy="24" fill="none" r="0" stroke="none" stroke-width="0"/>
<circle cx="361" cy="6" fill="none" r="0" stroke="none" stroke-width="0"/>
<circle cx="0" cy="0" fill="none" r="0" stroke="none" stroke-width="0"/>
<circle cx="800" cy="0" fill="none" r="0" stroke="none" stroke-width="0"/>
<circle cx="800" cy="800" fill="none" r="0" stroke="none" stroke-width="0"/>
<circle cx="0" cy="800" fill="none" r="0" stroke="none" stroke-width="0"/>
<circle cx="800" cy="361" fill="none" r="0" stroke="none" stroke-width="0"/>
<circle cx="800" cy="439" fill="none" r="0" stroke="none" stroke-width="0"/>
<circle cx="800" cy="521" fill="none" r="0" stroke="none" stroke-width="0"/>
<circle cx="800" cy="614" fill="none" r="0" stroke="none" stroke-width="0"/>
<circle cx="800" cy="728" fill="none" r="0" stroke="none" stroke-width="0"/>
<circle cx="728" cy="800" fill="none" r="0" stroke="none" stroke-width="0"/>
<circle cx="614" cy="800" fill="none" r="0" stroke="none" stroke-width="0"/>
<circle cx="521" cy="800" fill="none" r="0" stroke="none" stroke-width="0"/>
<circle cx="439" cy="800" fill="none" r="0" stroke="none" stroke-width="0"/>
<circle cx="361" cy="800" fill="none" r="0" stroke="none" stroke-width="0"/>
<circle cx="279" cy="800" fill="none" r="0" stroke="none" stroke-width="0"/>
<circle cx="186" cy="800" fill="none" r="0" stroke="none" stroke-width="0"/>
<circle cx="72" cy="800" fill="none" r="0" stroke="none" stroke-width="0"/>
<circle cx="0" cy="728" fill="none" r="0" stroke="none" stroke-width="0"/>
<circle cx="0" cy="614" fill="none" r="0" stroke="none" stroke-width="0"/>
<circle cx="0" cy="521" fill="none" r="0" stroke="none" stroke-width="0"/>
<circle cx="0" cy="439" fill="none" r="0" stroke="none" stroke-width="0"/>
<circle cx="0" cy="361" fill="none" r="0" stroke="none" stroke-width="0"/>
<circle cx="0" cy="279" fill="none" r="0" stroke="none" stroke-width="0"/>
<circle cx="0" cy="186" fill="none" r="0" stroke="none" stroke-width="0"/>
<circle cx="0" cy="72" fill="none" r="0" stroke="none" stroke-width="0"/>
<circle cx="72" cy="0" fill="none" r="0" stroke="none" stroke-width="0"/>
<circle cx="186" cy="0" fill="none" r="0" stroke="none" stroke-width="0"/>
<circle cx="279" cy="0" fill="none" r="0" stroke="none" stroke-width="0"/>
<circle cx="361" cy="0" fill="none" r="0" stroke="none" stroke-width="0"/>
<circle cx="439" cy="0" fill="none" r="0" stroke="none" stroke-width="0"/>
<circle cx="521" cy="0" fill="none" r="0" stroke="none" stroke-width="0"/>
<circle cx="614" cy="0" fill="none" r="0" stroke="none" stroke-width="0"/>
<circle cx="728" cy="0" fill="none" r="0" stroke="none" stroke-width="0"/>
<circle cx="800" cy="72" fill="none" r="0" stroke="none" stroke-width="0"/>
<circle cx="800" cy="186" fill="none" r="0" stroke="none" stroke-width="0"/>
<circle cx="800" cy="279" fill="none" r="0" stroke="none" stroke-width="0"/>
</svg>