<svg 
            xmlns:xlink="http://www.w3.org/1999/xlink" viewBox="0 0 800 800" xmlns="http://www.w3.org/2000/svg">
<rect fill="#150F01" height="800" stroke="none" width="800" x="0" y="0"/>
<path d="M408,372 L435,399 L390,408 L382,389 z" fill="none" stroke="none" stroke-width="0"/>
<linearGradient id="gradient_face0" x1="0" x2="1.01" y1="0" y2="1.01">
<stop offset="0%" stop-color="#1B9E77FF"/>
<stop offset="100%" stop-color="#1B9E77FF"/>
</linearGradient>
<path d="M412.5931,383.66418 L419.60178,390.67282 Q424.85825,395.92932,415.30786,397.83942 L402.57397,400.3862 Q393.02356,402.29626,391.5844,398.87823 L389.6655,394.3209 Q388.22635,390.90286,393.9594,387.1543 L401.60355,382.15625 Q407.3366,378.40768,412.5931,383.66418 z" fill="url(#gradient_face0)" stroke="none" stroke-width="0"/>
<path d="M435,399 L437,401 L413,455 L387,441 L390,408 z" fill="none" stroke="none" stroke-width="0"/>
<linearGradient id="gradient_face1" x1="0" x2="1.01" y1="0" y2="1.01">
<stop offset="0%" stop-color="#B06C1AFF"/>
<stop offset="100%" stop-color="#D16106FF"/>
</linearGradient>
<path d="M432.66052,403.7316 L431.73236,402.80344 Q431.03625,402.10733,424.91183,415.8873 L416.74594,434.26056 Q410.62152,448.0405,405.11862,445.0774 L397.7814,441.1266 Q392.27847,438.16348,392.98737,430.36566 L393.93256,419.96857 Q394.64145,412.17072,406.256,409.8478 L421.74207,406.7506 Q433.35663,404.4277,432.66052,403.7316 z" fill="url(#gradient_face1)" stroke="none" stroke-width="0"/>
<path d="M349,388 L382,389 L390,408 L387,441 L329,435 z" fill="none" stroke="none" stroke-width="0"/>
<linearGradient id="gradient_face2" x1="0" x2="1.01" y1="0" y2="1.01">
<stop offset="0%" stop-color="#9F6867FF"/>
<stop offset="100%" stop-color="#7C6EA5FF"/>
</linearGradient>
<path d="M360.17566,393.34094 L370.72568,393.66064 Q378.63818,393.90042,380.519,398.36734 L383.02673,404.3232 Q384.90756,408.79013,384.17896,416.80478 L383.2075,427.49097 Q382.47888,435.5056,368.6113,434.07104 L350.12115,432.15826 Q336.25357,430.7237,341.05646,419.43692 L347.4603,404.38794 Q352.26315,393.10117,360.17566,393.34094 z" fill="url(#gradient_face2)" stroke="none" stroke-width="0"/>
<path d="M337,331 L346,321 L405,339 L408,372 L382,389 L349,388 z" fill="none" stroke="none" stroke-width="0"/>
<linearGradient id="gradient_face3" x1="0" x2="1.01" y1="0" y2="1.01">
<stop offset="0%" stop-color="#9E56A4FF"/>
<stop offset="100%" stop-color="#DA308EFF"/>
</linearGradient>
<path d="M343.96725,330.73282 L346.03537,328.43494 Q347.58646,326.71152,363.408,331.53842 L384.5034,337.9743 Q400.32495,342.80124,401.052,350.7988 L402.0214,361.46222 Q402.74844,369.45978,396.09784,373.80823 L387.23038,379.6062 Q380.57977,383.95468,372.3306,383.70468 L361.3317,383.3714 Q353.08252,383.12143,349.88263,367.92188 L345.6161,347.6558 Q342.41617,332.45627,343.96725,330.73282 z" fill="url(#gradient_face3)" stroke="none" stroke-width="0"/>
<path d="M456,311 L481,325 L469,394 L437,401 L435,399 L408,372 L405,339 z" fill="none" stroke="none" stroke-width="0"/>
<linearGradient id="gradient_face4" x1="0" x2="1.01" y1="0" y2="1.01">
<stop offset="0%" stop-color="#D33B79FF"/>
<stop offset="100%" stop-color="#79932EFF"/>
</linearGradient>
<path d="M461.82333,319.9917 L469.6198,324.35773 Q475.46716,327.63223,472.2219,346.2926 L467.89484,371.17307 Q464.64957,389.83344,456.8354,391.5428 L446.4165,393.8219 Q438.60233,395.53125,438.58228,395.51123 L438.55557,395.4845 Q438.53552,395.46448,430.81955,387.74847 L420.53156,377.46048 Q412.81558,369.7445,412.05365,361.3634 L411.03775,350.18857 Q410.27585,341.80746,423.9859,334.28036 L442.26596,324.24426 Q455.97598,316.71716,461.82333,319.9917 z" fill="url(#gradient_face4)" stroke="none" stroke-width="0"/>
<path d="M437,401 L469,394 L511,437 L499,478 L421,474 L413,455 z" fill="none" stroke="none" stroke-width="0"/>
<linearGradient id="gradient_face5" x1="0" x2="1.01" y1="0" y2="1.01">
<stop offset="0%" stop-color="#6E9E24FF"/>
<stop offset="100%" stop-color="#CEAA07FF"/>
</linearGradient>
<path d="M448.58682,403.58362 L459.31448,401.23694 Q467.36023,399.47693,478.76614,411.15442 L493.97403,426.7244 Q505.37994,438.40186,502.35925,448.7226 L498.33163,462.48352 Q495.31094,472.80426,474.03476,471.71317 L445.6665,470.2584 Q424.39032,469.1673,422.60754,464.9332 L420.2305,459.28775 Q418.44772,455.05368,425.07574,440.14066 L433.9131,420.25662 Q440.54108,405.34363,448.58682,403.58362 z" fill="url(#gradient_face5)" stroke="none" stroke-width="0"/>
<path d="M326,437 L329,435 L387,441 L413,455 L421,474 L388,528 L333,524 z" fill="none" stroke="none" stroke-width="0"/>
<linearGradient id="gradient_face6" x1="0" x2="1.01" y1="0" y2="1.01">
<stop offset="0%" stop-color="#C2A909FF"/>
<stop offset="100%" stop-color="#B48116FF"/>
</linearGradient>
<path d="M330.93652,439.71823 L330.55902,439.9699 Q330.27588,440.15866,346.8434,441.87256 L368.93344,444.1577 Q385.50098,445.8716,392.57358,449.67993 L402.00375,454.75772 Q409.07635,458.56604,410.97272,463.06992 L413.50122,469.07507 Q415.39758,473.57895,406.37518,488.3429 L394.34528,508.02814 Q385.32288,522.7921,371.018,521.7518 L351.94482,520.3646 Q337.63995,519.3242,335.71387,495.3858 L333.14575,463.4679 Q331.21967,439.52948,330.93652,439.71823 z" fill="url(#gradient_face6)" stroke="none" stroke-width="0"/>
<path d="M251,351 L337,331 L349,388 L329,435 L326,437 L261,418 z" fill="none" stroke="none" stroke-width="0"/>
<linearGradient id="gradient_face7" x1="0" x2="1.01" y1="0" y2="1.01">
<stop offset="0%" stop-color="#C58F0FFF"/>
<stop offset="100%" stop-color="#766A52FF"/>
</linearGradient>
<path d="M279.58615,349.48547 L310.1993,342.36615 Q333.15918,337.02664,336.34634,352.1657 L340.5959,372.35114 Q343.78308,387.4902,338.14334,400.74356 L330.6237,418.41473 Q324.98395,431.66812,325.03848,431.63174 L325.1112,431.58328 Q325.16574,431.5469,307.25793,426.31232 L283.38086,419.33286 Q265.47302,414.09827,262.819,396.31628 L259.2803,372.60696 Q256.62628,354.82498,279.58615,349.48547 z" fill="url(#gradient_face7)" stroke="none" stroke-width="0"/>
<path d="M349,257 L424,229 L456,311 L405,339 L346,321 z" fill="none" stroke="none" stroke-width="0"/>
<linearGradient id="gradient_face8" x1="0" x2="1.01" y1="0" y2="1.01">
<stop offset="0%" stop-color="#1B9E77FF"/>
<stop offset="100%" stop-color="#1B9E77FF"/>
</linearGradient>
<path d="M374.02795,252.9933 L400.94525,242.9442 Q421.13318,235.40736,429.71722,257.40393 L441.1626,286.73267 Q449.7466,308.72925,436.15527,316.19116 L418.03348,326.14038 Q404.44214,333.6023,388.46243,328.72714 L367.1562,322.22693 Q351.1765,317.35175,351.97556,300.30527 L353.04095,277.57663 Q353.84003,260.53015,374.02795,252.9933 z" fill="url(#gradient_face8)" stroke="none" stroke-width="0"/>
<path d="M481,325 L539,315 L589,392 L511,437 L469,394 z" fill="none" stroke="none" stroke-width="0"/>
<linearGradient id="gradient_face9" x1="0" x2="1.01" y1="0" y2="1.01">
<stop offset="0%" stop-color="#B06C1AFF"/>
<stop offset="100%" stop-color="#D16106FF"/>
</linearGradient>
<path d="M500.70602,326.67618 L521.2178,323.13968 Q536.6015,320.4873,550.20197,341.43195 L568.3358,369.35815 Q581.9363,390.3028,560.9146,402.43066 L532.8858,418.60114 Q511.86417,430.729,500.61423,419.2112 L485.61432,403.85416 Q474.36438,392.33636,477.65173,373.43402 L482.03488,348.2309 Q485.32227,329.32855,500.70602,326.67618 z" fill="url(#gradient_face9)" stroke="none" stroke-width="0"/>
<path d="M421,474 L499,478 L520,526 L447,601 L388,528 z" fill="none" stroke="none" stroke-width="0"/>
<linearGradient id="gradient_face10" x1="0" x2="1.01" y1="0" y2="1.01">
<stop offset="0%" stop-color="#9F6867FF"/>
<stop offset="100%" stop-color="#7C6EA5FF"/>
</linearGradient>
<path d="M445.29788,480.25262 L474.07498,481.72836 Q495.6578,482.83517,501.1818,495.46146 L508.54712,512.29645 Q514.0711,524.9227,494.05386,545.4884 L467.36423,572.9093 Q447.347,593.4749,431.37433,573.71216 L410.07745,547.36176 Q394.1048,527.599,402.98785,513.06305 L414.83197,493.68176 Q423.71506,479.1458,445.29788,480.25262 z" fill="url(#gradient_face10)" stroke="none" stroke-width="0"/>
<path d="M261,418 L326,437 L333,524 L295,552 L196,490 z" fill="none" stroke="none" stroke-width="0"/>
<linearGradient id="gradient_face11" x1="0" x2="1.01" y1="0" y2="1.01">
<stop offset="0%" stop-color="#9E56A4FF"/>
<stop offset="100%" stop-color="#DA308EFF"/>
</linearGradient>
<path d="M280.21384,428.8256 L303.68723,435.68704 Q321.29227,440.83313,323.24243,465.071 L325.84265,497.3882 Q327.79285,521.6261,317.8865,528.92554 L304.67807,538.658 Q294.77173,545.95746,267.45187,528.8481 L231.02542,506.03552 Q203.70558,488.92612,221.37654,469.35214 L244.93782,443.25348 Q262.6088,423.6795,280.21384,428.8256 z" fill="url(#gradient_face11)" stroke="none" stroke-width="0"/>
<path d="M263,203 L349,257 L346,321 L337,331 L251,351 L220,323 z" fill="none" stroke="none" stroke-width="0"/>
<linearGradient id="gradient_face12" x1="0" x2="1.01" y1="0" y2="1.01">
<stop offset="0%" stop-color="#D33B79FF"/>
<stop offset="100%" stop-color="#79932EFF"/>
</linearGradient>
<path d="M289.08676,225.28401 L320.39078,244.94003 Q343.86877,259.68204,343.03488,277.47214 L341.923,301.19223 Q341.08908,318.98233,339.06305,321.2335 L336.36166,324.23505 Q334.3356,326.4862,309.75864,332.20178 L276.98938,339.82254 Q252.4124,345.53812,244.43965,338.3369 L233.80933,328.73532 Q225.83658,321.53415,237.76823,288.2365 L253.67711,243.83965 Q265.60876,210.542,289.08676,225.28401 z" fill="url(#gradient_face12)" stroke="none" stroke-width="0"/>
<path d="M579,216 L579,217 L539,315 L481,325 L456,311 L424,229 L441,198 z" fill="none" stroke="none" stroke-width="0"/>
<linearGradient id="gradient_face13" x1="0" x2="1.01" y1="0" y2="1.01">
<stop offset="0%" stop-color="#6E9E24FF"/>
<stop offset="100%" stop-color="#CEAA07FF"/>
</linearGradient>
<path d="M574,219.0788 L574,217.33028 Q574,216.01888,562.42554,244.37634 L546.9929,282.18628 Q535.4184,310.54373,519.36194,313.3121 L497.9533,317.00323 Q481.89682,319.7716,475.3297,316.09402 L466.57358,311.19058 Q460.00647,307.513,450.8565,284.06625 L438.65656,252.80391 Q429.50662,229.35715,433.777,221.56998 L439.47086,211.18707 Q443.74124,203.3999,482.81888,208.497 L534.92236,215.29309 Q574,220.39018,574,219.0788 z" fill="url(#gradient_face13)" stroke="none" stroke-width="0"/>
<path d="M589,392 L616,400 L629,545 L621,549 L520,526 L499,478 L511,437 z" fill="none" stroke="none" stroke-width="0"/>
<linearGradient id="gradient_face14" x1="0" x2="1.01" y1="0" y2="1.01">
<stop offset="0%" stop-color="#C2A909FF"/>
<stop offset="100%" stop-color="#B48116FF"/>
</linearGradient>
<path d="M596.1439,399.33157 L604.8178,401.90164 Q611.32324,403.82916,615.04095,445.29602 L619.9979,500.58514 Q623.71564,542.052,622.71045,542.5546 L621.3701,543.2248 Q620.3649,543.72736,591.32635,537.1146 L552.6083,528.29767 Q523.5697,521.6849,517.7915,508.4776 L510.08728,490.8679 Q504.30908,477.6606,507.587,466.4611 L511.95755,451.5284 Q515.2355,440.32892,537.5564,427.45145 L567.3176,410.28152 Q589.63855,397.40405,596.1439,399.33157 z" fill="url(#gradient_face14)" stroke="none" stroke-width="0"/>
<path d="M333,524 L388,528 L447,601 L445,622 L299,668 L290,655 L295,552 z" fill="none" stroke="none" stroke-width="0"/>
<linearGradient id="gradient_face15" x1="0" x2="1.01" y1="0" y2="1.01">
<stop offset="0%" stop-color="#C58F0FFF"/>
<stop offset="100%" stop-color="#766A52FF"/>
</linearGradient>
<path d="M349.7778,530.2334 L370.17587,531.7169 Q385.47443,532.8295,402.38086,553.7476 L424.92273,581.6384 Q441.82913,602.5565,441.3814,607.2576 L440.78445,613.5258 Q440.3367,618.2269,398.53958,631.39594 L342.8101,648.9545 Q301.01294,662.1235,299.23196,659.55096 L296.85733,656.1209 Q295.07635,653.5484,296.51712,623.8686 L298.43814,584.29553 Q299.8789,554.6158,310.259,546.9673 L324.09915,536.7693 Q334.47925,529.1208,349.7778,530.2334 z" fill="url(#gradient_face15)" stroke="none" stroke-width="0"/>
<path d="M102,353 L119,336 L220,323 L251,351 L261,418 L196,490 L182,492 z" fill="none" stroke="none" stroke-width="0"/>
<linearGradient id="gradient_face16" x1="0" x2="1.01" y1="0" y2="1.01">
<stop offset="0%" stop-color="#1B9E77FF"/>
<stop offset="100%" stop-color="#1B9E77FF"/>
</linearGradient>
<path d="M112.17014,349.9009 L117.40417,344.6669 Q121.32968,340.7414,150.43762,336.9948 L189.2482,331.9994 Q218.35614,328.25284,226.74506,335.82993 L237.9303,345.9327 Q246.31921,353.5098,249.1353,372.3776 L252.89008,397.5346 Q255.70616,416.4024,237.04472,437.07355 L212.1628,464.63504 Q193.50136,485.30618,190.84435,485.68576 L187.30165,486.19186 Q184.64462,486.57144,161.72462,446.74792 L131.16463,393.64993 Q108.24463,353.82645,112.17014,349.9009 z" fill="url(#gradient_face16)" stroke="none" stroke-width="0"/>
<path d="M383,86 L391,88 L411,102 L441,198 L424,229 L349,257 L263,203 L261,196 z" fill="none" stroke="none" stroke-width="0"/>
<linearGradient id="gradient_face17" x1="0" x2="1.01" y1="0" y2="1.01">
<stop offset="0%" stop-color="#B06C1AFF"/>
<stop offset="100%" stop-color="#D16106FF"/>
</linearGradient>
<path d="M385.72647,91.8355 L387.53433,92.28747 Q388.89023,92.62644,394.244,96.37407 L401.38232,101.37091 Q406.73608,105.11854,415.3932,132.82127 L426.936,169.75826 Q435.5931,197.461,431.0681,205.71248 L425.03476,216.71446 Q420.50974,224.96594,399.22668,232.91162 L370.84924,243.50586 Q349.56616,251.45155,324.8807,235.95137 L291.96677,215.28448 Q267.2813,199.78432,267.09622,199.13654 L266.84946,198.27284 Q266.6644,197.62506,301.97626,165.7865 L349.05872,123.33509 Q384.37057,91.49653,385.72647,91.8355 z" fill="url(#gradient_face17)" stroke="none" stroke-width="0"/>
<path d="M579,217 L710,310 L709,352 L616,400 L589,392 L539,315 z" fill="none" stroke="none" stroke-width="0"/>
<linearGradient id="gradient_face18" x1="0" x2="1.01" y1="0" y2="1.01">
<stop offset="0%" stop-color="#9F6867FF"/>
<stop offset="100%" stop-color="#7C6EA5FF"/>
</linearGradient>
<path d="M618.3541,251.07027 L667.8307,286.1949 Q704.9382,312.53833,704.6783,323.45187 L704.33185,338.00327 Q704.072,348.91678,677.4983,362.63223 L642.0668,380.9195 Q615.4931,394.63495,608.50183,392.56345 L599.1802,389.80148 Q592.18896,387.73,577.91736,365.7518 L558.8886,336.4475 Q544.61707,314.46933,555.60596,287.54657 L570.25775,251.64957 Q581.24664,224.72682,618.3541,251.07027 z" fill="url(#gradient_face18)" stroke="none" stroke-width="0"/>
<path d="M520,526 L621,549 L562,687 L556,691 L505,699 L445,622 L447,601 z" fill="none" stroke="none" stroke-width="0"/>
<linearGradient id="gradient_face19" x1="0" x2="1.01" y1="0" y2="1.01">
<stop offset="0%" stop-color="#9E56A4FF"/>
<stop offset="100%" stop-color="#DA308EFF"/>
</linearGradient>
<path d="M549.3521,537.81213 L586.3205,546.2307 Q614.04675,552.5446,597.22906,591.88086 L574.8055,644.3293 Q557.9878,683.6655,556.83356,684.43506 L555.2945,685.46106 Q554.14026,686.2306,540.0384,688.4426 L521.23596,691.392 Q507.13412,693.60406,490.04367,671.6713 L467.2564,642.4277 Q450.16595,620.49493,450.65936,615.31433 L451.3172,608.4068 Q451.8106,603.2262,472.75516,581.7078 L500.68124,553.0166 Q521.6258,531.4982,549.3521,537.81213 z" fill="url(#gradient_face19)" stroke="none" stroke-width="0"/>
<path d="M182,492 L196,490 L295,552 L290,655 L154,628 L140,614 L122,560 z" fill="none" stroke="none" stroke-width="0"/>
<linearGradient id="gradient_face20" x1="0" x2="1.01" y1="0" y2="1.01">
<stop offset="0%" stop-color="#D33B79FF"/>
<stop offset="100%" stop-color="#79932EFF"/>
</linearGradient>
<path d="M187.64027,496.245 L191.78662,495.65268 Q194.89636,495.20844,223.38661,513.0508 L261.37363,536.84064 Q289.86386,554.68304,288.4908,582.96814 L286.66006,620.68164 Q285.287,648.96674,246.63959,641.2941 L195.10973,631.0639 Q156.46233,623.39124,152.83469,619.7636 L147.99782,614.92676 Q144.37016,611.2991,139.35522,596.2543 L132.66862,576.1945 Q127.65369,561.14966,144.71674,541.8115 L167.46747,516.0274 Q184.53053,496.68927,187.64027,496.245 z" fill="url(#gradient_face20)" stroke="none" stroke-width="0"/>
<path d="M135,182 L190,154 L261,196 L263,203 L220,323 L119,336 L117,210 z" fill="none" stroke="none" stroke-width="0"/>
<linearGradient id="gradient_face21" x1="0" x2="1.01" y1="0" y2="1.01">
<stop offset="0%" stop-color="#6E9E24FF"/>
<stop offset="100%" stop-color="#CEAA07FF"/>
</linearGradient>
<path d="M153.87779,178.00014 L174.41591,167.54437 Q189.81949,159.70255,209.89554,171.57852 L236.66362,187.41316 Q256.7397,199.28914,257.04294,200.35057 L257.4473,201.76584 Q257.75058,202.82729,245.3231,237.5086 L228.75314,283.75037 Q216.32567,318.4317,188.60114,322.00018 L151.6351,326.7582 Q123.910576,330.3267,123.34441,294.65833 L122.58952,247.10052 Q122.02336,211.43217,126.95862,203.7551 L133.53896,193.51901 Q138.47421,185.84195,153.87779,178.00014 z" fill="url(#gradient_face21)" stroke="none" stroke-width="0"/>
<path d="M524,75 L565,92 L605,147 L579,216 L441,198 L411,102 z" fill="none" stroke="none" stroke-width="0"/>
<linearGradient id="gradient_face22" x1="0" x2="1.01" y1="0" y2="1.01">
<stop offset="0%" stop-color="#C2A909FF"/>
<stop offset="100%" stop-color="#B48116FF"/>
</linearGradient>
<path d="M535.044,84.991974 L550.3242,91.32768 Q561.7844,96.07947,573.0602,111.58368 L588.0946,132.25597 Q599.37036,147.76018,592.2747,166.59099 L582.8138,191.69876 Q575.71814,210.52957,536.4482,205.40741 L484.0883,198.57787 Q444.81836,193.45569,436.58365,167.10464 L425.60406,131.96991 Q417.36935,105.618866,449.23367,98.005264 L491.71945,87.8538 Q523.5838,80.2402,535.044,84.991974 z" fill="url(#gradient_face22)" stroke="none" stroke-width="0"/>
<path d="M709,352 L727,368 L754,435 L740,503 L689,555 L687,556 L629,545 L616,400 z" fill="none" stroke="none" stroke-width="0"/>
<linearGradient id="gradient_face23" x1="0" x2="1.01" y1="0" y2="1.01">
<stop offset="0%" stop-color="#C58F0FFF"/>
<stop offset="100%" stop-color="#766A52FF"/>
</linearGradient>
<path d="M712.61066,361.89926 L718.4338,367.07532 Q722.801,370.95737,730.6003,390.311 L740.99927,416.11584 Q748.79846,435.46948,744.7788,454.99362 L739.41925,481.0258 Q735.39954,500.54993,720.5845,515.6555 L700.831,535.79626 Q686.0159,550.90186,686.0932,550.8632 L686.1962,550.8117 Q686.2735,550.7731,670.48425,547.77856 L649.43195,543.7859 Q633.64276,540.7914,629.93396,499.4244 L624.98895,444.26843 Q621.2802,402.90143,647.36914,389.4362 L682.1544,371.48248 Q708.24335,358.0172,712.61066,361.89926 z" fill="url(#gradient_face23)" stroke="none" stroke-width="0"/>
<path d="M299,668 L445,622 L505,699 L496,716 L435,760 L365,760 L304,716 L299,707 z" fill="none" stroke="none" stroke-width="0"/>
<linearGradient id="gradient_face24" x1="0" x2="1.01" y1="0" y2="1.01">
<stop offset="0%" stop-color="#1B9E77FF"/>
<stop offset="100%" stop-color="#1B9E77FF"/>
</linearGradient>
<path d="M345.75714,658.5106 L401.4333,640.9688 Q443.19043,627.81244,459.95337,649.3249 L482.304,678.0082 Q499.06693,699.5206,496.98514,703.4529 L494.2094,708.6959 Q492.1276,712.6282,474.5048,725.3397 L451.0077,742.28845 Q433.3849,755,413.35394,755 L386.64606,755 Q366.6151,755,348.97937,742.2791 L325.46506,725.318 Q307.8293,712.5971,306.6805,710.5293 L305.1488,707.7722 Q304,705.70435,304,695.49316 L304,681.8782 Q304,671.66693,345.75714,658.5106 z" fill="url(#gradient_face24)" stroke="none" stroke-width="0"/>
<path d="M86,356 L102,353 L182,492 L122,560 L108,556 L48,507 L34,436 L71,368 z" fill="none" stroke="none" stroke-width="0"/>
<linearGradient id="gradient_face25" x1="0" x2="1.01" y1="0" y2="1.01">
<stop offset="0%" stop-color="#B06C1AFF"/>
<stop offset="100%" stop-color="#D16106FF"/>
</linearGradient>
<path d="M91.53467,360.04938 L96.049484,359.20285 Q99.4356,358.56796,122.36774,398.41254 L152.94392,451.53867 Q175.87607,491.38327,159.21494,510.2659 L137.00008,535.4427 Q120.33895,554.3253,117.34661,553.4704 L113.35683,552.33044 Q110.36449,551.47546,93.02231,537.3127 L69.8994,518.429 Q52.55722,504.26624,48.566494,484.02753 L43.245525,457.04263 Q39.2548,436.80396,49.951458,417.14523 L64.21367,390.9336 Q74.91033,371.27487,78.8818,368.0977 L84.17709,363.86145 Q88.14856,360.68427,91.53467,360.04938 z" fill="url(#gradient_face25)" stroke="none" stroke-width="0"/>
<path d="M368,71 L383,86 L261,196 L190,154 L190,144 L224,70 L291,42 z" fill="none" stroke="none" stroke-width="0"/>
<linearGradient id="gradient_face26" x1="0" x2="1.01" y1="0" y2="1.01">
<stop offset="0%" stop-color="#9F6867FF"/>
<stop offset="100%" stop-color="#7C6EA5FF"/>
</linearGradient>
<path d="M368.38177,78.452835 L372.58722,82.6583 Q375.74133,85.8124,341.13348,117.01619 L294.98972,158.62123 Q260.38187,189.82503,240.76732,178.22205 L214.61456,162.7514 Q195,151.14842,195,149.332 L195,146.91011 Q195,145.09369,204.81859,123.72383 L217.91002,95.23069 Q227.7286,73.86084,246.7388,65.91628 L272.08572,55.323536 Q291.09592,47.37898,313.33545,55.754906 L342.98813,66.922806 Q365.22766,75.29873,368.38177,78.452835 z" fill="url(#gradient_face26)" stroke="none" stroke-width="0"/>
<path d="M605,147 L609,146 L694,159 L736,221 L715,305 L710,310 L579,217 L579,216 z" fill="none" stroke="none" stroke-width="0"/>
<linearGradient id="gradient_face27" x1="0" x2="1.01" y1="0" y2="1.01">
<stop offset="0%" stop-color="#9E56A4FF"/>
<stop offset="100%" stop-color="#DA308EFF"/>
</linearGradient>
<path d="M608.8997,151.17896 L609.0928,151.13069 Q609.2376,151.09448,633.79193,154.84984 L666.53094,159.857 Q691.08527,163.61235,702.9419,181.11504 L718.7508,204.45197 Q730.6075,221.95465,724.5708,246.10138 L716.52185,278.29703 Q710.48517,302.44376,710.17487,302.7541 L709.76105,303.16788 Q709.45074,303.4782,671.8155,276.76007 L621.6352,241.13588 Q584,214.41776,584,215.16566 L584,216.16287 Q584,216.91077,591.42645,197.20209 L601.3284,170.92384 Q608.7549,151.21516,608.8997,151.17896 z" fill="url(#gradient_face27)" stroke="none" stroke-width="0"/>
<path d="M621,549 L629,545 L687,556 L699,645 L645,699 L562,687 z" fill="none" stroke="none" stroke-width="0"/>
<linearGradient id="gradient_face28" x1="0" x2="1.01" y1="0" y2="1.01">
<stop offset="0%" stop-color="#D33B79FF"/>
<stop offset="100%" stop-color="#79932EFF"/>
</linearGradient>
<path d="M626.3315,551.92444 L628.2715,550.9544 Q629.7265,550.2269,645.5665,553.2311 L666.6865,557.2366 Q682.52655,560.2407,685.8828,585.13293 L690.3578,618.32263 Q693.71405,643.21484,678.5706,658.3583 L658.3794,678.54956 Q643.23596,693.693,621.0118,690.47986 L591.3796,686.1957 Q569.1554,682.98254,585.8717,643.88336 L608.16016,591.7511 Q624.87646,552.6519,626.3315,551.92444 z" fill="url(#gradient_face28)" stroke="none" stroke-width="0"/>
<path d="M290,655 L299,668 L299,707 L215,747 L151,704 L154,628 z" fill="none" stroke="none" stroke-width="0"/>
<linearGradient id="gradient_face29" x1="0" x2="1.01" y1="0" y2="1.01">
<stop offset="0%" stop-color="#6E9E24FF"/>
<stop offset="100%" stop-color="#CEAA07FF"/>
</linearGradient>
<path d="M289.12878,662.5257 L291.91232,666.5464 Q294,669.5619,294,679.8462 L294,693.55865 Q294,703.843,270.42694,715.06824 L238.99619,730.0353 Q215.42313,741.26056,197.62807,729.3045 L173.9013,713.3631 Q156.10625,701.40704,156.90398,681.198 L157.9676,654.2527 Q158.76534,634.04364,197.24806,641.6836 L248.55838,651.8702 Q287.0411,659.51013,289.12878,662.5257 z" fill="url(#gradient_face29)" stroke="none" stroke-width="0"/>
<path d="M48,212 L117,210 L119,336 L102,353 L86,356 L18,284 z" fill="none" stroke="none" stroke-width="0"/>
<linearGradient id="gradient_face30" x1="0" x2="1.01" y1="0" y2="1.01">
<stop offset="0%" stop-color="#C2A909FF"/>
<stop offset="100%" stop-color="#B48116FF"/>
</linearGradient>
<path d="M69.58555,216.37643 L93.86868,215.67258 Q112.08103,215.14468,112.64683,250.78986 L113.40122,298.31674 Q113.96702,333.9619,109.64439,338.28455 L103.88087,344.04807 Q99.558235,348.3707,96.01909,349.0343 L91.300224,349.91907 Q87.761086,350.58267,68.59191,330.2859 L43.033016,303.22354 Q23.863846,282.92676,32.116653,263.12003 L43.12039,236.71106 Q51.373196,216.90433,69.58555,216.37643 z" fill="url(#gradient_face30)" stroke="none" stroke-width="0"/>
<path d="M438,0 L459,0 L518,12 L524,75 L411,102 L391,88 z" fill="none" stroke="none" stroke-width="0"/>
<linearGradient id="gradient_face31" x1="0" x2="1.01" y1="0" y2="1.01">
<stop offset="0%" stop-color="#C58F0FFF"/>
<stop offset="100%" stop-color="#766A52FF"/>
</linearGradient>
<path d="M446.2476,5 L453.24707,5 Q458.49667,5,474.95978,8.348429 L496.91058,12.813 Q513.3737,16.161428,514.9447,32.65711 L517.0394,54.65135 Q518.6104,71.147026,486.63483,78.78721 L444.0007,88.97413 Q412.02512,96.61431,407.66718,93.563736 L401.85654,89.4963 Q397.49857,86.445724,410.5484,62.01201 L427.94818,29.433718 Q440.998,5,446.2476,5 z" fill="url(#gradient_face31)" stroke="none" stroke-width="0"/>
<path d="M800,361 L800,439 L754,435 L727,368 z" fill="none" stroke="none" stroke-width="0"/>
<linearGradient id="gradient_face32" x1="0" x2="1.01" y1="0" y2="1.01">
<stop offset="0%" stop-color="#150F01FF"/>
<stop offset="100%" stop-color="#150F01FF"/>
</linearGradient>
<path d="M795,386.61557 L795,413.43317 Q795,433.54636,783.74713,432.56784 L768.74335,431.26315 Q757.49054,430.28467,750.48505,412.90076 L741.1445,389.72226 Q734.13904,372.33838,752.39734,370.5876 L776.7417,368.25317 Q795,366.50238,795,386.61557 z" fill="url(#gradient_face32)" stroke="none" stroke-width="0"/>
<path d="M800,439 L800,521 L740,503 L754,435 z" fill="none" stroke="none" stroke-width="0"/>
<linearGradient id="gradient_face33" x1="0" x2="1.01" y1="0" y2="1.01">
<stop offset="0%" stop-color="#150F01FF"/>
<stop offset="100%" stop-color="#150F01FF"/>
</linearGradient>
<path d="M795,464.79282 L795,493.0711 Q795,514.27985,780.24603,509.85367 L760.5741,503.9521 Q745.8201,499.52588,749.47406,481.77814 L754.346,458.11444 Q757.99994,440.3667,769.1,441.3319 L783.89996,442.61887 Q795,443.58408,795,464.79282 z" fill="url(#gradient_face33)" stroke="none" stroke-width="0"/>
<path d="M800,521 L800,614 L689,555 L740,503 z" fill="none" stroke="none" stroke-width="0"/>
<linearGradient id="gradient_face34" x1="0" x2="1.01" y1="0" y2="1.01">
<stop offset="0%" stop-color="#150F01FF"/>
<stop offset="100%" stop-color="#150F01FF"/>
</linearGradient>
<path d="M795,549.00806 L795,581.39197 Q795,605.67993,765.6762,590.0934 L726.5778,569.31134 Q697.254,553.72485,710.51447,540.2044 L728.195,522.1772 Q741.4554,508.65677,757.5188,513.47577 L778.93665,519.9011 Q795,524.72015,795,549.00806 z" fill="url(#gradient_face34)" stroke="none" stroke-width="0"/>
<path d="M800,614 L800,728 L699,645 L687,556 L689,555 z" fill="none" stroke="none" stroke-width="0"/>
<linearGradient id="gradient_face35" x1="0" x2="1.01" y1="0" y2="1.01">
<stop offset="0%" stop-color="#150F01FF"/>
<stop offset="100%" stop-color="#150F01FF"/>
</linearGradient>
<path d="M795,647.12915 L795,687.295 Q795,717.4194,767.6078,694.90894 L731.08484,664.895 Q703.6926,642.3846,700.31464,617.33136 L695.81067,583.92706 Q692.43274,558.8738,691.3819,559.39923 L689.9808,560.0998 Q688.92993,560.6252,720.751,577.53906 L763.17896,600.0909 Q795,617.00476,795,647.12915 z" fill="url(#gradient_face35)" stroke="none" stroke-width="0"/>
<path d="M800,800 L728,800 L645,699 L699,645 L800,728 z" fill="none" stroke="none" stroke-width="0"/>
<linearGradient id="gradient_face36" x1="0" x2="1.01" y1="0" y2="1.01">
<stop offset="0%" stop-color="#150F01FF"/>
<stop offset="100%" stop-color="#150F01FF"/>
</linearGradient>
<path d="M775.6088,795 L749.75397,795 Q730.3628,795,706.7766,766.2987 L675.3283,728.0303 Q651.74207,699.329,666.0181,685.0529 L685.0529,666.0181 Q699.329,651.74207,728.0303,675.3283 L766.2987,706.7766 Q795,730.3628,795,749.75397 L795,775.6088 Q795,795,775.6088,795 z" fill="url(#gradient_face36)" stroke="none" stroke-width="0"/>
<path d="M728,800 L614,800 L556,691 L562,687 L645,699 z" fill="none" stroke="none" stroke-width="0"/>
<linearGradient id="gradient_face37" x1="0" x2="1.01" y1="0" y2="1.01">
<stop offset="0%" stop-color="#150F01FF"/>
<stop offset="100%" stop-color="#150F01FF"/>
</linearGradient>
<path d="M687.29456,795 L647.12805,795 Q617.00323,795,600.66455,764.29456 L578.8797,723.354 Q562.541,692.64856,562.7327,692.52075 L562.9883,692.3504 Q563.18,692.2226,586.9361,695.6572 L618.61096,700.2367 Q642.36707,703.6713,664.88275,731.06995 L694.9037,767.6014 Q717.4194,795,687.29456,795 z" fill="url(#gradient_face37)" stroke="none" stroke-width="0"/>
<path d="M614,800 L521,800 L496,716 L505,699 L556,691 z" fill="none" stroke="none" stroke-width="0"/>
<linearGradient id="gradient_face38" x1="0" x2="1.01" y1="0" y2="1.01">
<stop offset="0%" stop-color="#150F01FF"/>
<stop offset="100%" stop-color="#150F01FF"/>
</linearGradient>
<path d="M581.39154,795 L549.01276,795 Q524.72864,795,517.72266,771.45984 L508.38135,740.073 Q501.37534,716.5329,503.43707,712.63855 L506.18604,707.44604 Q508.24774,703.5517,521.75085,701.43353 L539.755,698.6094 Q553.2582,696.4912,568.9834,726.0439 L589.9504,765.4474 Q605.67566,795,581.39154,795 z" fill="url(#gradient_face38)" stroke="none" stroke-width="0"/>
<path d="M521,800 L439,800 L435,760 L496,716 z" fill="none" stroke="none" stroke-width="0"/>
<linearGradient id="gradient_face39" x1="0" x2="1.01" y1="0" y2="1.01">
<stop offset="0%" stop-color="#150F01FF"/>
<stop offset="100%" stop-color="#150F01FF"/>
</linearGradient>
<path d="M493.0641,795 L464.756,795 Q443.52493,795,442.54602,785.2109 L441.2408,772.1587 Q440.2619,762.36957,456.14807,750.91064 L477.32962,735.63214 Q493.2158,724.1733,499.53958,745.4213 L507.97134,773.752 Q514.29517,795,493.0641,795 z" fill="url(#gradient_face39)" stroke="none" stroke-width="0"/>
<path d="M439,800 L361,800 L365,760 L435,760 z" fill="none" stroke="none" stroke-width="0"/>
<linearGradient id="gradient_face40" x1="0" x2="1.01" y1="0" y2="1.01">
<stop offset="0%" stop-color="#150F01FF"/>
<stop offset="100%" stop-color="#150F01FF"/>
</linearGradient>
<path d="M413.39,795 L386.61,795 Q366.52493,795,367.42493,786 L368.62494,774 Q369.52493,765,387.80997,765 L412.19003,765 Q430.47507,765,431.37506,774 L432.57507,786 Q433.47507,795,413.39,795 z" fill="url(#gradient_face40)" stroke="none" stroke-width="0"/>
<path d="M361,800 L279,800 L304,716 L365,760 z" fill="none" stroke="none" stroke-width="0"/>
<linearGradient id="gradient_face41" x1="0" x2="1.01" y1="0" y2="1.01">
<stop offset="0%" stop-color="#150F01FF"/>
<stop offset="100%" stop-color="#150F01FF"/>
</linearGradient>
<path d="M335.244,795 L306.9359,795 Q285.70483,795,292.02866,773.752 L300.46042,745.4213 Q306.7842,724.1733,322.67038,735.63214 L343.85193,750.91064 Q359.7381,762.36957,358.7592,772.1587 L357.45398,785.2109 Q356.47507,795,335.244,795 z" fill="url(#gradient_face41)" stroke="none" stroke-width="0"/>
<path d="M279,800 L186,800 L215,747 L299,707 L304,716 z" fill="none" stroke="none" stroke-width="0"/>
<linearGradient id="gradient_face42" x1="0" x2="1.01" y1="0" y2="1.01">
<stop offset="0%" stop-color="#150F01FF"/>
<stop offset="100%" stop-color="#150F01FF"/>
</linearGradient>
<path d="M251.02057,795 L218.68619,795 Q194.4354,795,201.68776,781.74567 L211.35757,764.07324 Q218.60994,750.8189,242.0999,739.63324 L273.41986,724.719 Q296.90982,713.53326,297.4192,714.4502 L298.0984,715.6727 Q298.60776,716.5896,291.60684,740.11273 L282.27228,771.47687 Q275.27136,795,251.02057,795 z" fill="url(#gradient_face42)" stroke="none" stroke-width="0"/>
<path d="M186,800 L72,800 L151,704 L215,747 z" fill="none" stroke="none" stroke-width="0"/>
<linearGradient id="gradient_face43" x1="0" x2="1.01" y1="0" y2="1.01">
<stop offset="0%" stop-color="#150F01FF"/>
<stop offset="100%" stop-color="#150F01FF"/>
</linearGradient>
<path d="M152.90237,795 L112.72382,795 Q82.589905,795,103.40625,769.70416 L131.16138,735.97644 Q151.9777,710.68066,168.91116,722.0578 L191.48907,737.22736 Q208.42252,748.6045,200.80666,762.52313 L190.65216,781.08136 Q183.0363,795,152.90237,795 z" fill="url(#gradient_face43)" stroke="none" stroke-width="0"/>
<path d="M0,800 L0,728 L140,614 L154,628 L151,704 L72,800 z" fill="none" stroke="none" stroke-width="0"/>
<linearGradient id="gradient_face44" x1="0" x2="1.01" y1="0" y2="1.01">
<stop offset="0%" stop-color="#150F01FF"/>
<stop offset="100%" stop-color="#150F01FF"/>
</linearGradient>
<path d="M5,775.613 L5,749.7636 Q5,730.3766,45.396973,697.4819 L99.2596,653.6223 Q139.65657,620.72766,142.43488,623.5059 L146.1393,627.2104 Q148.9176,629.98865,148.0634,651.6286 L146.92445,680.4819 Q146.07024,702.1218,123.140945,729.9853 L92.56856,767.13654 Q69.63926,795,50.247482,795 L24.391779,795 Q5,795,5,775.613 z" fill="url(#gradient_face44)" stroke="none" stroke-width="0"/>
<path d="M0,728 L0,614 L108,556 L122,560 L140,614 z" fill="none" stroke="none" stroke-width="0"/>
<linearGradient id="gradient_face45" x1="0" x2="1.01" y1="0" y2="1.01">
<stop offset="0%" stop-color="#150F01FF"/>
<stop offset="100%" stop-color="#150F01FF"/>
</linearGradient>
<path d="M5,687.3335 L5,647.1373 Q5,616.99023,36.07332,600.3027 L77.50441,578.0527 Q108.57773,561.3652,111.43158,562.18054 L115.23672,563.2677 Q118.09057,564.08307,122.91266,578.5494 L129.34212,597.83777 Q134.16422,612.304,95.41495,643.857 L43.749264,685.9276 Q5,717.4806,5,687.3335 z" fill="url(#gradient_face45)" stroke="none" stroke-width="0"/>
<path d="M0,614 L0,521 L48,507 L108,556 z" fill="none" stroke="none" stroke-width="0"/>
<linearGradient id="gradient_face46" x1="0" x2="1.01" y1="0" y2="1.01">
<stop offset="0%" stop-color="#150F01FF"/>
<stop offset="100%" stop-color="#150F01FF"/>
</linearGradient>
<path d="M5,581.37256 L5,549.01685 Q5,524.75,17.562418,521.08594 L34.31231,516.20056 Q46.87473,512.53656,62.523926,525.3167 L83.38953,542.35693 Q99.03872,555.13715,70.8271,570.28784 L33.211617,590.4887 Q5,605.6394,5,581.37256 z" fill="url(#gradient_face46)" stroke="none" stroke-width="0"/>
<path d="M0,521 L0,439 L34,436 L48,507 z" fill="none" stroke="none" stroke-width="0"/>
<linearGradient id="gradient_face47" x1="0" x2="1.01" y1="0" y2="1.01">
<stop offset="0%" stop-color="#150F01FF"/>
<stop offset="100%" stop-color="#150F01FF"/>
</linearGradient>
<path d="M5,493.1068 L5,464.80478 Q5,443.57825,12.489109,442.91745 L22.474586,442.03638 Q29.963696,441.37558,33.63751,460.00705 L38.535923,484.84903 Q42.209736,503.4805,31.046816,506.73636 L16.162922,511.07748 Q5,514.3333,5,493.1068 z" fill="url(#gradient_face47)" stroke="none" stroke-width="0"/>
<path d="M0,439 L0,361 L71,368 L34,436 z" fill="none" stroke="none" stroke-width="0"/>
<linearGradient id="gradient_face48" x1="0" x2="1.01" y1="0" y2="1.01">
<stop offset="0%" stop-color="#150F01FF"/>
<stop offset="100%" stop-color="#150F01FF"/>
</linearGradient>
<path d="M5,413.43274 L5,386.62387 Q5,366.5172,22.400896,368.2328 L45.60209,370.52023 Q63.002983,372.2358,53.368965,389.94156 L40.523605,413.54926 Q30.889585,431.25504,23.12271,431.94034 L12.766875,432.8541 Q5,433.5394,5,413.43274 z" fill="url(#gradient_face48)" stroke="none" stroke-width="0"/>
<path d="M0,361 L0,279 L18,284 L86,356 L71,368 z" fill="none" stroke="none" stroke-width="0"/>
<linearGradient id="gradient_face49" x1="0" x2="1.01" y1="0" y2="1.01">
<stop offset="0%" stop-color="#150F01FF"/>
<stop offset="100%" stop-color="#150F01FF"/>
</linearGradient>
<path d="M5,335.20157 L5,306.84537 Q5,285.57822,8.096195,286.43826 L12.224456,287.585 Q15.320652,288.44507,34.31578,308.55756 L59.642616,335.3742 Q78.63774,355.4867,75.88607,357.68802 L72.21718,360.62314 Q69.46551,362.82446,50.125854,360.91776 L24.339653,358.37543 Q5,356.46872,5,335.20157 z" fill="url(#gradient_face49)" stroke="none" stroke-width="0"/>
<path d="M0,279 L0,186 L48,212 L18,284 z" fill="none" stroke="none" stroke-width="0"/>
<linearGradient id="gradient_face50" x1="0" x2="1.01" y1="0" y2="1.01">
<stop offset="0%" stop-color="#150F01FF"/>
<stop offset="100%" stop-color="#150F01FF"/>
</linearGradient>
<path d="M5,250.95811 L5,218.63618 Q5,194.39473,15.994306,200.34998 L30.65338,208.29031 Q41.647686,214.24556,33.67832,233.37202 L23.05251,258.874 Q15.083147,278.00046,12.058204,277.1602 L8.024944,276.03983 Q5,275.1996,5,250.95811 z" fill="url(#gradient_face50)" stroke="none" stroke-width="0"/>
<path d="M0,186 L0,72 L135,182 L117,210 L48,212 z" fill="none" stroke="none" stroke-width="0"/>
<linearGradient id="gradient_face51" x1="0" x2="1.01" y1="0" y2="1.01">
<stop offset="0%" stop-color="#150F01FF"/>
<stop offset="100%" stop-color="#150F01FF"/>
</linearGradient>
<path d="M5,152.87248 L5,112.673195 Q5,82.523735,42.01348,112.68286 L91.36479,152.89505 Q128.37828,183.05418,124.13073,189.66147 L118.46733,198.47119 Q114.21979,205.07849,94.71359,205.64389 L68.70534,206.39775 Q49.199142,206.96313,35.9394,199.78078 L18.259743,190.2043 Q5,183.02194,5,152.87248 z" fill="url(#gradient_face51)" stroke="none" stroke-width="0"/>
<path d="M0,0 L72,0 L190,144 L190,154 L135,182 L0,72 z" fill="none" stroke="none" stroke-width="0"/>
<linearGradient id="gradient_face52" x1="0" x2="1.01" y1="0" y2="1.01">
<stop offset="0%" stop-color="#150F01FF"/>
<stop offset="100%" stop-color="#150F01FF"/>
</linearGradient>
<path d="M24.389875,5 L50.243042,5 Q69.63292,5,104.24304,47.236084 L150.38988,103.550865 Q185,145.78694,185,147.3313 L185,149.39046 Q185,150.93481,170.19012,158.47438 L150.44362,168.52715 Q135.63374,176.06673,96.44362,144.13403 L44.19012,101.557106 Q5,69.62442,5,50.23709 L5,24.387325 Q5,5,24.389875,5 z" fill="url(#gradient_face52)" stroke="none" stroke-width="0"/>
<path d="M72,0 L186,0 L224,70 L190,144 z" fill="none" stroke="none" stroke-width="0"/>
<linearGradient id="gradient_face53" x1="0" x2="1.01" y1="0" y2="1.01">
<stop offset="0%" stop-color="#150F01FF"/>
<stop offset="100%" stop-color="#150F01FF"/>
</linearGradient>
<path d="M112.700584,5 L152.886,5 Q183.02505,5,193.64111,24.555887 L207.79585,50.630405 Q218.4119,70.186295,209.52734,89.52328 L197.68126,115.30593 Q188.79669,134.64291,156.92615,95.75004 L114.432076,43.892876 Q82.56152,5,112.700584,5 z" fill="url(#gradient_face53)" stroke="none" stroke-width="0"/>
<path d="M186,0 L279,0 L291,42 L224,70 z" fill="none" stroke="none" stroke-width="0"/>
<linearGradient id="gradient_face54" x1="0" x2="1.01" y1="0" y2="1.01">
<stop offset="0%" stop-color="#150F01FF"/>
<stop offset="100%" stop-color="#150F01FF"/>
</linearGradient>
<path d="M218.65102,5 L250.981,5 Q275.2285,5,278.15137,15.230101 L282.04855,28.870234 Q284.97144,39.100334,267.35184,46.463753 L243.85902,56.281647 Q226.23941,63.645065,216.68864,46.051544 L203.95428,22.59352 Q194.40352,5,218.65102,5 z" fill="url(#gradient_face54)" stroke="none" stroke-width="0"/>
<path d="M279,0 L361,0 L368,71 L291,42 z" fill="none" stroke="none" stroke-width="0"/>
<linearGradient id="gradient_face55" x1="0" x2="1.01" y1="0" y2="1.01">
<stop offset="0%" stop-color="#150F01FF"/>
<stop offset="100%" stop-color="#150F01FF"/>
</linearGradient>
<path d="M306.88068,5 L335.2167,5 Q356.46872,5,358.19858,22.545765 L360.50507,45.940117 Q362.23492,63.48588,342.0994,55.902374 L315.25204,45.791027 Q295.11652,38.207516,292.27014,28.245262 L288.475,14.9622555 Q285.62866,5,306.88068,5 z" fill="url(#gradient_face55)" stroke="none" stroke-width="0"/>
<path d="M361,0 L438,0 L391,88 L383,86 L368,71 z" fill="none" stroke="none" stroke-width="0"/>
<linearGradient id="gradient_face56" x1="0" x2="1.01" y1="0" y2="1.01">
<stop offset="0%" stop-color="#150F01FF"/>
<stop offset="100%" stop-color="#150F01FF"/>
</linearGradient>
<path d="M385.46036,5 L410.71793,5 Q429.6611,5,417.29108,28.16091 L400.7977,59.04212 Q388.42764,82.20303,387.56622,81.98768 L386.41766,81.70054 Q385.55624,81.485176,381.7295,77.65842 L376.62714,72.55607 Q372.80038,68.7293,370.9154,49.61051 L368.40216,24.118792 Q366.5172,5,385.46036,5 z" fill="url(#gradient_face56)" stroke="none" stroke-width="0"/>
<path d="M459,0 L521,0 L518,12 z" fill="none" stroke="none" stroke-width="0"/>
<linearGradient id="gradient_face57" x1="0" x2="1.01" y1="0" y2="1.01">
<stop offset="0%" stop-color="#150F01FF"/>
<stop offset="100%" stop-color="#150F01FF"/>
</linearGradient>
<path d="M510.4478,5 L512.8183,5 Q514.5961,5,514.5101,5.3440976 L514.3954,5.802895 Q514.3094,6.1469927,512.61755,5.802895 L510.36182,5.3440976 Q508.66998,5,510.4478,5 z" fill="url(#gradient_face57)" stroke="none" stroke-width="0"/>
<path d="M521,0 L614,0 L565,92 L524,75 L518,12 z" fill="none" stroke="none" stroke-width="0"/>
<linearGradient id="gradient_face58" x1="0" x2="1.01" y1="0" y2="1.01">
<stop offset="0%" stop-color="#150F01FF"/>
<stop offset="100%" stop-color="#150F01FF"/>
</linearGradient>
<path d="M549.13434,5 L581.4416,5 Q605.672,5,592.78674,29.192707 L575.60645,61.44965 Q562.7212,85.64236,552.5126,81.40951 L538.90106,75.76572 Q528.69244,71.532875,527.0023,53.787067 L524.7489,30.125998 Q523.05884,12.380194,523.61237,10.166136 L524.35034,7.2140584 Q524.9039,5,549.13434,5 z" fill="url(#gradient_face58)" stroke="none" stroke-width="0"/>
<path d="M614,0 L728,0 L609,146 L605,147 L565,92 z" fill="none" stroke="none" stroke-width="0"/>
<linearGradient id="gradient_face59" x1="0" x2="1.01" y1="0" y2="1.01">
<stop offset="0%" stop-color="#150F01FF"/>
<stop offset="100%" stop-color="#150F01FF"/>
</linearGradient>
<path d="M647.1436,5 L687.3325,5 Q717.4742,5,684.0843,45.96574 L639.56445,100.58673 Q606.17456,141.55247,606.4401,141.48608 L606.7942,141.39757 Q607.0597,141.33119,596.2069,126.4086 L581.7365,106.51182 Q570.8837,91.589226,584.7192,65.61246 L603.16644,30.976768 Q617.0019,5,647.1436,5 z" fill="url(#gradient_face59)" stroke="none" stroke-width="0"/>
<path d="M800,0 L800,72 L694,159 L609,146 L728,0 z" fill="none" stroke="none" stroke-width="0"/>
<linearGradient id="gradient_face60" x1="0" x2="1.01" y1="0" y2="1.01">
<stop offset="0%" stop-color="#150F01FF"/>
<stop offset="100%" stop-color="#150F01FF"/>
</linearGradient>
<path d="M795,24.390594 L795,50.24472 Q795,69.635315,764.2655,94.860825 L723.28613,128.49483 Q692.5516,153.72034,670.30646,150.31815 L640.64636,145.78189 Q618.40125,142.3797,651.9934,101.16579 L696.78296,46.21391 Q730.3751,5,749.7626,5 L775.61255,5 Q795,5,795,24.390594 z" fill="url(#gradient_face60)" stroke="none" stroke-width="0"/>
<path d="M800,72 L800,186 L736,221 L694,159 z" fill="none" stroke="none" stroke-width="0"/>
<linearGradient id="gradient_face61" x1="0" x2="1.01" y1="0" y2="1.01">
<stop offset="0%" stop-color="#150F01FF"/>
<stop offset="100%" stop-color="#150F01FF"/>
</linearGradient>
<path d="M795,112.71122 L795,152.89655 Q795,183.03554,777.7769,192.45439 L754.81287,205.01288 Q737.5898,214.43175,726.52203,198.09369 L711.7651,176.3096 Q700.6974,159.97154,728.98816,136.75175 L766.7092,105.79203 Q795,82.572235,795,112.71122 z" fill="url(#gradient_face61)" stroke="none" stroke-width="0"/>
<path d="M800,186 L800,279 L715,305 L736,221 z" fill="none" stroke="none" stroke-width="0"/>
<linearGradient id="gradient_face62" x1="0" x2="1.01" y1="0" y2="1.01">
<stop offset="0%" stop-color="#150F01FF"/>
<stop offset="100%" stop-color="#150F01FF"/>
</linearGradient>
<path d="M795,218.69347 L795,251.04048 Q795,275.30072,773.0988,281.9999 L743.8972,290.93216 Q721.99603,297.63135,727.49316,275.64288 L734.82263,246.32494 Q740.31976,224.33647,756.7238,215.3655 L778.59595,203.40419 Q795,194.43321,795,218.69347 z" fill="url(#gradient_face62)" stroke="none" stroke-width="0"/>
<path d="M800,279 L800,361 L727,368 L709,352 L710,310 L715,305 z" fill="none" stroke="none" stroke-width="0"/>
<linearGradient id="gradient_face63" x1="0" x2="1.01" y1="0" y2="1.01">
<stop offset="0%" stop-color="#150F01FF"/>
<stop offset="100%" stop-color="#150F01FF"/>
</linearGradient>
<path d="M795,306.96762 L795,335.24698 Q795,356.4565,775.1078,358.36398 L748.58484,360.9073 Q728.6926,362.81476,724.30096,358.91107 L718.4454,353.70615 Q714.0537,349.80243,714.3229,338.49774 L714.68176,323.42484 Q714.9509,312.12012,715.76196,311.3091 L716.84326,310.22778 Q717.6543,309.41678,740.858,302.31918 L771.79626,292.8557 Q795,285.7581,795,306.96762 z" fill="url(#gradient_face63)" stroke="none" stroke-width="0"/>
<circle cx="400" cy="400" fill="none" r="0" stroke="none" stroke-width="0"/>
<circle cx="402" cy="412" fill="none" r="0" stroke="none" stroke-width="0"/>
<circle cx="377" cy="410" fill="none" r="0" stroke="none" stroke-width="0"/>
<circle cx="379" cy="369" fill="none" r="0" stroke="none" stroke-width="0"/>
<circle cx="435" cy="365" fill="none" r="0" stroke="none" stroke-width="0"/>
<circle cx="452" cy="435" fill="none" r="0" stroke="none" stroke-width="0"/>
<circle cx="371" cy="469" fill="none" r="0" stroke="none" stroke-width="0"/>
<circle cx="314" cy="383" fill="none" r="0" stroke="none" stroke-width="0"/>
<circle cx="400" cy="300" fill="none" r="0" stroke="none" stroke-width="0"/>
<circle cx="510" cy="378" fill="none" r="0" stroke="none" stroke-width="0"/>
<circle cx="448" cy="515" fill="none" r="0" stroke="none" stroke-width="0"/>
<circle cx="286" cy="476" fill="none" r="0" stroke="none" stroke-width="0"/>
<circle cx="294" cy="294" fill="none" r="0" stroke="none" stroke-width="0"/>
<circle cx="490" cy="265" fill="none" r="0" stroke="none" stroke-width="0"/>
<circle cx="562" cy="467" fill="none" r="0" stroke="none" stroke-width="0"/>
<circle cx="363" cy="584" fill="none" r="0" stroke="none" stroke-width="0"/>
<circle cx="200" cy="400" fill="none" r="0" stroke="none" stroke-width="0"/>
<circle cx="359" cy="192" fill="none" r="0" stroke="none" stroke-width="0"/>
<circle cx="608" cy="314" fill="none" r="0" stroke="none" stroke-width="0"/>
<circle cx="532" cy="597" fill="none" r="0" stroke="none" stroke-width="0"/>
<circle cx="223" cy="577" fill="none" r="0" stroke="none" stroke-width="0"/>
<circle cx="182" cy="254" fill="none" r="0" stroke="none" stroke-width="0"/>
<circle cx="505" cy="146" fill="none" r="0" stroke="none" stroke-width="0"/>
<circle cx="682" cy="456" fill="none" r="0" stroke="none" stroke-width="0"/>
<circle cx="400" cy="700" fill="none" r="0" stroke="none" stroke-width="0"/>
<circle cx="94" cy="461" fill="none" r="0" stroke="none" stroke-width="0"/>
<circle cx="276" cy="100" fill="none" r="0" stroke="none" stroke-width="0"/>
<circle cx="681" cy="212" fill="none" r="0" stroke="none" stroke-width="0"/>
<circle cx="647" cy="647" fill="none" r="0" stroke="none" stroke-width="0"/>
<circle cx="199" cy="701" fill="none" r="0" stroke="none" stroke-width="0"/>
<circle cx="54" cy="256" fill="none" r="0" stroke="none" stroke-width="0"/>
<circle cx="476" cy="20" fill="none" r="0" stroke="none" stroke-width="0"/>
<circle cx="820" cy="400" fill="none" r="0" stroke="none" stroke-width="0"/>
<circle cx="812" cy="482" fill="none" r="0" stroke="none" stroke-width="0"/>
<circle cx="788" cy="561" fill="none" r="0" stroke="none" stroke-width="0"/>
<circle cx="749" cy="633" fill="none" r="0" stroke="none" stroke-width="0"/>
<circle cx="697" cy="697" fill="none" r="0" stroke="none" stroke-width="0"/>
<circle cx="633" cy="749" fill="none" r="0" stroke="none" stroke-width="0"/>
<circle cx="561" cy="788" fill="none" r="0" stroke="none" stroke-width="0"/>
<circle cx="482" cy="812" fill="none" r="0" stroke="none" stroke-width="0"/>
<circle cx="400" cy="820" fill="none" r="0" stroke="none" stroke-width="0"/>
<circle cx="318" cy="812" fill="none" r="0" stroke="none" stroke-width="0"/>
<circle cx="239" cy="788" fill="none" r="0" stroke="none" stroke-width="0"/>
<circle cx="167" cy="749" fill="none" r="0" stroke="none" stroke-width="0"/>
<circle cx="103" cy="697" fill="none" r="0" stroke="none" stroke-width="0"/>
<circle cx="51" cy="633" fill="none" r="0" stroke="none" stroke-width="0"/>
<circle cx="12" cy="561" fill="none" r="0" stroke="none" stroke-width="0"/>
<circle cx="-12" cy="482" fill="none" r="0" stroke="none" stroke-width="0"/>
<circle cx="-20" cy="400" fill="none" r="0" stroke="none" stroke-width="0"/>
<circle cx="-12" cy="318" fill="none" r="0" stroke="none" stroke-width="0"/>
<circle cx="12" cy="239" fill="none" r="0" stroke="none" stroke-width="0"/>
<circle cx="51" cy="167" fill="none" r="0" stroke="none" stroke-width="0"/>
<circle cx="103" cy="103" fill="none" r="0" stroke="none" stroke-width="0"/>
<circle cx="167" cy="51" fill="none" r="0" stroke="none" stroke-width="0"/>
<circle cx="239" cy="12" fill="none" r="0" stroke="none" stroke-width="0"/>
<circle cx="318" cy="-12" fill="none" r="0" stroke="none" stroke-width="0"/>
<circle cx="400" cy="-20" fill="none" r="0" stroke="none" stroke-width="0"/>
<circle cx="482" cy="-12" fill="none" r="0" stroke="none" stroke-width="0"/>
<circle cx="561" cy="12" fill="none" r="0" stroke="none" stroke-width="0"/>
<circle cx="633" cy="51" fill="none" r="0" stroke="none" stroke-width="0"/>
<circle cx="697" cy="103" fill="none" r="0" stroke="none" stroke-width="0"/>
<circle cx="749" cy="167" fill="none" r="0" stroke="none" stroke-width="0"/>
<circle cx="788" cy="239" fill="none" r="0" stroke="none" stroke-width="0"/>
<circle cx="812" cy="318" fill="none" r="0" stroke="none" stroke-width="0"/>
<circle cx="215" cy="747" fill="none" r="0" stroke="none" stroke-width="0"/>
<circle cx="365" cy="760" fill="none" r="0" stroke="none" stroke-width="0"/>
<circle cx="435" cy="760" fill="none" r="0" stroke="none" stroke-width="0"/>
<circle cx="151" cy="704" fill="none" r="0" stroke="none" stroke-width="0"/>
<circle cx="645" cy="699" fill="none" r="0" stroke="none" stroke-width="0"/>
<circle cx="304" cy="716" fill="none" r="0" stroke="none" stroke-width="0"/>
<circle cx="496" cy="716" fill="none" r="0" stroke="none" stroke-width="0"/>
<circle cx="299" cy="707" fill="none" r="0" stroke="none" stroke-width="0"/>
<circle cx="556" cy="691" fill="none" r="0" stroke="none" stroke-width="0"/>
<circle cx="505" cy="699" fill="none" r="0" stroke="none" stroke-width="0"/>
<circle cx="699" cy="645" fill="none" r="0" stroke="none" stroke-width="0"/>
<circle cx="562" cy="687" fill="none" r="0" stroke="none" stroke-width="0"/>
<circle cx="299" cy="668" fill="none" r="0" stroke="none" stroke-width="0"/>
<circle cx="290" cy="655" fill="none" r="0" stroke="none" stroke-width="0"/>
<circle cx="154" cy="628" fill="none" r="0" stroke="none" stroke-width="0"/>
<circle cx="445" cy="622" fill="none" r="0" stroke="none" stroke-width="0"/>
<circle cx="140" cy="614" fill="none" r="0" stroke="none" stroke-width="0"/>
<circle cx="447" cy="601" fill="none" r="0" stroke="none" stroke-width="0"/>
<circle cx="295" cy="552" fill="none" r="0" stroke="none" stroke-width="0"/>
<circle cx="388" cy="528" fill="none" r="0" stroke="none" stroke-width="0"/>
<circle cx="108" cy="556" fill="none" r="0" stroke="none" stroke-width="0"/>
<circle cx="333" cy="524" fill="none" r="0" stroke="none" stroke-width="0"/>
<circle cx="122" cy="560" fill="none" r="0" stroke="none" stroke-width="0"/>
<circle cx="687" cy="556" fill="none" r="0" stroke="none" stroke-width="0"/>
<circle cx="689" cy="555" fill="none" r="0" stroke="none" stroke-width="0"/>
<circle cx="520" cy="526" fill="none" r="0" stroke="none" stroke-width="0"/>
<circle cx="621" cy="549" fill="none" r="0" stroke="none" stroke-width="0"/>
<circle cx="48" cy="507" fill="none" r="0" stroke="none" stroke-width="0"/>
<circle cx="629" cy="545" fill="none" r="0" stroke="none" stroke-width="0"/>
<circle cx="740" cy="503" fill="none" r="0" stroke="none" stroke-width="0"/>
<circle cx="421" cy="474" fill="none" r="0" stroke="none" stroke-width="0"/>
<circle cx="499" cy="478" fill="none" r="0" stroke="none" stroke-width="0"/>
<circle cx="413" cy="455" fill="none" r="0" stroke="none" stroke-width="0"/>
<circle cx="387" cy="441" fill="none" r="0" stroke="none" stroke-width="0"/>
<circle cx="196" cy="490" fill="none" r="0" stroke="none" stroke-width="0"/>
<circle cx="182" cy="492" fill="none" r="0" stroke="none" stroke-width="0"/>
<circle cx="390" cy="408" fill="none" r="0" stroke="none" stroke-width="0"/>
<circle cx="326" cy="437" fill="none" r="0" stroke="none" stroke-width="0"/>
<circle cx="329" cy="435" fill="none" r="0" stroke="none" stroke-width="0"/>
<circle cx="511" cy="437" fill="none" r="0" stroke="none" stroke-width="0"/>
<circle cx="34" cy="436" fill="none" r="0" stroke="none" stroke-width="0"/>
<circle cx="382" cy="389" fill="none" r="0" stroke="none" stroke-width="0"/>
<circle cx="435" cy="399" fill="none" r="0" stroke="none" stroke-width="0"/>
<circle cx="437" cy="401" fill="none" r="0" stroke="none" stroke-width="0"/>
<circle cx="754" cy="435" fill="none" r="0" stroke="none" stroke-width="0"/>
<circle cx="261" cy="418" fill="none" r="0" stroke="none" stroke-width="0"/>
<circle cx="349" cy="388" fill="none" r="0" stroke="none" stroke-width="0"/>
<circle cx="469" cy="394" fill="none" r="0" stroke="none" stroke-width="0"/>
<circle cx="408" cy="372" fill="none" r="0" stroke="none" stroke-width="0"/>
<circle cx="616" cy="400" fill="none" r="0" stroke="none" stroke-width="0"/>
<circle cx="589" cy="392" fill="none" r="0" stroke="none" stroke-width="0"/>
<circle cx="405" cy="339" fill="none" r="0" stroke="none" stroke-width="0"/>
<circle cx="251" cy="351" fill="none" r="0" stroke="none" stroke-width="0"/>
<circle cx="337" cy="331" fill="none" r="0" stroke="none" stroke-width="0"/>
<circle cx="71" cy="368" fill="none" r="0" stroke="none" stroke-width="0"/>
<circle cx="727" cy="368" fill="none" r="0" stroke="none" stroke-width="0"/>
<circle cx="481" cy="325" fill="none" r="0" stroke="none" stroke-width="0"/>
<circle cx="346" cy="321" fill="none" r="0" stroke="none" stroke-width="0"/>
<circle cx="456" cy="311" fill="none" r="0" stroke="none" stroke-width="0"/>
<circle cx="86" cy="356" fill="none" r="0" stroke="none" stroke-width="0"/>
<circle cx="539" cy="315" fill="none" r="0" stroke="none" stroke-width="0"/>
<circle cx="102" cy="353" fill="none" r="0" stroke="none" stroke-width="0"/>
<circle cx="220" cy="323" fill="none" r="0" stroke="none" stroke-width="0"/>
<circle cx="709" cy="352" fill="none" r="0" stroke="none" stroke-width="0"/>
<circle cx="18" cy="284" fill="none" r="0" stroke="none" stroke-width="0"/>
<circle cx="119" cy="336" fill="none" r="0" stroke="none" stroke-width="0"/>
<circle cx="710" cy="310" fill="none" r="0" stroke="none" stroke-width="0"/>
<circle cx="715" cy="305" fill="none" r="0" stroke="none" stroke-width="0"/>
<circle cx="349" cy="257" fill="none" r="0" stroke="none" stroke-width="0"/>
<circle cx="48" cy="212" fill="none" r="0" stroke="none" stroke-width="0"/>
<circle cx="736" cy="221" fill="none" r="0" stroke="none" stroke-width="0"/>
<circle cx="424" cy="229" fill="none" r="0" stroke="none" stroke-width="0"/>
<circle cx="117" cy="210" fill="none" r="0" stroke="none" stroke-width="0"/>
<circle cx="441" cy="198" fill="none" r="0" stroke="none" stroke-width="0"/>
<circle cx="579" cy="217" fill="none" r="0" stroke="none" stroke-width="0"/>
<circle cx="579" cy="216" fill="none" r="0" stroke="none" stroke-width="0"/>
<circle cx="263" cy="203" fill="none" r="0" stroke="none" stroke-width="0"/>
<circle cx="694" cy="159" fill="none" r="0" stroke="none" stroke-width="0"/>
<circle cx="261" cy="196" fill="none" r="0" stroke="none" stroke-width="0"/>
<circle cx="135" cy="182" fill="none" r="0" stroke="none" stroke-width="0"/>
<circle cx="190" cy="154" fill="none" r="0" stroke="none" stroke-width="0"/>
<circle cx="190" cy="144" fill="none" r="0" stroke="none" stroke-width="0"/>
<circle cx="609" cy="146" fill="none" r="0" stroke="none" stroke-width="0"/>
<circle cx="605" cy="147" fill="none" r="0" stroke="none" stroke-width="0"/>
<circle cx="565" cy="92" fill="none" r="0" stroke="none" stroke-width="0"/>
<circle cx="224" cy="70" fill="none" r="0" stroke="none" stroke-width="0"/>
<circle cx="524" cy="75" fill="none" r="0" stroke="none" stroke-width="0"/>
<circle cx="411" cy="102" fill="none" r="0" stroke="none" stroke-width="0"/>
<circle cx="291" cy="42" fill="none" r="0" stroke="none" stroke-width="0"/>
<circle cx="391" cy="88" fill="none" r="0" stroke="none" stroke-width="0"/>
<circle cx="383" cy="86" fill="none" r="0" stroke="none" stroke-width="0"/>
<circle cx="368" cy="71" fill="none" r="0" stroke="none" stroke-width="0"/>
<circle cx="518" cy="12" fill="none" r="0" stroke="none" stroke-width="0"/>
<circle cx="0" cy="0" fill="none" r="0" stroke="none" stroke-width="0"/>
<circle cx="800" cy="0" fill="none" r="0" stroke="none" stroke-width="0"/>
<circle cx="800" cy="800" fill="none" r="0" stroke="none" stroke-width="0"/>
<circle cx="0" cy="800" fill="none" r="0" stroke="none" stroke-width="0"/>
<circle cx="438" cy="0" fill="none" r="0" stroke="none" stroke-width="0"/>
<circle cx="459" cy="0" fill="none" r="0" stroke="none" stroke-width="0"/>
<circle cx="800" cy="361" fill="none" r="0" stroke="none" stroke-width="0"/>
<circle cx="800" cy="439" fill="none" r="0" stroke="none" stroke-width="0"/>
<circle cx="800" cy="521" fill="none" r="0" stroke="none" stroke-width="0"/>
<circle cx="800" cy="614" fill="none" r="0" stroke="none" stroke-width="0"/>
<circle cx="800" cy="728" fill="none" r="0" stroke="none" stroke-width="0"/>
<circle cx="728" cy="800" fill="none" r="0" stroke="none" stroke-width="0"/>
<circle cx="614" cy="800" fill="none" r="0" stroke="none" stroke-width="0"/>
<circle cx="521" cy="800" fill="none" r="0" stroke="none" stroke-width="0"/>
<circle cx="439" cy="800" fill="none" r="0" stroke="none" stroke-width="0"/>
<circle cx="361" cy="800" fill="none" r="0" stroke="none" stroke-width="0"/>
<circle cx="279" cy="800" fill="none" r="0" stroke="none" stroke-width="0"/>
<circle cx="186" cy="800" fill="none" r="0" stroke="none" stroke-width="0"/>
<circle cx="72" cy="800" fill="none" r="0" stroke="none" stroke-width="0"/>
<circle cx="0" cy="728" fill="none" r="0" stroke="none" stroke-width="0"/>
<circle cx="0" cy="614" fill="none" r="0" stroke="none" stroke-width="0"/>
<circle cx="0" cy="521" fill="none" r="0" stroke="none" stroke-width="0"/>
<circle cx="0" cy="439" fill="none" r="0" stroke="none" stroke-width="0"/>
<circle cx="0" cy="361" fill="none" r="0" stroke="none" stroke-width="0"/>
<circle cx="0" cy="279" fill="none" r="0" stroke="none" stroke-width="0"/>
<circle cx="0" cy="186" fill="none" r="0" stroke="none" stroke-width="0"/>
<circle cx="0" cy="72" fill="none" r="0" stroke="none" stroke-width="0"/>
<circle cx="72" cy="0" fill="none" r="0" stroke="none" stroke-width="0"/>
<circle cx="186" cy="0" fill="none" r="0" stroke="none" stroke-width="0"/>
<circle cx="279" cy="0" fill="none" r="0" stroke="none" stroke-width="0"/>
<circle cx="361" cy="0" fill="none" r="0" stroke="none" stroke-width="0"/>
<circle cx="521" cy="0" fill="none" r="0" stroke="none" stroke-width="0"/>
<circle cx="614" cy="0" fill="none" r="0" stroke="none" stroke-width="0"/>
<circle cx="728" cy="0" fill="none" r="0" stroke="none" stroke-width="0"/>
<circle cx="800" cy="72" fill="none" r="0" stroke="none" stroke-width="0"/>
<circle cx="800" cy="186" fill="none" r="0" stroke="none" stroke-width="0"/>
<circle cx="800" cy="279" fill="none" r="0" stroke="none" stroke-width="0"/>
</svg>