<svg 
            xmlns:xlink="http://www.w3.org/1999/xlink" viewBox="0 0 800 800" xmlns="http://www.w3.org/2000/svg">
<rect fill="#0D080F" height="800" stroke="none" width="800" x="0" y="0"/>
<path d="M386,396 L416,383 L412,413 z" fill="none" stroke="none" stroke-width="0"/>
<linearGradient id="gradient_face0" x1="0" x2="1.01" y1="0" y2="1.01">
<stop offset="0%" stop-color="#D60270FF"/>
<stop offset="100%" stop-color="#D60270FF"/>
</linearGradient>
<path d="M400.5176,395.1583 L405.86487,392.84116 Q409.8753,391.1033,409.34058,395.11374 L408.62762,400.46097 Q408.0929,404.47144,404.6172,402.19885 L399.9829,399.16873 Q396.50717,396.89615,400.5176,395.1583 z" fill="url(#gradient_face0)" stroke="none" stroke-width="0"/>
<path d="M366,399 L386,396 L412,413 L416,446 z" fill="none" stroke="none" stroke-width="0"/>
<linearGradient id="gradient_face1" x1="0" x2="1.01" y1="0" y2="1.01">
<stop offset="0%" stop-color="#B23086FF"/>
<stop offset="100%" stop-color="#AA3A8BFF"/>
</linearGradient>
<path d="M379.31125,402.05923 L382.48083,401.5838 Q384.858,401.22723,391.5955,405.63254 L400.57883,411.50623 Q407.3163,415.91153,407.9345,421.01172 L408.7588,427.81198 Q409.37698,432.91217,399.64413,423.76328 L386.66696,411.56473 Q376.93408,402.41583,379.31125,402.05923 z" fill="url(#gradient_face1)" stroke="none" stroke-width="0"/>
<path d="M337,388 L328,382 L428,362 L416,383 L386,396 L366,399 z" fill="none" stroke="none" stroke-width="0"/>
<linearGradient id="gradient_face2" x1="0" x2="1.01" y1="0" y2="1.01">
<stop offset="0%" stop-color="#7C4A99FF"/>
<stop offset="100%" stop-color="#52449EFF"/>
</linearGradient>
<path d="M339.75693,383.8287 L340.36282,384.23264 Q340.81723,384.53558,364.0346,379.8921 L394.99112,373.7008 Q418.2085,369.0573,416.49133,372.06235 L414.20178,376.06903 Q412.48465,379.07407,404.12277,382.69754 L392.97366,387.52884 Q384.6118,391.15228,379.19357,391.96503 L371.96927,393.04868 Q366.55103,393.86142,358.3765,390.7607 L347.47708,386.62646 Q339.30252,383.52576,339.75693,383.8287 z" fill="url(#gradient_face2)" stroke="none" stroke-width="0"/>
<path d="M463,339 L473,337 L419,454 L416,446 L412,413 L416,383 L428,362 L446,347 z" fill="none" stroke="none" stroke-width="0"/>
<linearGradient id="gradient_face3" x1="0" x2="1.01" y1="0" y2="1.01">
<stop offset="0%" stop-color="#D60270FF"/>
<stop offset="100%" stop-color="#D60270FF"/>
</linearGradient>
<path d="M464.50662,343.7977 L464.41165,343.81668 Q464.3404,343.83093,450.88156,372.99176 L432.93646,411.87283 Q419.47763,441.03363,419.90182,442.1649 L420.46747,443.67325 Q420.8917,444.8045,419.73627,435.27216 L418.19568,422.56238 Q417.04025,413.03006,418.1762,404.5103 L419.69083,393.15067 Q420.82678,384.63095,424.14688,378.82077 L428.57367,371.0739 Q431.89377,365.26373,436.93823,361.06 L443.6642,355.45502 Q448.7087,351.25128,453.46945,349.01093 L459.8171,346.0238 Q464.57785,343.78345,464.50662,343.7977 z" fill="url(#gradient_face3)" stroke="none" stroke-width="0"/>
<path d="M337,388 L366,399 L416,446 L419,454 L422,473 L421,489 L417,504 L412,516 z" fill="none" stroke="none" stroke-width="0"/>
<linearGradient id="gradient_face4" x1="0" x2="1.01" y1="0" y2="1.01">
<stop offset="0%" stop-color="#B23086FF"/>
<stop offset="100%" stop-color="#AA3A8BFF"/>
</linearGradient>
<path d="M352.9255,399.38834 L358.85303,401.6367 Q363.29868,403.32297,377.8272,416.9798 L397.1986,435.1889 Q411.72714,448.84573,412.45108,450.77625 L413.41635,453.35025 Q414.1403,455.28076,414.99084,460.66757 L416.1249,467.84998 Q416.97543,473.2368,416.69504,477.72336 L416.32117,483.70544 Q416.04074,488.192,414.90515,492.4505 L413.391,498.12854 Q412.2554,502.38705,411.9516,503.11615 L411.54654,504.08826 Q411.24277,504.81735,392.4139,472.68277 L367.30875,429.83664 Q348.4799,397.70206,352.9255,399.38834 z" fill="url(#gradient_face4)" stroke="none" stroke-width="0"/>
<path d="M289,347 L283,333 L446,347 L428,362 L328,382 L320,379 L308,370 L298,360 z" fill="none" stroke="none" stroke-width="0"/>
<linearGradient id="gradient_face5" x1="0" x2="1.01" y1="0" y2="1.01">
<stop offset="0%" stop-color="#7C4A99FF"/>
<stop offset="100%" stop-color="#52449EFF"/>
</linearGradient>
<path d="M292.64243,342.80603 L291.6357,340.45703 Q290.88068,338.69528,333.6545,342.3691 L390.68628,347.26755 Q433.4601,350.94138,431.15442,352.8628 L428.08014,355.42468 Q425.77444,357.3461,396.56784,363.1874 L357.6257,370.97583 Q328.4191,376.81717,326.62137,376.143 L324.2244,375.24414 Q322.42667,374.57,319.08395,372.06296 L314.62698,368.72025 Q311.28427,366.2132,308.4553,363.38422 L304.68332,359.61224 Q301.85434,356.78326,299.31726,353.11862 L295.9345,348.23242 Q293.39746,344.56778,292.64243,342.80603 z" fill="url(#gradient_face5)" stroke="none" stroke-width="0"/>
<path d="M523,333 L537,337 L422,473 L419,454 L473,337 L477,335 L491,331 L506,330 z" fill="none" stroke="none" stroke-width="0"/>
<linearGradient id="gradient_face6" x1="0" x2="1.01" y1="0" y2="1.01">
<stop offset="0%" stop-color="#D60270FF"/>
<stop offset="100%" stop-color="#D60270FF"/>
</linearGradient>
<path d="M523.76843,338.41962 L526.292,339.14066 Q528.1847,339.68143,497.29984,376.20612 L456.12003,424.90573 Q425.23517,461.43042,424.91724,459.41678 L424.4933,456.7319 Q424.17535,454.71826,439.9642,420.5091 L461.01596,374.8969 Q476.8048,340.68777,477.4095,340.38544 L478.21573,339.9823 Q478.82043,339.67996,482.73312,338.56204 L487.95004,337.0715 Q491.86273,335.95358,496.02228,335.67627 L501.56836,335.30655 Q505.7279,335.02924,510.57224,335.88412 L517.0314,337.02396 Q521.87573,337.87885,523.76843,338.41962 z" fill="url(#gradient_face6)" stroke="none" stroke-width="0"/>
<path d="M320,379 L328,382 L337,388 L412,516 L411,518 L404,531 L393,545 L378,558 L369,564 z" fill="none" stroke="none" stroke-width="0"/>
<linearGradient id="gradient_face7" x1="0" x2="1.01" y1="0" y2="1.01">
<stop offset="0%" stop-color="#B23086FF"/>
<stop offset="100%" stop-color="#AA3A8BFF"/>
</linearGradient>
<path d="M326.83084,386.90158 L326.18774,386.6604 Q325.70544,386.47955,327.97427,387.9921 L330.9994,390.00885 Q333.26825,391.52142,355.1824,428.9216 L384.4013,478.7885 Q406.3155,516.1887,406.38934,516.04095 L406.48785,515.84393 Q406.56174,515.69617,404.5338,519.4623 L401.82996,524.48376 Q399.80203,528.2499,396.6706,532.23535 L392.49536,537.5493 Q389.36392,541.5348,385.04388,545.2788 L379.28387,550.2708 Q374.96387,554.01483,374.08774,554.59894 L372.91953,555.37775 Q372.0434,555.96185,358.62433,505.298 L340.73224,437.74625 Q327.31317,387.08243,326.83084,386.90158 z" fill="url(#gradient_face7)" stroke="none" stroke-width="0"/>
<path d="M273,273 L273,269 L463,339 L446,347 L283,333 L283,332 L276,315 L273,295 z" fill="none" stroke="none" stroke-width="0"/>
<linearGradient id="gradient_face8" x1="0" x2="1.01" y1="0" y2="1.01">
<stop offset="0%" stop-color="#7C4A99FF"/>
<stop offset="100%" stop-color="#52449EFF"/>
</linearGradient>
<path d="M278,273.9512 L278,275.21945 Q278,276.17065,329.6188,295.1881 L398.4439,320.5447 Q450.0627,339.56216,448.57025,340.2645 L446.58035,341.20093 Q445.0879,341.90326,397.96155,337.8556 L335.12637,332.4587 Q288,328.41104,288,329.19098 L288,330.23093 Q288,331.01086,285.85638,325.80493 L282.99823,318.8637 Q280.8546,313.65778,279.99823,307.94855 L278.85638,300.3363 Q278,294.62708,278,288.13895 L278,279.48813 Q278,273,278,273.9512 z" fill="url(#gradient_face8)" stroke="none" stroke-width="0"/>
<path d="M541,338 L561,345 L581,357 L594,369 L421,489 L422,473 L537,337 z" fill="none" stroke="none" stroke-width="0"/>
<linearGradient id="gradient_face9" x1="0" x2="1.01" y1="0" y2="1.01">
<stop offset="0%" stop-color="#D60270FF"/>
<stop offset="100%" stop-color="#D60270FF"/>
</linearGradient>
<path d="M545.3551,344.8217 L553.0755,347.52383 Q558.8658,349.55045,564.60205,352.99216 L572.2503,357.58115 Q577.9865,361.02286,580.39874,363.24954 L583.61505,366.21844 Q586.0273,368.4451,538.2094,401.6136 L474.4522,445.83823 Q426.63434,479.00668,426.71014,477.79395 L426.8112,476.17697 Q426.887,474.96426,460.46323,435.2567 L505.2315,382.31335 Q538.80774,342.6058,539.03485,342.6626 L539.33765,342.73828 Q539.56476,342.79507,545.3551,344.8217 z" fill="url(#gradient_face9)" stroke="none" stroke-width="0"/>
<path d="M308,370 L320,379 L369,564 L360,570 L339,581 L314,589 L308,590 z" fill="none" stroke="none" stroke-width="0"/>
<linearGradient id="gradient_face10" x1="0" x2="1.01" y1="0" y2="1.01">
<stop offset="0%" stop-color="#B23086FF"/>
<stop offset="100%" stop-color="#AA3A8BFF"/>
</linearGradient>
<path d="M313.78336,380.58752 L314.82782,381.37085 Q315.61115,381.95837,329.90314,435.91788 L348.9591,507.86386 Q363.25107,561.82336,361.50958,562.9844 L359.18762,564.53235 Q357.44614,565.6933,351.3314,568.8963 L343.17838,573.16693 Q337.06363,576.3699,329.7908,578.6972 L320.09372,581.80023 Q312.82092,584.12756,312.87463,584.1186 L312.9463,584.1066 Q313,584.0977,313,522.8684 L313,441.2293 Q313,380,313.78336,380.58752 z" fill="url(#gradient_face10)" stroke="none" stroke-width="0"/>
<path d="M282,221 L290,204 L477,335 L473,337 L463,339 L273,269 L275,248 z" fill="none" stroke="none" stroke-width="0"/>
<linearGradient id="gradient_face11" x1="0" x2="1.01" y1="0" y2="1.01">
<stop offset="0%" stop-color="#7C4A99FF"/>
<stop offset="100%" stop-color="#52449EFF"/>
</linearGradient>
<path d="M288.3046,219.34543 L290.41357,214.86382 Q291.99533,211.50261,344.57428,248.336 L414.67957,297.44717 Q467.2585,334.28058,468.4898,333.66492 L470.13153,332.84406 Q471.36282,332.22842,468.97513,332.70596 L465.7915,333.34268 Q463.40378,333.82022,407.88544,313.3661 L333.861,286.09393 Q278.34265,265.6398,278.82178,260.60883 L279.46063,253.90086 Q279.9398,248.86989,281.9747,241.02092 L284.68793,230.55562 Q286.72284,222.70665,288.3046,219.34543 z" fill="url(#gradient_face11)" stroke="none" stroke-width="0"/>
<path d="M594,369 L601,374 L620,394 L637,420 L638,422 L417,504 L421,489 z" fill="none" stroke="none" stroke-width="0"/>
<linearGradient id="gradient_face12" x1="0" x2="1.01" y1="0" y2="1.01">
<stop offset="0%" stop-color="#D60270FF"/>
<stop offset="100%" stop-color="#D60270FF"/>
</linearGradient>
<path d="M595.0818,375.91724 L596.5805,376.98773 Q597.7045,377.7906,603.21204,383.588 L610.5555,391.31793 Q616.06305,397.11536,621.04126,404.7291 L627.67883,414.88074 Q632.65704,422.49445,632.17053,421.52145 L631.52185,420.2241 Q631.03534,419.25107,569.0211,442.2609 L486.3355,472.9406 Q424.3213,495.9504,424.63235,494.78394 L425.0471,493.2286 Q425.35815,492.0621,475.93805,456.97778 L543.3779,410.1987 Q593.9578,375.11438,595.0818,375.91724 z" fill="url(#gradient_face12)" stroke="none" stroke-width="0"/>
<path d="M298,360 L308,370 L308,590 L285,595 L253,596 L239,593 z" fill="none" stroke="none" stroke-width="0"/>
<linearGradient id="gradient_face13" x1="0" x2="1.01" y1="0" y2="1.01">
<stop offset="0%" stop-color="#B23086FF"/>
<stop offset="100%" stop-color="#AA3A8BFF"/>
</linearGradient>
<path d="M301.38083,370.4519 L302.30606,371.37714 Q303,372.07108,303,436.2408 L303,521.8004 Q303,585.97015,297.4157,587.18414 L289.97,588.8028 Q284.3857,590.0168,275.1057,590.30676 L262.73236,590.6934 Q253.45235,590.9834,250.9528,590.4478 L247.62009,589.73364 Q245.12054,589.19806,261.79044,523.366 L284.017,435.59 Q300.68692,369.75797,301.38083,370.4519 z" fill="url(#gradient_face13)" stroke="none" stroke-width="0"/>
<path d="M328,145 L491,331 L477,335 L290,204 L293,194 L310,165 z" fill="none" stroke="none" stroke-width="0"/>
<linearGradient id="gradient_face14" x1="0" x2="1.01" y1="0" y2="1.01">
<stop offset="0%" stop-color="#7C4A99FF"/>
<stop offset="100%" stop-color="#52449EFF"/>
</linearGradient>
<path d="M374.1767,205.2788 L435.812,275.6111 Q482.03848,328.36035,480.80215,328.7136 L479.1537,329.18457 Q477.91736,329.5378,423.29025,291.26962 L350.4541,240.24539 Q295.827,201.9772,296.36392,200.1874 L297.07986,197.801 Q297.6168,196.0112,302.5487,187.59795 L309.12457,176.3803 Q314.05646,167.96706,318.22458,163.3358 L323.78207,157.1608 Q327.95023,152.52956,374.1767,205.2788 z" fill="url(#gradient_face14)" stroke="none" stroke-width="0"/>
<path d="M638,422 L657,457 L657,478 L655,489 L411,518 L412,516 L417,504 z" fill="none" stroke="none" stroke-width="0"/>
<linearGradient id="gradient_face15" x1="0" x2="1.01" y1="0" y2="1.01">
<stop offset="0%" stop-color="#D60270FF"/>
<stop offset="100%" stop-color="#D60270FF"/>
</linearGradient>
<path d="M640.572,437.2181 L647.1023,449.24756 Q652,458.26962,652,464.0535 L652,471.7653 Q652,477.54916,651.62244,479.6257 L651.119,482.3944 Q650.7415,484.47095,581.405,492.71176 L488.95645,503.6995 Q419.62003,511.9403,418.69876,513.78284 L417.4704,516.2395 Q416.54916,518.08203,417.81802,515.03674 L419.50986,510.97632 Q420.77875,507.93103,485.2474,484.0105 L571.2056,452.11652 Q635.6743,428.196,640.572,437.2181 z" fill="url(#gradient_face15)" stroke="none" stroke-width="0"/>
<path d="M289,347 L298,360 L239,593 L219,592 L189,573 L178,561 z" fill="none" stroke="none" stroke-width="0"/>
<linearGradient id="gradient_face16" x1="0" x2="1.01" y1="0" y2="1.01">
<stop offset="0%" stop-color="#B23086FF"/>
<stop offset="100%" stop-color="#AA3A8BFF"/>
</linearGradient>
<path d="M290.5092,357.96405 L291.70102,359.68558 Q292.59488,360.97668,275.36395,429.0242 L252.38942,519.7542 Q235.15851,587.8017,230.78008,587.58276 L224.94217,587.29083 Q220.56374,587.07196,212.06563,581.6898 L200.73482,574.5136 Q192.23671,569.1315,189.78017,566.4516 L186.50479,562.8785 Q184.04825,560.1986,215.71837,499.1409 L257.9452,417.73062 Q289.61533,356.6729,290.5092,357.96405 z" fill="url(#gradient_face16)" stroke="none" stroke-width="0"/>
<path d="M373,124 L394,120 L506,330 L491,331 L328,145 z" fill="none" stroke="none" stroke-width="0"/>
<linearGradient id="gradient_face17" x1="0" x2="1.01" y1="0" y2="1.01">
<stop offset="0%" stop-color="#7C4A99FF"/>
<stop offset="100%" stop-color="#52449EFF"/>
</linearGradient>
<path d="M379.5802,127.836525 L386.28876,126.5587 Q391.3202,125.600334,423.30826,185.57796 L465.959,265.54813 Q497.94708,325.52576,496.50262,325.62207 L494.5767,325.75046 Q493.13226,325.84674,446.0377,272.10696 L383.24496,200.4539 Q336.15042,146.71411,347.66992,141.33835 L363.02927,134.17065 Q374.54877,128.79489,379.5802,127.836525 z" fill="url(#gradient_face17)" stroke="none" stroke-width="0"/>
<path d="M655,489 L649,533 L638,556 L404,531 L411,518 z" fill="none" stroke="none" stroke-width="0"/>
<linearGradient id="gradient_face18" x1="0" x2="1.01" y1="0" y2="1.01">
<stop offset="0%" stop-color="#D60270FF"/>
<stop offset="100%" stop-color="#D60270FF"/>
</linearGradient>
<path d="M647.6663,505.7741 L645.6579,520.50256 Q644.1516,531.5489,641.41064,537.27997 L637.756,544.9215 Q635.015,550.65265,568.0896,543.5025 L478.85565,533.96893 Q411.9302,526.8188,412.60226,525.5707 L413.49835,523.9065 Q414.1704,522.6584,484.67108,514.2792 L578.672,503.10696 Q649.17267,494.72778,647.6663,505.7741 z" fill="url(#gradient_face18)" stroke="none" stroke-width="0"/>
<path d="M283,332 L283,333 L289,347 L178,561 L147,535 L132,510 z" fill="none" stroke="none" stroke-width="0"/>
<linearGradient id="gradient_face19" x1="0" x2="1.01" y1="0" y2="1.01">
<stop offset="0%" stop-color="#B23086FF"/>
<stop offset="100%" stop-color="#AA3A8BFF"/>
</linearGradient>
<path d="M278,342.1441 L278,337.50537 Q278,334.02628,279.64188,337.85736 L281.83105,342.96545 Q283.47296,346.7965,251.36118,408.70572 L208.54547,491.2513 Q176.43369,553.1605,168.76033,546.7248 L158.52919,538.14386 Q150.85583,531.7081,147.03857,525.34607 L141.9489,516.8632 Q138.13164,510.50113,180.09215,461.03775 L236.03949,395.08658 Q278,345.6232,278,342.1441 z" fill="url(#gradient_face19)" stroke="none" stroke-width="0"/>
<path d="M394,120 L429,110 L461,111 L523,333 L506,330 z" fill="none" stroke="none" stroke-width="0"/>
<linearGradient id="gradient_face20" x1="0" x2="1.01" y1="0" y2="1.01">
<stop offset="0%" stop-color="#7C4A99FF"/>
<stop offset="100%" stop-color="#52449EFF"/>
</linearGradient>
<path d="M409.81387,120.68183 L421.13367,117.4476 Q429.62354,115.02193,437.88818,115.2802 L448.90768,115.62456 Q457.17233,115.88283,474.83505,179.12675 L498.38535,263.452 Q516.0481,326.69592,514.0135,326.33688 L511.30075,325.8582 Q509.2662,325.49915,476.88354,264.78165 L433.70667,183.825 Q401.324,123.107506,409.81387,120.68183 z" fill="url(#gradient_face20)" stroke="none" stroke-width="0"/>
<path d="M393,545 L404,531 L638,556 L629,588 L609,617 z" fill="none" stroke="none" stroke-width="0"/>
<linearGradient id="gradient_face21" x1="0" x2="1.01" y1="0" y2="1.01">
<stop offset="0%" stop-color="#D60270FF"/>
<stop offset="100%" stop-color="#D60270FF"/>
</linearGradient>
<path d="M402.79083,540.6319 L404.75113,538.13696 Q406.22134,536.2658,473.8303,543.48895 L563.9756,553.1199 Q631.58453,560.343,629.43274,567.9939 L626.56366,578.195 Q624.41187,585.8458,619.19336,593.41266 L612.2354,603.5017 Q607.0169,611.0685,545.30804,590.4989 L463.0295,563.0727 Q401.32062,542.50305,402.79083,540.6319 z" fill="url(#gradient_face21)" stroke="none" stroke-width="0"/>
<path d="M276,315 L283,332 L132,510 L112,487 L99,453 z" fill="none" stroke="none" stroke-width="0"/>
<linearGradient id="gradient_face22" x1="0" x2="1.01" y1="0" y2="1.01">
<stop offset="0%" stop-color="#B23086FF"/>
<stop offset="100%" stop-color="#AA3A8BFF"/>
</linearGradient>
<path d="M274.8832,325.4198 L276.21686,328.65866 Q277.2171,331.0878,233.6379,382.4593 L175.53229,450.95465 Q131.95308,502.32617,127.27337,496.9445 L121.033745,489.76892 Q116.354034,484.38727,112.945175,475.4718 L108.40003,463.58447 Q104.99117,454.669,155.65872,415.1655 L223.21544,362.49417 Q273.883,322.99066,274.8832,325.4198 z" fill="url(#gradient_face22)" stroke="none" stroke-width="0"/>
<path d="M461,111 L489,107 L527,116 L541,338 L537,337 L523,333 z" fill="none" stroke="none" stroke-width="0"/>
<linearGradient id="gradient_face23" x1="0" x2="1.01" y1="0" y2="1.01">
<stop offset="0%" stop-color="#7C4A99FF"/>
<stop offset="100%" stop-color="#52449EFF"/>
</linearGradient>
<path d="M473.77484,114.225784 L482.34317,113.00174 Q488.7694,112.0837,498.8115,114.4621 L512.201,117.633286 Q522.24304,120.01168,526.244,183.45547 L531.5786,268.0472 Q535.5796,331.49103,536.39374,331.69455 L537.4793,331.96594 Q538.2935,332.1695,534.92444,331.2069 L530.4324,329.92346 Q527.0633,328.96085,509.1489,264.81573 L485.263,179.28893 Q467.3486,115.143814,473.77484,114.225784 z" fill="url(#gradient_face23)" stroke="none" stroke-width="0"/>
<path d="M378,558 L393,545 L609,617 L597,640 L568,668 z" fill="none" stroke="none" stroke-width="0"/>
<linearGradient id="gradient_face24" x1="0" x2="1.01" y1="0" y2="1.01">
<stop offset="0%" stop-color="#D60270FF"/>
<stop offset="100%" stop-color="#D60270FF"/>
</linearGradient>
<path d="M388.83795,555.2236 L391.85724,552.6069 Q394.12167,550.64435,456.44122,571.41754 L539.53394,599.1151 Q601.85345,619.8883,599.18024,625.0119 L595.61597,631.84344 Q592.94275,636.9671,585.2321,644.41187 L574.9513,654.3382 Q567.2407,661.7829,513.0405,630.4039 L440.77365,588.5651 Q386.57352,557.1861,388.83795,555.2236 z" fill="url(#gradient_face24)" stroke="none" stroke-width="0"/>
<path d="M273,295 L276,315 L99,453 L85,431 L79,390 z" fill="none" stroke="none" stroke-width="0"/>
<linearGradient id="gradient_face25" x1="0" x2="1.01" y1="0" y2="1.01">
<stop offset="0%" stop-color="#B23086FF"/>
<stop offset="100%" stop-color="#AA3A8BFF"/>
</linearGradient>
<path d="M269.53418,305.60083 L270.1558,309.74487 Q270.622,312.85294,219.51477,352.69925 L151.37178,405.82767 Q100.26454,445.67398,97.12292,440.73715 L92.93408,434.1547 Q89.79246,429.21786,88.197395,418.3183 L86.07065,403.78552 Q84.47559,392.88596,139.8533,365.768 L213.69026,329.61075 Q269.068,302.49277,269.53418,305.60083 z" fill="url(#gradient_face25)" stroke="none" stroke-width="0"/>
<path d="M527,116 L552,116 L589,134 L561,345 L541,338 z" fill="none" stroke="none" stroke-width="0"/>
<linearGradient id="gradient_face26" x1="0" x2="1.01" y1="0" y2="1.01">
<stop offset="0%" stop-color="#7C4A99FF"/>
<stop offset="100%" stop-color="#52449EFF"/>
</linearGradient>
<path d="M537.88214,121 L545.2914,121 Q550.8483,121,560.6645,125.775444 L573.75275,132.1427 Q583.5689,136.91814,575.5538,197.31792 L564.86694,277.85095 Q556.8518,338.25073,553.5307,337.08835 L549.10254,335.53848 Q545.7814,334.3761,541.74457,270.36325 L536.3621,185.01283 Q532.32526,121,537.88214,121 z" fill="url(#gradient_face26)" stroke="none" stroke-width="0"/>
<path d="M369,564 L378,558 L568,668 L554,688 L519,710 L360,570 z" fill="none" stroke="none" stroke-width="0"/>
<linearGradient id="gradient_face27" x1="0" x2="1.01" y1="0" y2="1.01">
<stop offset="0%" stop-color="#D60270FF"/>
<stop offset="100%" stop-color="#D60270FF"/>
</linearGradient>
<path d="M373.69727,566.87775 L376.2623,565.1677 Q378.18607,563.8852,432.9639,595.5987 L506.00107,637.88336 Q560.77893,669.59686,557.69025,674.0092 L553.5721,679.89233 Q550.48346,684.3047,541.1888,690.14703 L528.79584,697.9369 Q519.50116,703.7793,474.1078,663.8103 L413.5833,610.5183 Q368.18994,570.54926,369.265,569.8326 L370.69843,568.87695 Q371.7735,568.1603,373.69727,566.87775 z" fill="url(#gradient_face27)" stroke="none" stroke-width="0"/>
<path d="M273,273 L273,295 L79,390 L69,367 L72,326 z" fill="none" stroke="none" stroke-width="0"/>
<linearGradient id="gradient_face28" x1="0" x2="1.01" y1="0" y2="1.01">
<stop offset="0%" stop-color="#B23086FF"/>
<stop offset="100%" stop-color="#AA3A8BFF"/>
</linearGradient>
<path d="M268,283.20685 L268,288.1636 Q268,291.88113,212.04984,319.27942 L137.4496,355.81046 Q81.49943,383.20874,79.27257,378.08698 L76.30343,371.25797 Q74.07658,366.13617,74.87146,355.27274 L75.931305,340.78815 Q76.7262,329.92468,134.10834,314.79407 L210.61786,294.61993 Q268,279.48932,268,283.20685 z" fill="url(#gradient_face28)" stroke="none" stroke-width="0"/>
<path d="M589,134 L614,139 L646,164 L581,357 L561,345 z" fill="none" stroke="none" stroke-width="0"/>
<linearGradient id="gradient_face29" x1="0" x2="1.01" y1="0" y2="1.01">
<stop offset="0%" stop-color="#7C4A99FF"/>
<stop offset="100%" stop-color="#52449EFF"/>
</linearGradient>
<path d="M598.8349,141.06601 L606.27576,142.55417 Q611.8564,143.6703,620.33887,150.29723 L631.6488,159.13312 Q640.1313,165.76006,621.5653,220.88678 L596.8106,294.3891 Q578.2446,349.51584,574.6878,347.38174 L569.9454,344.5363 Q566.38855,342.4022,574.4483,281.6665 L585.1946,200.68556 Q593.2543,139.94987,598.8349,141.06601 z" fill="url(#gradient_face29)" stroke="none" stroke-width="0"/>
<path d="M339,581 L360,570 L519,710 L500,729 L462,740 z" fill="none" stroke="none" stroke-width="0"/>
<linearGradient id="gradient_face30" x1="0" x2="1.01" y1="0" y2="1.01">
<stop offset="0%" stop-color="#D60270FF"/>
<stop offset="100%" stop-color="#D60270FF"/>
</linearGradient>
<path d="M350.40674,580.66943 L355.47455,578.0149 Q359.2754,576.024,405.00192,616.2863 L465.9706,669.9694 Q511.69714,710.2318,507.4002,714.52875 L501.671,720.25793 Q497.37405,724.5549,487.3243,727.464 L473.92465,731.34283 Q463.87488,734.252,428.69418,688.77454 L381.7866,628.1379 Q346.6059,582.6604,350.40674,580.66943 z" fill="url(#gradient_face30)" stroke="none" stroke-width="0"/>
<path d="M275,248 L273,269 L273,273 L72,326 L65,299 L77,263 z" fill="none" stroke="none" stroke-width="0"/>
<linearGradient id="gradient_face31" x1="0" x2="1.01" y1="0" y2="1.01">
<stop offset="0%" stop-color="#B23086FF"/>
<stop offset="100%" stop-color="#AA3A8BFF"/>
</linearGradient>
<path d="M269.02188,258.03256 L268.43796,264.1639 Q268,268.76245,268,268.87796 L268,269.03198 Q268,269.14752,210.27399,284.3688 L133.30598,304.66385 Q75.57997,319.88513,73.96937,313.67282 L71.82191,305.38977 Q70.21131,299.17746,73.3556,289.7446 L77.54797,277.16745 Q80.69226,267.73462,137.32254,263.44443 L212.82957,257.7242 Q269.45984,253.43404,269.02188,258.03256 z" fill="url(#gradient_face31)" stroke="none" stroke-width="0"/>
<path d="M646,164 L675,174 L696,204 L601,374 L594,369 L581,357 z" fill="none" stroke="none" stroke-width="0"/>
<linearGradient id="gradient_face32" x1="0" x2="1.01" y1="0" y2="1.01">
<stop offset="0%" stop-color="#7C4A99FF"/>
<stop offset="100%" stop-color="#52449EFF"/>
</linearGradient>
<path d="M655.94226,172.71729 L665.0238,175.84886 Q671.835,178.19754,677.31616,186.02777 L684.6244,196.46808 Q690.1055,204.29832,662.882,253.01413 L626.5839,317.96854 Q599.3604,366.68436,598.7006,366.21307 L597.8209,365.58472 Q597.16113,365.11346,594.0447,362.23672 L589.8894,358.40106 Q586.77295,355.52432,605.4804,299.9776 L630.42365,225.91531 Q649.1311,170.3686,655.94226,172.71729 z" fill="url(#gradient_face32)" stroke="none" stroke-width="0"/>
<path d="M314,589 L339,581 L462,740 L435,760 L401,760 z" fill="none" stroke="none" stroke-width="0"/>
<linearGradient id="gradient_face33" x1="0" x2="1.01" y1="0" y2="1.01">
<stop offset="0%" stop-color="#D60270FF"/>
<stop offset="100%" stop-color="#D60270FF"/>
</linearGradient>
<path d="M325.94147,590.42847 L332.36816,588.37195 Q337.1882,586.8295,372.50812,632.487 L419.60138,693.36365 Q454.92133,739.0211,448.44986,743.8148 L439.8213,750.20636 Q433.34985,755,424.56473,755 L412.8512,755 Q404.06607,755,379.18268,706.09125 L346.00482,640.87964 Q321.12143,591.9709,325.94147,590.42847 z" fill="url(#gradient_face33)" stroke="none" stroke-width="0"/>
<path d="M282,221 L275,248 L77,263 L75,227 L94,201 z" fill="none" stroke="none" stroke-width="0"/>
<linearGradient id="gradient_face34" x1="0" x2="1.01" y1="0" y2="1.01">
<stop offset="0%" stop-color="#B23086FF"/>
<stop offset="100%" stop-color="#AA3A8BFF"/>
</linearGradient>
<path d="M274.3105,230.73627 L272.4515,237.9066 Q271.05728,243.28436,214.25288,247.58772 L138.5137,253.32555 Q81.70931,257.6289,81.22395,248.89236 L80.576805,237.24365 Q80.09144,228.50711,84.965004,221.83801 L91.4631,212.94589 Q96.33666,206.2768,150.14708,212.00131 L221.8943,219.63399 Q275.7047,225.3585,274.3105,230.73627 z" fill="url(#gradient_face34)" stroke="none" stroke-width="0"/>
<path d="M696,204 L730,224 L738,252 L620,394 L601,374 z" fill="none" stroke="none" stroke-width="0"/>
<linearGradient id="gradient_face35" x1="0" x2="1.01" y1="0" y2="1.01">
<stop offset="0%" stop-color="#7C4A99FF"/>
<stop offset="100%" stop-color="#52449EFF"/>
</linearGradient>
<path d="M706.2322,215.81985 L717.38043,222.37764 Q725.74164,227.29599,727.7593,234.35768 L730.44946,243.7733 Q732.46704,250.835,698.652,291.52774 L653.5652,345.7847 Q619.7501,386.47742,615.97327,382.5018 L610.9375,377.201 Q607.16064,373.22534,634.3738,324.5282 L670.6579,259.59866 Q697.87103,210.9015,706.2322,215.81985 z" fill="url(#gradient_face35)" stroke="none" stroke-width="0"/>
<path d="M308,590 L314,589 L401,760 L363,779 L338,769 L285,595 z" fill="none" stroke="none" stroke-width="0"/>
<linearGradient id="gradient_face36" x1="0" x2="1.01" y1="0" y2="1.01">
<stop offset="0%" stop-color="#D60270FF"/>
<stop offset="100%" stop-color="#D60270FF"/>
</linearGradient>
<path d="M309.62164,594.7987 L310.52695,594.6478 Q311.20596,594.53467,336.12228,643.5081 L369.3441,708.80615 Q394.2604,757.7796,384.81396,762.50287 L372.2187,768.8005 Q362.77222,773.52374,356.5658,771.04114 L348.29053,767.7311 Q342.0841,765.2485,326.86807,715.29395 L306.58002,648.68787 Q291.36395,598.73334,296.63757,597.58685 L303.66904,596.0583 Q308.94263,594.91187,309.62164,594.7987 z" fill="url(#gradient_face36)" stroke="none" stroke-width="0"/>
<path d="M293,194 L290,204 L282,221 L94,201 L101,155 L122,143 z" fill="none" stroke="none" stroke-width="0"/>
<linearGradient id="gradient_face37" x1="0" x2="1.01" y1="0" y2="1.01">
<stop offset="0%" stop-color="#B23086FF"/>
<stop offset="100%" stop-color="#AA3A8BFF"/>
</linearGradient>
<path d="M286.33557,198.81427 L285.7539,200.75313 Q285.31766,202.20729,283.41962,206.2406 L280.88892,211.61835 Q278.9909,215.65167,225.21262,209.93057 L153.50824,202.30244 Q99.729965,196.58136,101.48481,185.04953 L103.8246,169.67377 Q105.57944,158.14194,110.69227,155.22032 L117.50938,151.32483 Q122.62221,148.40321,171.86708,163.09029 L237.52693,182.67303 Q286.77182,197.3601,286.33557,198.81427 z" fill="url(#gradient_face37)" stroke="none" stroke-width="0"/>
<path d="M738,252 L776,286 L773,306 L637,420 L620,394 z" fill="none" stroke="none" stroke-width="0"/>
<linearGradient id="gradient_face38" x1="0" x2="1.01" y1="0" y2="1.01">
<stop offset="0%" stop-color="#7C4A99FF"/>
<stop offset="100%" stop-color="#52449EFF"/>
</linearGradient>
<path d="M748.1682,267.8071 L761.0178,279.3041 Q770.655,287.92688,769.9594,292.56433 L769.0319,298.7476 Q768.3363,303.385,729.2664,336.13477 L677.1732,379.80112 Q638.10333,412.55087,634.5342,407.0921 L629.7752,399.81375 Q626.20605,394.35498,659.9035,353.8038 L704.8335,299.7355 Q738.53094,259.18433,748.1682,267.8071 z" fill="url(#gradient_face38)" stroke="none" stroke-width="0"/>
<path d="M253,596 L285,595 L338,769 L284,782 L274,769 z" fill="none" stroke="none" stroke-width="0"/>
<linearGradient id="gradient_face39" x1="0" x2="1.01" y1="0" y2="1.01">
<stop offset="0%" stop-color="#D60270FF"/>
<stop offset="100%" stop-color="#D60270FF"/>
</linearGradient>
<path d="M265.43536,600.61383 L274.51907,600.32996 Q281.33185,600.11707,296.43353,649.6962 L316.56912,715.8017 Q331.6708,765.38086,317.96494,768.6804 L299.69046,773.07983 Q285.98462,776.3794,283.82877,773.5768 L280.9543,769.83997 Q278.79846,767.0374,272.7457,717.1742 L264.67535,650.68994 Q258.62262,600.8267,265.43536,600.61383 z" fill="url(#gradient_face39)" stroke="none" stroke-width="0"/>
<path d="M310,165 L293,194 L122,143 L143,87 L153,87 z" fill="none" stroke="none" stroke-width="0"/>
<linearGradient id="gradient_face40" x1="0" x2="1.01" y1="0" y2="1.01">
<stop offset="0%" stop-color="#B23086FF"/>
<stop offset="100%" stop-color="#AA3A8BFF"/>
</linearGradient>
<path d="M299.28482,173.39194 L294.36215,181.7894 Q290.67017,188.0875,242.03792,173.58315 L177.1949,154.244 Q128.56264,139.73964,133.93335,125.41775 L141.0943,106.32189 Q146.465,92,148.07343,92 L150.21797,92 Q151.82639,92,197.17151,114.52815 L257.63168,144.56569 Q302.9768,167.09384,299.28482,173.39194 z" fill="url(#gradient_face40)" stroke="none" stroke-width="0"/>
<path d="M800,347 L800,368 L733,433 L657,457 L638,422 L637,420 L773,306 z" fill="none" stroke="none" stroke-width="0"/>
<linearGradient id="gradient_face41" x1="0" x2="1.01" y1="0" y2="1.01">
<stop offset="0%" stop-color="#7C4A99FF"/>
<stop offset="100%" stop-color="#52449EFF"/>
</linearGradient>
<path d="M795,353.71426 L795,360.66864 Q795,365.88443,775.6101,384.69553 L749.7569,409.777 Q730.367,428.5881,709.0849,435.30875 L680.70886,444.26962 Q659.4268,450.99026,654.3291,441.59976 L647.53217,429.07907 Q642.43445,419.68857,642.6755,420.17062 L642.9969,420.8134 Q643.2379,421.29544,681.8398,388.93796 L733.30896,345.79468 Q771.9109,313.4372,778.8376,323.9556 L788.07324,337.9801 Q795,348.49847,795,353.71426 z" fill="url(#gradient_face41)" stroke="none" stroke-width="0"/>
<path d="M219,592 L239,593 L253,596 L274,769 L204,766 L201,642 z" fill="none" stroke="none" stroke-width="0"/>
<linearGradient id="gradient_face42" x1="0" x2="1.01" y1="0" y2="1.01">
<stop offset="0%" stop-color="#D60270FF"/>
<stop offset="100%" stop-color="#D60270FF"/>
</linearGradient>
<path d="M227.21898,597.4172 L233.57791,597.73517 Q238.3471,597.9736,241.3828,598.6241 L245.43039,599.49146 Q248.46608,600.14197,254.42413,649.22504 L262.36823,714.6692 Q268.3263,763.75226,250.49403,762.98804 L226.7177,761.96906 Q208.88545,761.2048,208.02615,725.6875 L206.88045,678.3311 Q206.02115,642.81384,210.94974,629.1233 L217.5212,610.86926 Q222.44978,597.1787,227.21898,597.4172 z" fill="url(#gradient_face42)" stroke="none" stroke-width="0"/>
<path d="M318,131 L328,145 L310,165 L153,87 L204,33 z" fill="none" stroke="none" stroke-width="0"/>
<linearGradient id="gradient_face43" x1="0" x2="1.01" y1="0" y2="1.01">
<stop offset="0%" stop-color="#B23086FF"/>
<stop offset="100%" stop-color="#AA3A8BFF"/>
</linearGradient>
<path d="M316.47708,137.47023 L319.40323,141.56683 Q321.59784,144.63928,317.76563,148.89728 L312.65604,154.5746 Q308.82385,158.8326,264.55768,136.8405 L205.53613,107.517685 Q161.26996,85.52558,174.19664,71.83852 L191.43219,53.589104 Q204.35886,39.902042,237.33594,68.25076 L281.3054,106.04906 Q314.28247,134.39778,316.47708,137.47023 z" fill="url(#gradient_face43)" stroke="none" stroke-width="0"/>
<path d="M800,368 L800,439 L733,433 z" fill="none" stroke="none" stroke-width="0"/>
<linearGradient id="gradient_face44" x1="0" x2="1.01" y1="0" y2="1.01">
<stop offset="0%" stop-color="#0D080FFF"/>
<stop offset="100%" stop-color="#0D080FFF"/>
</linearGradient>
<path d="M795,395.9316 L795,417.4177 Q795,433.53223,779.79333,432.17044 L759.51776,430.3547 Q744.31104,428.99292,759.51776,414.24017 L779.79333,394.56982 Q795,379.81708,795,395.9316 z" fill="url(#gradient_face44)" stroke="none" stroke-width="0"/>
<path d="M800,439 L800,521 L657,478 L657,457 L733,433 z" fill="none" stroke="none" stroke-width="0"/>
<linearGradient id="gradient_face45" x1="0" x2="1.01" y1="0" y2="1.01">
<stop offset="0%" stop-color="#0D080FFF"/>
<stop offset="100%" stop-color="#0D080FFF"/>
</linearGradient>
<path d="M795,464.78317 L795,493.06442 Q795,514.2753,755.1,502.27744 L701.9,486.28024 Q662,474.28235,662,470.19696 L662,464.74982 Q662,460.66443,683.46533,453.88593 L712.08575,444.84787 Q733.5511,438.06937,751.9858,439.7202 L776.5653,441.9214 Q795,443.57224,795,464.78317 z" fill="url(#gradient_face45)" stroke="none" stroke-width="0"/>
<path d="M800,521 L800,614 L649,533 L655,489 L657,478 z" fill="none" stroke="none" stroke-width="0"/>
<linearGradient id="gradient_face46" x1="0" x2="1.01" y1="0" y2="1.01">
<stop offset="0%" stop-color="#0D080FFF"/>
<stop offset="100%" stop-color="#0D080FFF"/>
</linearGradient>
<path d="M795,548.99554 L795,581.366 Q795,605.6439,752.82697,583.0213 L696.5963,552.85785 Q654.4233,530.2352,656.07806,518.1003 L658.2844,501.92035 Q659.93915,489.78537,660.233,488.1696 L660.62463,486.01523 Q660.91846,484.39944,701.1429,496.4949 L754.7755,512.6222 Q795,524.71765,795,548.99554 z" fill="url(#gradient_face46)" stroke="none" stroke-width="0"/>
<path d="M800,614 L800,728 L629,588 L638,556 L649,533 z" fill="none" stroke="none" stroke-width="0"/>
<linearGradient id="gradient_face47" x1="0" x2="1.01" y1="0" y2="1.01">
<stop offset="0%" stop-color="#0D080FFF"/>
<stop offset="100%" stop-color="#0D080FFF"/>
</linearGradient>
<path d="M795,647.1276 L795,687.30865 Q795,717.44446,746.9097,678.0723 L682.78937,625.5761 Q634.6991,586.204,637.0984,577.67334 L640.29736,566.2992 Q642.6966,557.76855,645.263,552.40247 L648.6848,545.2477 Q651.2512,539.8816,694.37585,563.01465 L751.87537,593.85876 Q795,616.9918,795,647.1276 z" fill="url(#gradient_face47)" stroke="none" stroke-width="0"/>
<path d="M800,800 L728,800 L597,640 L609,617 L629,588 L800,728 z" fill="none" stroke="none" stroke-width="0"/>
<linearGradient id="gradient_face48" x1="0" x2="1.01" y1="0" y2="1.01">
<stop offset="0%" stop-color="#0D080FFF"/>
<stop offset="100%" stop-color="#0D080FFF"/>
</linearGradient>
<path d="M775.61053,795 L749.7579,795 Q730.36835,795,692.14575,748.3159 L641.1823,686.0705 Q602.9597,639.3864,606.059,633.44617 L610.1914,625.52576 Q613.29065,619.5855,618.31354,612.3023 L625.01074,602.59143 Q630.0336,595.3082,679.5235,635.8263 L745.5101,689.85034 Q795,730.3684,795,749.7579 L795,775.61053 Q795,795,775.61053,795 z" fill="url(#gradient_face48)" stroke="none" stroke-width="0"/>
<path d="M728,800 L614,800 L554,688 L568,668 L597,640 z" fill="none" stroke="none" stroke-width="0"/>
<linearGradient id="gradient_face49" x1="0" x2="1.01" y1="0" y2="1.01">
<stop offset="0%" stop-color="#0D080FFF"/>
<stop offset="100%" stop-color="#0D080FFF"/>
</linearGradient>
<path d="M687.309,795 L647.12885,795 Q616.9937,795,599.85333,763.00464 L576.9995,720.3442 Q559.85913,688.3488,563.4473,683.22284 L568.23157,676.3882 Q571.81976,671.2622,579.2445,664.09344 L589.1443,654.5351 Q596.56903,647.36633,632.8316,691.65643 L681.18164,750.7099 Q717.44415,795,687.309,795 z" fill="url(#gradient_face49)" stroke="none" stroke-width="0"/>
<path d="M614,800 L521,800 L500,729 L519,710 L554,688 z" fill="none" stroke="none" stroke-width="0"/>
<linearGradient id="gradient_face50" x1="0" x2="1.01" y1="0" y2="1.01">
<stop offset="0%" stop-color="#0D080FFF"/>
<stop offset="100%" stop-color="#0D080FFF"/>
</linearGradient>
<path d="M581.375,795 L549.0094,795 Q524.7352,795,519.00604,775.62994 L511.36716,749.80316 Q505.638,730.4331,510.58783,725.4832 L517.1876,718.8834 Q522.13745,713.9336,531.13324,708.2791 L543.1276,700.7398 Q552.1234,695.08527,568.18115,725.0597 L589.59143,765.0256 Q605.6492,795,581.375,795 z" fill="url(#gradient_face50)" stroke="none" stroke-width="0"/>
<path d="M521,800 L439,800 L435,760 L462,740 L500,729 z" fill="none" stroke="none" stroke-width="0"/>
<linearGradient id="gradient_face51" x1="0" x2="1.01" y1="0" y2="1.01">
<stop offset="0%" stop-color="#0D080FFF"/>
<stop offset="100%" stop-color="#0D080FFF"/>
</linearGradient>
<path d="M493.0724,795 L464.75955,795 Q443.52493,795,442.54477,785.1983 L441.23788,772.1294 Q440.25772,762.32776,447.45654,756.9953 L457.05496,749.8853 Q464.25378,744.55286,473.96222,741.74255 L486.90683,737.9954 Q496.61526,735.18506,501.9228,753.1295 L508.99948,777.05554 Q514.307,795,493.0724,795 z" fill="url(#gradient_face51)" stroke="none" stroke-width="0"/>
<path d="M439,800 L361,800 L363,779 L401,760 L435,760 z" fill="none" stroke="none" stroke-width="0"/>
<linearGradient id="gradient_face52" x1="0" x2="1.01" y1="0" y2="1.01">
<stop offset="0%" stop-color="#0D080FFF"/>
<stop offset="100%" stop-color="#0D080FFF"/>
</linearGradient>
<path d="M413.3822,795 L386.59167,795 Q366.4988,795,366.8636,791.16986 L367.34998,786.063 Q367.71475,782.2328,378.0544,777.063 L391.84067,770.16986 Q402.18033,765,410.66876,765 L421.98663,765 Q430.47507,765,431.37506,774 L432.57507,786 Q433.47507,795,413.3822,795 z" fill="url(#gradient_face52)" stroke="none" stroke-width="0"/>
<path d="M361,800 L279,800 L284,782 L338,769 L363,779 z" fill="none" stroke="none" stroke-width="0"/>
<linearGradient id="gradient_face53" x1="0" x2="1.01" y1="0" y2="1.01">
<stop offset="0%" stop-color="#0D080FFF"/>
<stop offset="100%" stop-color="#0D080FFF"/>
</linearGradient>
<path d="M335.19095,795 L306.84082,795 Q285.57822,795,286.3138,792.3518 L287.29465,788.8208 Q288.03027,786.1726,302.9077,782.591 L322.74435,777.8155 Q337.62183,774.2339,343.63556,776.6394 L351.6539,779.84674 Q357.66763,782.2522,357.3034,786.07654 L356.81778,791.17566 Q356.45355,795,335.19095,795 z" fill="url(#gradient_face53)" stroke="none" stroke-width="0"/>
<path d="M279,800 L186,800 L204,766 L274,769 L284,782 z" fill="none" stroke="none" stroke-width="0"/>
<linearGradient id="gradient_face54" x1="0" x2="1.01" y1="0" y2="1.01">
<stop offset="0%" stop-color="#0D080FFF"/>
<stop offset="100%" stop-color="#0D080FFF"/>
</linearGradient>
<path d="M250.93106,795 L218.57304,795 Q194.30452,795,198.09554,787.8392 L203.15022,778.29144 Q206.94124,771.1306,226.29619,771.96014 L252.10277,773.06616 Q271.4577,773.8956,273.57455,776.6475 L276.397,780.3167 Q278.51385,783.0686,277.51956,786.648 L276.19385,791.4206 Q275.1996,795,250.93106,795 z" fill="url(#gradient_face54)" stroke="none" stroke-width="0"/>
<path d="M186,800 L72,800 L201,642 L204,766 z" fill="none" stroke="none" stroke-width="0"/>
<linearGradient id="gradient_face55" x1="0" x2="1.01" y1="0" y2="1.01">
<stop offset="0%" stop-color="#0D080FFF"/>
<stop offset="100%" stop-color="#0D080FFF"/>
</linearGradient>
<path d="M152.85385,795 L112.67286,795 Q82.537125,795,116.67446,753.18835 L162.1909,697.4396 Q196.32825,655.6279,197.12073,688.38403 L198.17738,732.0589 Q198.96986,764.81506,194.17578,773.87054 L187.78368,785.9445 Q182.9896,795,152.85385,795 z" fill="url(#gradient_face55)" stroke="none" stroke-width="0"/>
<path d="M0,800 L0,728 L189,573 L219,592 L201,642 L72,800 z" fill="none" stroke="none" stroke-width="0"/>
<linearGradient id="gradient_face56" x1="0" x2="1.01" y1="0" y2="1.01">
<stop offset="0%" stop-color="#0D080FFF"/>
<stop offset="100%" stop-color="#0D080FFF"/>
</linearGradient>
<path d="M5,775.60974 L5,749.7561 Q5,730.36584,60.313107,685.0033 L134.06392,624.5198 Q189.37701,579.1572,196.44516,583.63367 L205.86934,589.60236 Q212.93748,594.07886,208.0319,607.70544 L201.49112,625.8743 Q196.58553,639.5009,158.49811,686.15063 L107.71487,748.3503 Q69.62743,795,50.239204,795 L24.388231,795 Q5,795,5,775.60974 z" fill="url(#gradient_face56)" stroke="none" stroke-width="0"/>
<path d="M0,728 L0,614 L147,535 L178,561 L189,573 z" fill="none" stroke="none" stroke-width="0"/>
<linearGradient id="gradient_face57" x1="0" x2="1.01" y1="0" y2="1.01">
<stop offset="0%" stop-color="#0D080FFF"/>
<stop offset="100%" stop-color="#0D080FFF"/>
</linearGradient>
<path d="M5,687.2999 L5,647.1224 Q5,616.9892,47.41481,594.1949 L103.96789,563.8024 Q146.3827,541.00806,154.82861,548.09174 L166.08984,557.5366 Q174.53575,564.6203,176.6983,566.97943 L179.5817,570.12494 Q181.74425,572.4841,128.72096,615.9688 L58.023273,673.94836 Q5,717.43304,5,687.2999 z" fill="url(#gradient_face57)" stroke="none" stroke-width="0"/>
<path d="M0,614 L0,521 L112,487 L132,510 L147,535 z" fill="none" stroke="none" stroke-width="0"/>
<linearGradient id="gradient_face58" x1="0" x2="1.01" y1="0" y2="1.01">
<stop offset="0%" stop-color="#0D080FFF"/>
<stop offset="100%" stop-color="#0D080FFF"/>
</linearGradient>
<path d="M5,581.35785 L5,548.9862 Q5,524.70746,36.60579,515.11285 L78.74684,502.32 Q110.35264,492.7254,115.62843,498.79257 L122.66283,506.88214 Q127.93862,512.9493,131.56166,518.9877 L136.3924,527.0389 Q140.01544,533.07733,99.5108,554.8451 L45.50463,583.86884 Q5,605.6366,5,581.35785 z" fill="url(#gradient_face58)" stroke="none" stroke-width="0"/>
<path d="M0,521 L0,439 L85,431 L99,453 L112,487 z" fill="none" stroke="none" stroke-width="0"/>
<linearGradient id="gradient_face59" x1="0" x2="1.01" y1="0" y2="1.01">
<stop offset="0%" stop-color="#0D080FFF"/>
<stop offset="100%" stop-color="#0D080FFF"/>
</linearGradient>
<path d="M5,493.04523 L5,464.7631 Q5,443.5515,28.22709,441.36542 L59.19655,438.45065 Q82.42364,436.2646,86.04963,441.96255 L90.88429,449.55988 Q94.510284,455.25787,97.781265,463.81274 L102.14258,475.21927 Q105.41356,483.77414,75.28949,492.91895 L35.12407,505.11203 Q5,514.25684,5,493.04523 z" fill="url(#gradient_face59)" stroke="none" stroke-width="0"/>
<path d="M0,439 L0,361 L69,367 L79,390 L85,431 z" fill="none" stroke="none" stroke-width="0"/>
<linearGradient id="gradient_face60" x1="0" x2="1.01" y1="0" y2="1.01">
<stop offset="0%" stop-color="#0D080FFF"/>
<stop offset="100%" stop-color="#0D080FFF"/>
</linearGradient>
<path d="M5,413.3912 L5,386.56976 Q5,366.45364,23.180445,368.03455 L47.421036,370.14243 Q65.60148,371.72336,68.16577,377.62122 L71.58483,385.48505 Q74.149124,391.3829,75.69152,401.92264 L77.74805,415.97556 Q79.29044,426.51526,57.00331,428.61288 L27.287132,431.4097 Q5,433.50732,5,413.3912 z" fill="url(#gradient_face60)" stroke="none" stroke-width="0"/>
<path d="M0,361 L0,279 L65,299 L72,326 L69,367 z" fill="none" stroke="none" stroke-width="0"/>
<linearGradient id="gradient_face61" x1="0" x2="1.01" y1="0" y2="1.01">
<stop offset="0%" stop-color="#0D080FFF"/>
<stop offset="100%" stop-color="#0D080FFF"/>
</linearGradient>
<path d="M5,335.22208 L5,306.96362 Q5,285.7698,21.758232,290.92618 L44.10254,297.80136 Q60.86077,302.95773,62.688496,310.00754 L65.125465,319.40726 Q66.95319,326.45706,66.182205,336.99384 L65.15423,351.04288 Q64.38324,361.57968,46.568268,360.03055 L22.814972,357.96506 Q5,356.41592,5,335.22208 z" fill="url(#gradient_face61)" stroke="none" stroke-width="0"/>
<path d="M0,279 L0,186 L75,227 L77,263 L65,299 z" fill="none" stroke="none" stroke-width="0"/>
<linearGradient id="gradient_face62" x1="0" x2="1.01" y1="0" y2="1.01">
<stop offset="0%" stop-color="#0D080FFF"/>
<stop offset="100%" stop-color="#0D080FFF"/>
</linearGradient>
<path d="M5,251.0445 L5,218.6943 Q5,194.43167,24.548578,205.11824 L50.61335,219.36697 Q70.161934,230.05353,70.699776,239.73477 L71.41691,252.64311 Q71.95475,262.32434,68.908745,271.4624 L64.84739,283.64642 Q61.80138,292.7845,44.760967,287.54126 L22.040413,280.55032 Q5,275.30713,5,251.0445 z" fill="url(#gradient_face62)" stroke="none" stroke-width="0"/>
<path d="M0,186 L0,72 L101,155 L94,201 L75,227 z" fill="none" stroke="none" stroke-width="0"/>
<linearGradient id="gradient_face63" x1="0" x2="1.01" y1="0" y2="1.01">
<stop offset="0%" stop-color="#0D080FFF"/>
<stop offset="100%" stop-color="#0D080FFF"/>
</linearGradient>
<path d="M5,152.89868 L5,112.71694 Q5,82.58063,32.188774,104.92388 L68.440475,134.71487 Q95.62924,157.05814,93.712776,169.65208 L91.15748,186.44402 Q89.24101,199.03796,84.533844,205.47935 L78.25762,214.06786 Q73.55046,220.50925,52.98532,209.26697 L25.565138,194.27727 Q5,183.03499,5,152.89868 z" fill="url(#gradient_face63)" stroke="none" stroke-width="0"/>
<path d="M0,0 L72,0 L143,87 L122,143 L101,155 L0,72 z" fill="none" stroke="none" stroke-width="0"/>
<linearGradient id="gradient_face64" x1="0" x2="1.01" y1="0" y2="1.01">
<stop offset="0%" stop-color="#0D080FFF"/>
<stop offset="100%" stop-color="#0D080FFF"/>
</linearGradient>
<path d="M24.388031,5 L50.238735,5 Q69.62677,5,89.93155,29.880505 L117.004585,63.054512 Q137.30937,87.93501,131.5022,103.42081 L123.7593,124.06853 Q117.95213,139.5543,113.02001,142.37267 L106.443855,146.13046 Q101.51174,148.94882,72.55822,125.155334 L33.95352,93.43068 Q5,69.63719,5,50.246033 L5,24.391157 Q5,5,24.388031,5 z" fill="url(#gradient_face64)" stroke="none" stroke-width="0"/>
<path d="M72,0 L186,0 L204,33 L153,87 L143,87 z" fill="none" stroke="none" stroke-width="0"/>
<linearGradient id="gradient_face65" x1="0" x2="1.01" y1="0" y2="1.01">
<stop offset="0%" stop-color="#0D080FFF"/>
<stop offset="100%" stop-color="#0D080FFF"/>
</linearGradient>
<path d="M112.68346,5 L152.88252,5 Q183.03183,5,187.48383,13.161994 L193.41983,24.044653 Q197.87183,32.206646,183.7637,47.144653 L164.95288,67.062 Q150.84477,82,149.20331,82 L147.0147,82 Q145.37323,82,126.52151,58.9 L101.38588,28.1 Q82.53415,5,112.68346,5 z" fill="url(#gradient_face65)" stroke="none" stroke-width="0"/>
<path d="M186,0 L279,0 L318,131 L204,33 z" fill="none" stroke="none" stroke-width="0"/>
<linearGradient id="gradient_face66" x1="0" x2="1.01" y1="0" y2="1.01">
<stop offset="0%" stop-color="#0D080FFF"/>
<stop offset="100%" stop-color="#0D080FFF"/>
</linearGradient>
<path d="M218.6774,5 L251.01698,5 Q275.27167,5,285.19537,38.333416 L298.42694,82.77797 Q308.35065,116.11138,278.23108,90.219124 L238.07166,55.696114 Q207.95209,29.803858,203.89328,22.362701 L198.48152,12.441157 Q194.42271,5,218.6774,5 z" fill="url(#gradient_face66)" stroke="none" stroke-width="0"/>
<path d="M279,0 L361,0 L373,124 L328,145 L318,131 z" fill="none" stroke="none" stroke-width="0"/>
<linearGradient id="gradient_face67" x1="0" x2="1.01" y1="0" y2="1.01">
<stop offset="0%" stop-color="#0D080FFF"/>
<stop offset="100%" stop-color="#0D080FFF"/>
</linearGradient>
<path d="M306.93195,5 L335.23398,5 Q356.4605,5,359.8272,39.789112 L364.31613,86.1746 Q367.6828,120.96371,356.2737,126.28795 L341.06158,133.38695 Q329.6525,138.71118,327.52292,135.72978 L324.6835,131.75458 Q322.55392,128.77316,311.4994,91.64122 L296.75998,42.13195 Q285.7054,5,306.93195,5 z" fill="url(#gradient_face67)" stroke="none" stroke-width="0"/>
<path d="M361,0 L439,0 L429,110 L394,120 L373,124 z" fill="none" stroke="none" stroke-width="0"/>
<linearGradient id="gradient_face68" x1="0" x2="1.01" y1="0" y2="1.01">
<stop offset="0%" stop-color="#0D080FFF"/>
<stop offset="100%" stop-color="#0D080FFF"/>
</linearGradient>
<path d="M386.61252,5 L413.41956,5 Q433.52484,5,430.76663,35.34019 L427.08905,75.79378 Q424.33084,106.133965,414.88452,108.83292 L402.2894,112.43152 Q392.84308,115.13047,388.2248,116.01015 L382.06708,117.183044 Q377.4488,118.06272,374.16632,84.143906 L369.7897,38.918816 Q366.50723,5,386.61252,5 z" fill="url(#gradient_face68)" stroke="none" stroke-width="0"/>
<path d="M439,0 L521,0 L489,107 L461,111 L429,110 z" fill="none" stroke="none" stroke-width="0"/>
<linearGradient id="gradient_face69" x1="0" x2="1.01" y1="0" y2="1.01">
<stop offset="0%" stop-color="#0D080FFF"/>
<stop offset="100%" stop-color="#0D080FFF"/>
</linearGradient>
<path d="M464.782,5 L493.06992,5 Q514.2859,5,505.53796,34.25079 L493.87408,73.25185 Q485.1262,102.50264,477.80508,103.548515 L468.04358,104.94301 Q460.72247,105.988884,452.8437,105.742676 L442.33865,105.41439 Q434.45987,105.16818,437.19174,75.11773 L440.83423,35.050453 Q443.56607,5,464.782,5 z" fill="url(#gradient_face69)" stroke="none" stroke-width="0"/>
<path d="M521,0 L614,0 L552,116 L527,116 L489,107 z" fill="none" stroke="none" stroke-width="0"/>
<linearGradient id="gradient_face70" x1="0" x2="1.01" y1="0" y2="1.01">
<stop offset="0%" stop-color="#0D080FFF"/>
<stop offset="100%" stop-color="#0D080FFF"/>
</linearGradient>
<path d="M549.0039,5 L581.3778,5 Q605.6582,5,588.6617,36.8 L565.9996,79.2 Q549.00305,111,542.57733,111 L534.0097,111 Q527.58405,111,517.9014,108.70675 L504.99127,105.649086 Q495.30865,103.355835,504.13312,73.84908 L515.89905,34.50675 Q524.7235,5,549.0039,5 z" fill="url(#gradient_face70)" stroke="none" stroke-width="0"/>
<path d="M614,0 L728,0 L614,139 L589,134 L552,116 z" fill="none" stroke="none" stroke-width="0"/>
<linearGradient id="gradient_face71" x1="0" x2="1.01" y1="0" y2="1.01">
<stop offset="0%" stop-color="#0D080FFF"/>
<stop offset="100%" stop-color="#0D080FFF"/>
</linearGradient>
<path d="M647.1277,5 L687.302,5 Q717.43274,5,685.81415,43.552536 L643.65594,94.95592 Q612.03735,133.50845,605.60913,132.22281 L597.03827,130.50864 Q590.61005,129.22299,581.0845,124.58891 L568.38367,118.41014 Q558.85803,113.77606,576.2997,81.14324 L599.5553,37.632816 Q616.99695,5,647.1277,5 z" fill="url(#gradient_face71)" stroke="none" stroke-width="0"/>
<path d="M800,0 L800,72 L675,174 L646,164 L614,139 L728,0 z" fill="none" stroke="none" stroke-width="0"/>
<linearGradient id="gradient_face72" x1="0" x2="1.01" y1="0" y2="1.01">
<stop offset="0%" stop-color="#0D080FFF"/>
<stop offset="100%" stop-color="#0D080FFF"/>
</linearGradient>
<path d="M795,24.38798 L795,50.238617 Q795,69.626595,758.69904,99.24817 L710.2978,138.74359 Q673.9968,168.36517,666.3237,165.71927 L656.09296,162.1914 Q648.4198,159.5455,640.2277,153.14543 L629.30493,144.612 Q621.11285,138.21193,653.88873,98.24835 L697.5899,44.96358 Q730.3658,5,749.75604,5 L775.60974,5 Q795,5,795,24.38798 z" fill="url(#gradient_face72)" stroke="none" stroke-width="0"/>
<path d="M800,72 L800,186 L730,224 L696,204 L675,174 z" fill="none" stroke="none" stroke-width="0"/>
<linearGradient id="gradient_face73" x1="0" x2="1.01" y1="0" y2="1.01">
<stop offset="0%" stop-color="#0D080FFF"/>
<stop offset="100%" stop-color="#0D080FFF"/>
</linearGradient>
<path d="M795,112.6809 L795,152.87756 Q795,183.02505,775.5296,193.5947 L749.5691,207.68753 Q730.09875,218.25717,720.9109,212.85254 L708.66034,205.64636 Q699.4725,200.24173,694.1586,192.65048 L687.0735,182.52882 Q681.7596,174.93758,715.7317,147.21632 L761.0279,110.254654 Q795,82.5334,795,112.6809 z" fill="url(#gradient_face73)" stroke="none" stroke-width="0"/>
<path d="M800,186 L800,279 L776,286 L738,252 L730,224 z" fill="none" stroke="none" stroke-width="0"/>
<linearGradient id="gradient_face74" x1="0" x2="1.01" y1="0" y2="1.01">
<stop offset="0%" stop-color="#0D080FFF"/>
<stop offset="100%" stop-color="#0D080FFF"/>
</linearGradient>
<path d="M795,218.65746 L795,250.99605 Q795,275.25,789.6795,276.80182 L782.5856,278.87088 Q777.2651,280.42267,766.8088,271.06705 L752.867,258.59283 Q742.4107,249.23718,740.4602,242.41046 L737.85956,233.30817 Q735.90906,226.48145,753.63635,216.85808 L777.2727,204.0269 Q795,194.40352,795,218.65746 z" fill="url(#gradient_face74)" stroke="none" stroke-width="0"/>
<path d="M800,279 L800,347 L773,306 L776,286 z" fill="none" stroke="none" stroke-width="0"/>
<linearGradient id="gradient_face75" x1="0" x2="1.01" y1="0" y2="1.01">
<stop offset="0%" stop-color="#0D080FFF"/>
<stop offset="100%" stop-color="#0D080FFF"/>
</linearGradient>
<path d="M795,299.06158 L795,316.92145 Q795,330.31635,789.96857,322.67606 L783.2601,312.48898 Q778.22864,304.8487,778.9011,300.36545 L779.7978,294.38776 Q780.4703,289.9045,784.82916,288.63315 L790.64105,286.93802 Q795,285.66666,795,299.06158 z" fill="url(#gradient_face75)" stroke="none" stroke-width="0"/>
<circle cx="400" cy="400" fill="none" r="0" stroke="none" stroke-width="0"/>
<circle cx="395" cy="408" fill="none" r="0" stroke="none" stroke-width="0"/>
<circle cx="392" cy="383" fill="none" r="0" stroke="none" stroke-width="0"/>
<circle cx="427" cy="404" fill="none" r="0" stroke="none" stroke-width="0"/>
<circle cx="376" cy="427" fill="none" r="0" stroke="none" stroke-width="0"/>
<circle cx="387" cy="356" fill="none" r="0" stroke="none" stroke-width="0"/>
<circle cx="452" cy="415" fill="none" r="0" stroke="none" stroke-width="0"/>
<circle cx="352" cy="442" fill="none" r="0" stroke="none" stroke-width="0"/>
<circle cx="390" cy="328" fill="none" r="0" stroke="none" stroke-width="0"/>
<circle cx="474" cy="434" fill="none" r="0" stroke="none" stroke-width="0"/>
<circle cx="324" cy="449" fill="none" r="0" stroke="none" stroke-width="0"/>
<circle cx="400" cy="300" fill="none" r="0" stroke="none" stroke-width="0"/>
<circle cx="492" cy="459" fill="none" r="0" stroke="none" stroke-width="0"/>
<circle cx="292" cy="449" fill="none" r="0" stroke="none" stroke-width="0"/>
<circle cx="418" cy="274" fill="none" r="0" stroke="none" stroke-width="0"/>
<circle cx="503" cy="489" fill="none" r="0" stroke="none" stroke-width="0"/>
<circle cx="260" cy="441" fill="none" r="0" stroke="none" stroke-width="0"/>
<circle cx="444" cy="252" fill="none" r="0" stroke="none" stroke-width="0"/>
<circle cx="507" cy="524" fill="none" r="0" stroke="none" stroke-width="0"/>
<circle cx="229" cy="425" fill="none" r="0" stroke="none" stroke-width="0"/>
<circle cx="476" cy="235" fill="none" r="0" stroke="none" stroke-width="0"/>
<circle cx="503" cy="561" fill="none" r="0" stroke="none" stroke-width="0"/>
<circle cx="200" cy="400" fill="none" r="0" stroke="none" stroke-width="0"/>
<circle cx="513" cy="224" fill="none" r="0" stroke="none" stroke-width="0"/>
<circle cx="491" cy="598" fill="none" r="0" stroke="none" stroke-width="0"/>
<circle cx="175" cy="368" fill="none" r="0" stroke="none" stroke-width="0"/>
<circle cx="555" cy="221" fill="none" r="0" stroke="none" stroke-width="0"/>
<circle cx="469" cy="636" fill="none" r="0" stroke="none" stroke-width="0"/>
<circle cx="156" cy="328" fill="none" r="0" stroke="none" stroke-width="0"/>
<circle cx="599" cy="227" fill="none" r="0" stroke="none" stroke-width="0"/>
<circle cx="439" cy="670" fill="none" r="0" stroke="none" stroke-width="0"/>
<circle cx="144" cy="283" fill="none" r="0" stroke="none" stroke-width="0"/>
<circle cx="645" cy="243" fill="none" r="0" stroke="none" stroke-width="0"/>
<circle cx="400" cy="700" fill="none" r="0" stroke="none" stroke-width="0"/>
<circle cx="140" cy="233" fill="none" r="0" stroke="none" stroke-width="0"/>
<circle cx="689" cy="268" fill="none" r="0" stroke="none" stroke-width="0"/>
<circle cx="353" cy="724" fill="none" r="0" stroke="none" stroke-width="0"/>
<circle cx="146" cy="180" fill="none" r="0" stroke="none" stroke-width="0"/>
<circle cx="731" cy="303" fill="none" r="0" stroke="none" stroke-width="0"/>
<circle cx="300" cy="740" fill="none" r="0" stroke="none" stroke-width="0"/>
<circle cx="162" cy="125" fill="none" r="0" stroke="none" stroke-width="0"/>
<circle cx="769" cy="347" fill="none" r="0" stroke="none" stroke-width="0"/>
<circle cx="241" cy="747" fill="none" r="0" stroke="none" stroke-width="0"/>
<circle cx="189" cy="71" fill="none" r="0" stroke="none" stroke-width="0"/>
<circle cx="820" cy="400" fill="none" r="0" stroke="none" stroke-width="0"/>
<circle cx="812" cy="482" fill="none" r="0" stroke="none" stroke-width="0"/>
<circle cx="788" cy="561" fill="none" r="0" stroke="none" stroke-width="0"/>
<circle cx="749" cy="633" fill="none" r="0" stroke="none" stroke-width="0"/>
<circle cx="697" cy="697" fill="none" r="0" stroke="none" stroke-width="0"/>
<circle cx="633" cy="749" fill="none" r="0" stroke="none" stroke-width="0"/>
<circle cx="561" cy="788" fill="none" r="0" stroke="none" stroke-width="0"/>
<circle cx="482" cy="812" fill="none" r="0" stroke="none" stroke-width="0"/>
<circle cx="400" cy="820" fill="none" r="0" stroke="none" stroke-width="0"/>
<circle cx="318" cy="812" fill="none" r="0" stroke="none" stroke-width="0"/>
<circle cx="239" cy="788" fill="none" r="0" stroke="none" stroke-width="0"/>
<circle cx="167" cy="749" fill="none" r="0" stroke="none" stroke-width="0"/>
<circle cx="103" cy="697" fill="none" r="0" stroke="none" stroke-width="0"/>
<circle cx="51" cy="633" fill="none" r="0" stroke="none" stroke-width="0"/>
<circle cx="12" cy="561" fill="none" r="0" stroke="none" stroke-width="0"/>
<circle cx="-12" cy="482" fill="none" r="0" stroke="none" stroke-width="0"/>
<circle cx="-20" cy="400" fill="none" r="0" stroke="none" stroke-width="0"/>
<circle cx="-12" cy="318" fill="none" r="0" stroke="none" stroke-width="0"/>
<circle cx="12" cy="239" fill="none" r="0" stroke="none" stroke-width="0"/>
<circle cx="51" cy="167" fill="none" r="0" stroke="none" stroke-width="0"/>
<circle cx="103" cy="103" fill="none" r="0" stroke="none" stroke-width="0"/>
<circle cx="167" cy="51" fill="none" r="0" stroke="none" stroke-width="0"/>
<circle cx="239" cy="12" fill="none" r="0" stroke="none" stroke-width="0"/>
<circle cx="318" cy="-12" fill="none" r="0" stroke="none" stroke-width="0"/>
<circle cx="400" cy="-20" fill="none" r="0" stroke="none" stroke-width="0"/>
<circle cx="482" cy="-12" fill="none" r="0" stroke="none" stroke-width="0"/>
<circle cx="561" cy="12" fill="none" r="0" stroke="none" stroke-width="0"/>
<circle cx="633" cy="51" fill="none" r="0" stroke="none" stroke-width="0"/>
<circle cx="697" cy="103" fill="none" r="0" stroke="none" stroke-width="0"/>
<circle cx="749" cy="167" fill="none" r="0" stroke="none" stroke-width="0"/>
<circle cx="788" cy="239" fill="none" r="0" stroke="none" stroke-width="0"/>
<circle cx="812" cy="318" fill="none" r="0" stroke="none" stroke-width="0"/>
<circle cx="284" cy="782" fill="none" r="0" stroke="none" stroke-width="0"/>
<circle cx="274" cy="769" fill="none" r="0" stroke="none" stroke-width="0"/>
<circle cx="204" cy="766" fill="none" r="0" stroke="none" stroke-width="0"/>
<circle cx="363" cy="779" fill="none" r="0" stroke="none" stroke-width="0"/>
<circle cx="338" cy="769" fill="none" r="0" stroke="none" stroke-width="0"/>
<circle cx="401" cy="760" fill="none" r="0" stroke="none" stroke-width="0"/>
<circle cx="435" cy="760" fill="none" r="0" stroke="none" stroke-width="0"/>
<circle cx="462" cy="740" fill="none" r="0" stroke="none" stroke-width="0"/>
<circle cx="500" cy="729" fill="none" r="0" stroke="none" stroke-width="0"/>
<circle cx="519" cy="710" fill="none" r="0" stroke="none" stroke-width="0"/>
<circle cx="554" cy="688" fill="none" r="0" stroke="none" stroke-width="0"/>
<circle cx="568" cy="668" fill="none" r="0" stroke="none" stroke-width="0"/>
<circle cx="201" cy="642" fill="none" r="0" stroke="none" stroke-width="0"/>
<circle cx="597" cy="640" fill="none" r="0" stroke="none" stroke-width="0"/>
<circle cx="609" cy="617" fill="none" r="0" stroke="none" stroke-width="0"/>
<circle cx="629" cy="588" fill="none" r="0" stroke="none" stroke-width="0"/>
<circle cx="285" cy="595" fill="none" r="0" stroke="none" stroke-width="0"/>
<circle cx="314" cy="589" fill="none" r="0" stroke="none" stroke-width="0"/>
<circle cx="308" cy="590" fill="none" r="0" stroke="none" stroke-width="0"/>
<circle cx="339" cy="581" fill="none" r="0" stroke="none" stroke-width="0"/>
<circle cx="253" cy="596" fill="none" r="0" stroke="none" stroke-width="0"/>
<circle cx="360" cy="570" fill="none" r="0" stroke="none" stroke-width="0"/>
<circle cx="369" cy="564" fill="none" r="0" stroke="none" stroke-width="0"/>
<circle cx="239" cy="593" fill="none" r="0" stroke="none" stroke-width="0"/>
<circle cx="378" cy="558" fill="none" r="0" stroke="none" stroke-width="0"/>
<circle cx="219" cy="592" fill="none" r="0" stroke="none" stroke-width="0"/>
<circle cx="393" cy="545" fill="none" r="0" stroke="none" stroke-width="0"/>
<circle cx="404" cy="531" fill="none" r="0" stroke="none" stroke-width="0"/>
<circle cx="189" cy="573" fill="none" r="0" stroke="none" stroke-width="0"/>
<circle cx="411" cy="518" fill="none" r="0" stroke="none" stroke-width="0"/>
<circle cx="638" cy="556" fill="none" r="0" stroke="none" stroke-width="0"/>
<circle cx="412" cy="516" fill="none" r="0" stroke="none" stroke-width="0"/>
<circle cx="417" cy="504" fill="none" r="0" stroke="none" stroke-width="0"/>
<circle cx="178" cy="561" fill="none" r="0" stroke="none" stroke-width="0"/>
<circle cx="421" cy="489" fill="none" r="0" stroke="none" stroke-width="0"/>
<circle cx="422" cy="473" fill="none" r="0" stroke="none" stroke-width="0"/>
<circle cx="419" cy="454" fill="none" r="0" stroke="none" stroke-width="0"/>
<circle cx="416" cy="446" fill="none" r="0" stroke="none" stroke-width="0"/>
<circle cx="147" cy="535" fill="none" r="0" stroke="none" stroke-width="0"/>
<circle cx="412" cy="413" fill="none" r="0" stroke="none" stroke-width="0"/>
<circle cx="649" cy="533" fill="none" r="0" stroke="none" stroke-width="0"/>
<circle cx="386" cy="396" fill="none" r="0" stroke="none" stroke-width="0"/>
<circle cx="132" cy="510" fill="none" r="0" stroke="none" stroke-width="0"/>
<circle cx="366" cy="399" fill="none" r="0" stroke="none" stroke-width="0"/>
<circle cx="112" cy="487" fill="none" r="0" stroke="none" stroke-width="0"/>
<circle cx="416" cy="383" fill="none" r="0" stroke="none" stroke-width="0"/>
<circle cx="733" cy="433" fill="none" r="0" stroke="none" stroke-width="0"/>
<circle cx="99" cy="453" fill="none" r="0" stroke="none" stroke-width="0"/>
<circle cx="655" cy="489" fill="none" r="0" stroke="none" stroke-width="0"/>
<circle cx="337" cy="388" fill="none" r="0" stroke="none" stroke-width="0"/>
<circle cx="657" cy="478" fill="none" r="0" stroke="none" stroke-width="0"/>
<circle cx="85" cy="431" fill="none" r="0" stroke="none" stroke-width="0"/>
<circle cx="428" cy="362" fill="none" r="0" stroke="none" stroke-width="0"/>
<circle cx="328" cy="382" fill="none" r="0" stroke="none" stroke-width="0"/>
<circle cx="320" cy="379" fill="none" r="0" stroke="none" stroke-width="0"/>
<circle cx="657" cy="457" fill="none" r="0" stroke="none" stroke-width="0"/>
<circle cx="79" cy="390" fill="none" r="0" stroke="none" stroke-width="0"/>
<circle cx="308" cy="370" fill="none" r="0" stroke="none" stroke-width="0"/>
<circle cx="446" cy="347" fill="none" r="0" stroke="none" stroke-width="0"/>
<circle cx="69" cy="367" fill="none" r="0" stroke="none" stroke-width="0"/>
<circle cx="638" cy="422" fill="none" r="0" stroke="none" stroke-width="0"/>
<circle cx="298" cy="360" fill="none" r="0" stroke="none" stroke-width="0"/>
<circle cx="637" cy="420" fill="none" r="0" stroke="none" stroke-width="0"/>
<circle cx="463" cy="339" fill="none" r="0" stroke="none" stroke-width="0"/>
<circle cx="773" cy="306" fill="none" r="0" stroke="none" stroke-width="0"/>
<circle cx="473" cy="337" fill="none" r="0" stroke="none" stroke-width="0"/>
<circle cx="620" cy="394" fill="none" r="0" stroke="none" stroke-width="0"/>
<circle cx="477" cy="335" fill="none" r="0" stroke="none" stroke-width="0"/>
<circle cx="289" cy="347" fill="none" r="0" stroke="none" stroke-width="0"/>
<circle cx="72" cy="326" fill="none" r="0" stroke="none" stroke-width="0"/>
<circle cx="491" cy="331" fill="none" r="0" stroke="none" stroke-width="0"/>
<circle cx="776" cy="286" fill="none" r="0" stroke="none" stroke-width="0"/>
<circle cx="601" cy="374" fill="none" r="0" stroke="none" stroke-width="0"/>
<circle cx="594" cy="369" fill="none" r="0" stroke="none" stroke-width="0"/>
<circle cx="506" cy="330" fill="none" r="0" stroke="none" stroke-width="0"/>
<circle cx="283" cy="333" fill="none" r="0" stroke="none" stroke-width="0"/>
<circle cx="581" cy="357" fill="none" r="0" stroke="none" stroke-width="0"/>
<circle cx="283" cy="332" fill="none" r="0" stroke="none" stroke-width="0"/>
<circle cx="523" cy="333" fill="none" r="0" stroke="none" stroke-width="0"/>
<circle cx="537" cy="337" fill="none" r="0" stroke="none" stroke-width="0"/>
<circle cx="561" cy="345" fill="none" r="0" stroke="none" stroke-width="0"/>
<circle cx="541" cy="338" fill="none" r="0" stroke="none" stroke-width="0"/>
<circle cx="65" cy="299" fill="none" r="0" stroke="none" stroke-width="0"/>
<circle cx="276" cy="315" fill="none" r="0" stroke="none" stroke-width="0"/>
<circle cx="738" cy="252" fill="none" r="0" stroke="none" stroke-width="0"/>
<circle cx="77" cy="263" fill="none" r="0" stroke="none" stroke-width="0"/>
<circle cx="273" cy="295" fill="none" r="0" stroke="none" stroke-width="0"/>
<circle cx="730" cy="224" fill="none" r="0" stroke="none" stroke-width="0"/>
<circle cx="75" cy="227" fill="none" r="0" stroke="none" stroke-width="0"/>
<circle cx="94" cy="201" fill="none" r="0" stroke="none" stroke-width="0"/>
<circle cx="273" cy="273" fill="none" r="0" stroke="none" stroke-width="0"/>
<circle cx="696" cy="204" fill="none" r="0" stroke="none" stroke-width="0"/>
<circle cx="273" cy="269" fill="none" r="0" stroke="none" stroke-width="0"/>
<circle cx="275" cy="248" fill="none" r="0" stroke="none" stroke-width="0"/>
<circle cx="101" cy="155" fill="none" r="0" stroke="none" stroke-width="0"/>
<circle cx="675" cy="174" fill="none" r="0" stroke="none" stroke-width="0"/>
<circle cx="122" cy="143" fill="none" r="0" stroke="none" stroke-width="0"/>
<circle cx="646" cy="164" fill="none" r="0" stroke="none" stroke-width="0"/>
<circle cx="282" cy="221" fill="none" r="0" stroke="none" stroke-width="0"/>
<circle cx="290" cy="204" fill="none" r="0" stroke="none" stroke-width="0"/>
<circle cx="614" cy="139" fill="none" r="0" stroke="none" stroke-width="0"/>
<circle cx="153" cy="87" fill="none" r="0" stroke="none" stroke-width="0"/>
<circle cx="293" cy="194" fill="none" r="0" stroke="none" stroke-width="0"/>
<circle cx="143" cy="87" fill="none" r="0" stroke="none" stroke-width="0"/>
<circle cx="589" cy="134" fill="none" r="0" stroke="none" stroke-width="0"/>
<circle cx="552" cy="116" fill="none" r="0" stroke="none" stroke-width="0"/>
<circle cx="310" cy="165" fill="none" r="0" stroke="none" stroke-width="0"/>
<circle cx="527" cy="116" fill="none" r="0" stroke="none" stroke-width="0"/>
<circle cx="204" cy="33" fill="none" r="0" stroke="none" stroke-width="0"/>
<circle cx="318" cy="131" fill="none" r="0" stroke="none" stroke-width="0"/>
<circle cx="489" cy="107" fill="none" r="0" stroke="none" stroke-width="0"/>
<circle cx="328" cy="145" fill="none" r="0" stroke="none" stroke-width="0"/>
<circle cx="328" cy="145" fill="none" r="0" stroke="none" stroke-width="0"/>
<circle cx="461" cy="111" fill="none" r="0" stroke="none" stroke-width="0"/>
<circle cx="394" cy="120" fill="none" r="0" stroke="none" stroke-width="0"/>
<circle cx="373" cy="124" fill="none" r="0" stroke="none" stroke-width="0"/>
<circle cx="429" cy="110" fill="none" r="0" stroke="none" stroke-width="0"/>
<circle cx="0" cy="0" fill="none" r="0" stroke="none" stroke-width="0"/>
<circle cx="800" cy="0" fill="none" r="0" stroke="none" stroke-width="0"/>
<circle cx="800" cy="800" fill="none" r="0" stroke="none" stroke-width="0"/>
<circle cx="0" cy="800" fill="none" r="0" stroke="none" stroke-width="0"/>
<circle cx="800" cy="347" fill="none" r="0" stroke="none" stroke-width="0"/>
<circle cx="800" cy="368" fill="none" r="0" stroke="none" stroke-width="0"/>
<circle cx="800" cy="439" fill="none" r="0" stroke="none" stroke-width="0"/>
<circle cx="800" cy="521" fill="none" r="0" stroke="none" stroke-width="0"/>
<circle cx="800" cy="614" fill="none" r="0" stroke="none" stroke-width="0"/>
<circle cx="800" cy="728" fill="none" r="0" stroke="none" stroke-width="0"/>
<circle cx="728" cy="800" fill="none" r="0" stroke="none" stroke-width="0"/>
<circle cx="614" cy="800" fill="none" r="0" stroke="none" stroke-width="0"/>
<circle cx="521" cy="800" fill="none" r="0" stroke="none" stroke-width="0"/>
<circle cx="439" cy="800" fill="none" r="0" stroke="none" stroke-width="0"/>
<circle cx="361" cy="800" fill="none" r="0" stroke="none" stroke-width="0"/>
<circle cx="279" cy="800" fill="none" r="0" stroke="none" stroke-width="0"/>
<circle cx="186" cy="800" fill="none" r="0" stroke="none" stroke-width="0"/>
<circle cx="72" cy="800" fill="none" r="0" stroke="none" stroke-width="0"/>
<circle cx="0" cy="728" fill="none" r="0" stroke="none" stroke-width="0"/>
<circle cx="0" cy="614" fill="none" r="0" stroke="none" stroke-width="0"/>
<circle cx="0" cy="521" fill="none" r="0" stroke="none" stroke-width="0"/>
<circle cx="0" cy="439" fill="none" r="0" stroke="none" stroke-width="0"/>
<circle cx="0" cy="361" fill="none" r="0" stroke="none" stroke-width="0"/>
<circle cx="0" cy="279" fill="none" r="0" stroke="none" stroke-width="0"/>
<circle cx="0" cy="186" fill="none" r="0" stroke="none" stroke-width="0"/>
<circle cx="0" cy="72" fill="none" r="0" stroke="none" stroke-width="0"/>
<circle cx="72" cy="0" fill="none" r="0" stroke="none" stroke-width="0"/>
<circle cx="186" cy="0" fill="none" r="0" stroke="none" stroke-width="0"/>
<circle cx="279" cy="0" fill="none" r="0" stroke="none" stroke-width="0"/>
<circle cx="361" cy="0" fill="none" r="0" stroke="none" stroke-width="0"/>
<circle cx="439" cy="0" fill="none" r="0" stroke="none" stroke-width="0"/>
<circle cx="521" cy="0" fill="none" r="0" stroke="none" stroke-width="0"/>
<circle cx="614" cy="0" fill="none" r="0" stroke="none" stroke-width="0"/>
<circle cx="728" cy="0" fill="none" r="0" stroke="none" stroke-width="0"/>
<circle cx="800" cy="72" fill="none" r="0" stroke="none" stroke-width="0"/>
<circle cx="800" cy="186" fill="none" r="0" stroke="none" stroke-width="0"/>
<circle cx="800" cy="279" fill="none" r="0" stroke="none" stroke-width="0"/>
</svg>